:2000000001450040044F00400B520040015B004002640040016500402F0001402F01014061
:200020004E0201404D03014028040140410501401C060140430701404C0801404A09014093
:200040001D0A01403A0B0140060D0140040E0140020F01401F140140421501403216014024
:2000600044170140291801404A1901400B1B01400F4001401C410140114201400943014008
:20008000024401400E4501400A4601400F470140184801401B4901401F4C01400B4D014092
:2000A00006500140035101407E0201100A4B0D30164B009A013C02780834091010201801A1
:2000C0001902782079387C402784806784068967020403100501060108080C040F04120287
:2000E000144016801A081B211C101D021E202002230224012708282029042A102C802D0804
:200100002E40331F352036FF39083E403F045407580459045B0B5D905F018E039402B201F2
:20012000B602BE40D808D904DB04DC09DF0100E801010204048009100AA30B140E2010EA27
:2001400018021D401E20200C2208230828442A842E01302032C9368838463B103C043D01D0
:200160003E803F1059485B20610462206E086F4678017F01820483448702C08FC22FC40F62
:20018000CA8FCC5FCEFFD60ED806DE1108010C011001160118011C012801320140614105A6
:2001A00049FF4AFF4BFF4DA04F0150185608580459045A085B045D995F016040628064406B
:2001C0006540668068406A506BA86C406D206E506FA8800886038C019201AE0CB002B208BA
:2001E000B401B604BE14C024C101C50EC6C5C702C83DC9FFCAFFCBFFCDAFCE07CF01D01888
:20020000D280D80BD904DA0BDB0ADC09DD99DF01E040E280E440E540E680E840EA50EBA8A1
:20022000EC40ED20EE50EFA8004803800420051007090A400E800F161201171018441908E8
:200240001B901F0429102E013299331136C0371839013B043D013F164004410142024605F3
:20026000472049044A084B104C014F205040510152255C805D2064056702724078057F012E
:20028000800182028404874092029480950196A197069B089C019D0C9F20A208A4FAA62042
:2002A000A910AA80B004B101C0CDC2F8C441CA84CC7FCEE3D01DD230D630D830DE13E60E7D
:2002C000EE2004010A01100116011C012001230124012A023401360237015602573D580438
:2002E00059045B0E5F0185308B028F04930194019710990CA101A203A520A908B10CB20260
:20030000B530B601B703D401D80ED904DB0EDC90DF01010402180AA10E1010081101130491
:20032000170118041A031E101F4022C024C027092A022C042F5032593719382039013A1057
:200340003B043C403E244BC05B205F406080685A70A072027B207F20800483208501885076
:2003600089208C108E509020950196A197849D20A208A4FAA680B080B120B304C006C22D2A
:20038000C41ECAE1CCEFCE77D614D801DE42E208E605EA8000200102060108080C020D0356
:2003A0001240160418801B011E1020C02403280C2C3030C0320C340335033630580459049C
:2003C0005B045C995F01D804D904DF01029804040550064007200A230C100E521040110161
:2003E0001304160817451C041E521F042510262028402A10329936203B043C803F025E429F
:200400005F28660467096E046F457440760877108040820486209080910592019304962426
:2004200097209A109B089C049E209F10A002A288AB20AC80AE01B208B304C0FEC2F5C4FC93
:20044000CA05CC2FCE92D6F0D870E208E818EA01EE024015410449FF4AFF4BFF4DA04F01ED
:2004600050185608580459045A0B5B045D995F016040628064406540668068406A506BA8BD
:200480006C406D206E506FA887048E068F0495029A019C049F03A104B001B104B301B404B1
:2004A000B602B702BE10BF41C045C101C50EC6C5C702C83DC9FFCAFFCBFFCDAFCE07CF018E
:2004C000D018D280D80BD90BDA0BDB0ADC99DD99DF01E040E280E440E540E680E840EA50F3
:2004E000EBA8EC40ED20EE50EFA802020404060A07020A010B080C200E2215011620190156
:200500001A0921092240238029012C202D042E202F013108338036393B483E0C4020410596
:200520004202478249044A024E025104521253805C8066407340780A7E8086409101920496
:200540009308988A9B029C10A021A102A2A9AA40AB14AD01AE08AF08B004B102B225B480B0
:20056000B508C061C2E3C430CA71CCEACE4AD099D218D610D810DE83E810EC80EE200901FD
:200580000D011301170119011D012B0135015608580459045B045D905F0184029201960411
:2005A000A402B004B202B601B808BE04D203D302D804D904DB04DF0100100101049005091E
:2005C00009020A010C210E010F1010A01340150117441C021D031E021F4820082A202C20B3
:2005E0002E0130A03112320833403629374038903BC03E0458105A405B10600A62806D40CB
:200600006F048140874088118B108C908D108E2093089B02C0FAC2F9C4BDCAC4CCFFCE4CA3
:20062000D60CD80CE050E220E4E0E60182808B049B02A280E60AEE2039803F4059045F01D4
:20064000228023025608580459045B045D905F018003870189018A039101970198029A018F
:200660009C019D019E02A003A101A403A501AA03B002B401B501D608D804D904DB04DD9060
:20068000DF010104028803040502070408480A200B100C400E020F041101130414881504F0
:2006A0001C041F02251029022D07300132983401368939043A103F145B805D485E10630249
:2006C000655067208150850886408B828C048E10910592209304972098809A109D50A2890F
:2006E000A640A701AF20B180B204B440B608C05EC2C5C47CCAC1CCDFCE66D678D878E040F7
:20070000E430E6C0EC2004010A010C0118011E012001240134015608580459045B045D90E0
:200720005F0185018D028F0197029F02A304AE01B101B201B304B502C004C702C810C9FF24
:20074000CAFFCBFFCDA0D008D280D804D904DA04DB04DC20DD22DF01E080E240E340E44055
:20076000E640E840EA40EC40EE40010402880304061007060A210E030F0810021101121055
:200780001306148015041A201B0C1F2020402110220429012D052F0831803204348036894F
:2007A00038483F04404050045C085E805F20641466407101800885048720891091059201D7
:2007C0009304962097209C149D509E40A002A288A701B510B701C0EEC2C5C43DCAE1CCDA22
:2007E000CE4AD001D670D870E024E402E620EA08EE02040114021E0222012E0132013602B8
:2008000040104106455046204701481A49FF4AFF4BFF4DA04F045018580459045A045B04A3
:200820005C025D025F01604062C06440654066C068C06AC06CC06EC0D407D804D904DB0B44
:20084000DD90DF0100020104024803A0050809020B200E010F201221150116021E011F0433
:200860002A402B202C042F9231023228330236283A213B223C043D0846024D014F20540418
:20088000571058205A885D406104621068026A046B887806790481408402871488108B80D8
:2008A0009104928894049702982299049A109C109E20A001A102A228C02EC2ACC495CAFA66
:2008C000CC67CE45D010D220D61ED806DE01E02CE408E604EA08EE028A049204B004B202FF
:2008E000B308B50CB601E040E8C0EA20EC6011021680300831203408364038083E8083261C
:200900008740C430CCF0CE60E290E6A05280574059405B025F2063086401654067806D088B
:20092000810284088520938094089B229C08A101A304A520A640B008D4E0D6E0D8C0DA80EB
:20094000E210E6303C2059025D0280048340940899029C01A101A504A640A740B280CE2026
:20096000D6C0E220E6801B0455049C01A410A504A640B501C610D4407102DC0105200A08FA
:200980005C02842085208A049C01A502B001C001C202D601E201EE04022005021B0824404C
:2009A00083089C23A502C00CC608C80108200B400C01454098089C21A220A502B00AB102AB
:2009C000B440C20ED004E804EA020202040227012B08594080018104854088018B089C0125
:2009E000A304A504AC10AE40C060C820CA10D480E020E420E610EA10EE400510084009023D
:200A00000F411108501052025620811082028440874089028A208C108F05A304A504AE023E
:200A2000B301C080C2F0C410D4E0E280E470E8400E0812101310162057206302640466402F
:200A40006A407220761078087E20824486408721890297109808A220A542AF50C201C40E73
:200A6000D402D603D801DA02DC01DE07E404738075028B808D02B004B140DC01DE04E0021E
:200A8000E404EC05100511011A051B011C051D0100AB03C0100A00001050C0C00000000074
:200AA0000101000000000000010101010101000000FCFC00FC7B0300030021D2D000D0C066
:200AC000000000007600003600003008C8000000807F7F0074300000DF0000DF000000206A
:200AE00020000000F80000F8000000070700000000010000000000000000000000000000D7
:00000001FF
