===========Generating Bitstream===========
# IDMUX (count=6)
00000000: 0a 00 00 00 00 00
# PHUB_CFGMEM0 (count=4)
00000006: 00 00 00 00
# PHUB_CFGMEM1 (count=4)
0000000a: 00 01 00 00
# IOPORT_0 (count=7)
0000000e: 80 80 00 00 00 00 00
# IOPINS0_0 (count=10)
00000015: 07 00 00 07 00 00 00 80 80 00
# IOPINS1_0 + 0x0000000B (count=5)
0000001f: 00 00 00 00 00
# PICU_0 (count=8)
00000024: 00 00 00 00 00 00 00 00
# IOPORT_1 (count=7)
0000002c: 00 40 00 00 00 00 00
# IOPINS0_1 (count=10)
00000033: 40 00 80 4b 0b 00 40 00 00 00
# IOPINS1_1 + 0x0000000B (count=5)
0000003d: 00 00 00 00 00
# PICU_1 (count=8)
00000042: 00 00 00 00 00 00 00 00
# IOPORT_2 (count=7)
0000004a: 04 26 00 00 00 00 00
# IOPINS0_2 (count=10)
00000051: f9 00 08 f1 00 00 60 06 06 00
# IOPINS1_2 + 0x0000000B (count=5)
0000005b: 00 00 00 00 00
# PICU_2 (count=8)
00000060: 00 00 00 00 00 00 00 00
# IOPORT_3 (count=7)
00000068: c6 9a 00 00 00 00 00
# IOPINS0_3 (count=10)
0000006f: 01 00 00 3d 3c 00 3d da c2 00
# IOPINS1_3 + 0x0000000B (count=5)
00000079: 00 00 00 00 00
# PICU_3 (count=8)
0000007e: 00 00 00 00 00 00 00 00
# IOPORT_4 (count=7)
00000086: 00 00 00 00 00 00 00
# IOPINS0_4 (count=16)
0000008d: 00 00 00 00 00 00 00 00 00 00 00 00 00 00 00 00

# IOPORT_5 (count=7)
0000009d: 00 00 00 00 00 00 00
# IOPINS0_5 (count=16)
000000a4: 00 00 00 00 00 00 00 00 00 00 00 00 00 00 00 00

# IOPORT_6 (count=7)
000000b4: 00 00 00 00 00 00 00
# IOPINS0_6 (count=16)
000000bb: 00 00 00 00 00 00 00 00 00 00 00 00 00 00 00 00

# IOPORT_7 (count=6)
000000cb: 01 00 00 00 00 00
# IOPINS0_7 (count=10)
000000d1: 30 00 00 33 03 00 03 03 00 00
# IOPINS1_7 + 0x0000000B (count=5)
000000db: 00 00 00 00 00
# PICU_7 (count=8)
000000e0: 00 00 00 00 00 00 00 00
# IOPORT_8 (count=7)
000000e8: 00 00 00 00 40 00 00
# IOPINS0_8 (count=10)
000000ef: 4c 00 00 0c 00 00 00 00 c0 00
# IOPINS1_8 + 0x0000000B (count=5)
000000f9: 00 00 00 00 00
# PICU_8 (count=8)
000000fe: 00 00 00 00 00 00 02 00
# IDMUX_IRQ (count=8)
00000106: ab 00 00 c0 00 00 00 00
# CYDEV_CLKDIST_DCFG0_CFG0 (count=3)
0000010e: 2f 00 18
# CYDEV_CLKDIST_DCFG1_CFG0 (count=3)
00000111: 5f 00 18
# CYDEV_CLKDIST_DCFG2_CFG0 (count=3)
00000114: 5f 00 18
# CYDEV_CLKDIST_DCFG3_CFG0 (count=3)
00000117: 5f 00 18
# CYDEV_CLKDIST_DCFG4_CFG0 (count=3)
0000011a: bf 5d 19
# CYDEV_CLKDIST_ACFG0_CFG0 (count=4)
0000011d: 04 00 14 01
# CYDEV_SLOWCLK_ILO_CR0 (count=1)
00000121: 06
# CYDEV_FASTCLK_IMO_CR (count=1)
00000122: 52
# CYDEV_FASTCLK_PLL_P (count=2)
00000123: 10 07
# CYDEV_FASTCLK_PLL_CFG0 (count=2)
00000125: 51 12
# CYDEV_CLKDIST_MSTR0 (count=2)
00000127: 00 01
# CYDEV_CLKDIST_MSTR0 (count=1)
00000129: 07
# CYDEV_CLKDIST_BCFG0 (count=1)
0000012a: 00
# CYDEV_CLKDIST_BCFG2 (count=1)
0000012b: 48
# CYDEV_CLKDIST_MSTR0 (count=1)
0000012c: 00
# CYDEV_CLKDIST_UCFG (count=1)
0000012d: 00
# CYDEV_CLKDIST_LD (count=1)
0000012e: 02
# CYDEV_PM_ACT_CFG2 (count=1)
0000012f: 1f
# I2C (count=25)
00000130: 00 00 00 00 00 00 00 00 00 00 00 00 00 00 00 00
00000140: 00 00 00 00 00 00 00 00 00
# TMR0 (count=12)
00000149: 00 20 00 00 00 00 00 00 00 00 36 00
# TMR1 (count=12)
00000155: 00 10 00 00 00 00 00 00 00 00 36 00
# TMR2 (count=12)
00000161: 00 40 00 00 00 00 00 00 00 00 36 00
# SAR0 (count=8)
0000016d: 00 00 00 00 00 00 00 84
# UDB_1_5_0_CONFIG (count=128)
00000175: 00 00 00 00 00 00 00 00 00 00 00 00 00 00 00 00
00000185: 00 00 00 00 00 00 00 00 00 00 00 00 00 00 00 00
00000195: 00 00 00 00 00 00 00 00 00 00 00 00 00 00 00 00
000001a5: 00 00 00 00 00 00 00 00 00 00 00 00 00 00 00 00
000001b5: 00 00 00 00 00 00 00 00 00 00 00 00 00 00 00 00
000001c5: 00 00 00 00 00 00 00 00 04 04 00 00 00 00 00 01
000001d5: 00 00 00 00 00 00 00 00 00 00 00 00 00 00 00 00
000001e5: 00 00 00 00 00 00 00 00 00 00 00 00 00 00 00 00

# UDB_1_5_1_CONFIG (count=128)
000001f5: 00 00 04 00 00 00 01 00 00 00 00 00 18 00 00 00
00000205: 00 00 08 03 02 00 00 00 00 01 20 00 00 00 02 00
00000215: 10 00 00 00 01 00 00 00 00 00 00 00 20 00 00 00
00000225: 18 00 01 02 20 01 06 00 00 00 00 00 00 00 00 00
00000235: 00 00 00 00 00 00 00 00 00 00 00 00 00 00 00 00
00000245: 00 00 00 00 00 00 08 00 04 0c 00 04 09 90 00 01
00000255: 00 00 00 00 00 00 00 00 00 00 00 00 00 00 00 00
00000265: 00 00 00 00 00 00 00 00 00 00 00 00 00 00 00 00

# UDB_1_4_1_CONFIG (count=128)
00000275: 00 00 04 00 00 00 40 00 30 01 00 00 00 00 10 00
00000285: 03 00 00 00 00 00 01 00 c0 00 00 00 0c 00 00 01
00000295: 20 00 00 00 80 00 00 00 08 00 00 00 02 00 00 00
000002a5: 30 01 03 00 c0 00 0c 00 00 00 00 00 00 00 00 00
000002b5: 00 00 00 00 00 00 00 00 00 00 00 00 00 00 00 00
000002c5: 00 00 00 00 00 00 08 00 04 04 00 04 39 90 00 01
000002d5: 00 00 00 00 00 00 00 00 00 00 00 00 00 00 00 00
000002e5: 00 00 00 00 00 00 00 00 00 00 00 00 00 00 00 00

# UDB_1_4_0_CONFIG (count=128)
000002f5: 00 00 03 00 00 00 00 00 00 01 00 00 00 01 00 00
00000305: 02 01 01 00 03 00 00 00 00 01 00 00 00 00 00 00
00000315: 01 00 02 01 03 01 00 00 03 01 00 00 03 00 00 00
00000325: 02 00 00 00 00 00 01 01 00 00 00 00 00 00 00 00
00000335: 00 00 00 00 00 00 00 00 00 00 00 00 00 00 00 00
00000345: 00 00 00 00 00 00 08 00 04 04 00 04 00 90 00 01
00000355: 00 00 00 00 00 00 00 00 00 00 00 00 00 00 00 00
00000365: 00 00 00 00 00 00 00 00 00 00 00 00 00 00 00 00

# UDB_1_3_0_CONFIG (count=128)
00000375: 00 00 00 00 00 00 00 00 00 00 00 00 00 00 00 00
00000385: 00 00 00 00 00 00 00 00 00 00 00 00 00 00 00 00
00000395: 00 00 00 00 00 00 00 00 00 00 00 00 00 00 00 00
000003a5: 00 00 00 00 00 00 00 00 00 00 00 00 00 00 00 00
000003b5: 00 00 00 00 00 00 00 00 00 00 00 00 00 00 00 00
000003c5: 00 00 00 00 01 00 00 00 04 04 00 0c 00 00 00 01
000003d5: 00 00 00 00 00 00 00 00 00 00 00 00 00 00 00 00
000003e5: 00 00 00 00 00 00 00 00 00 00 00 00 00 00 00 00

# UDB_1_3_1_CONFIG (count=128)
000003f5: 00 00 00 00 00 00 00 00 00 01 00 00 00 00 00 02
00000405: 00 01 00 00 00 00 00 00 00 00 00 00 00 00 00 00
00000415: 00 00 00 00 00 00 00 00 00 00 00 00 00 00 00 00
00000425: 00 00 00 01 00 02 00 00 00 08 00 00 00 00 00 04
00000435: 00 00 00 00 00 00 00 00 00 00 00 00 00 00 00 00
00000445: 00 00 03 02 00 00 00 00 04 04 00 04 00 00 00 01
00000455: 00 00 00 00 00 00 00 00 00 00 00 00 00 00 00 00
00000465: 00 00 00 00 00 00 00 00 00 00 00 00 00 00 00 00

# UDB_1_2_1_CONFIG (count=128)
00000475: 04 00 00 00 00 00 02 00 00 00 04 00 00 00 01 00
00000485: 40 00 80 01 20 00 10 00 10 00 20 02 02 00 00 00
00000495: 80 00 40 00 01 00 00 00 08 00 00 00 00 00 08 00
000004a5: 00 01 ff 02 00 00 00 00 00 00 00 00 00 00 04 00
000004b5: 00 00 00 00 00 00 00 00 00 00 00 00 00 00 00 00
000004c5: 00 00 00 00 00 00 02 39 04 04 00 0c 00 00 00 01
000004d5: 00 00 00 00 00 00 00 00 00 00 00 00 00 00 00 00
000004e5: 00 00 00 00 00 00 00 00 00 00 00 00 00 00 00 00

# UDB_1_2_0_CONFIG (count=128)
000004f5: 00 00 00 00 00 00 00 00 00 00 00 00 00 00 00 00
00000505: 00 00 00 00 00 00 00 00 00 00 00 00 00 00 00 00
00000515: 00 00 00 00 00 00 00 00 00 00 00 00 00 00 00 00
00000525: 00 00 00 00 00 00 00 00 00 00 00 00 00 00 00 00
00000535: 00 00 00 00 00 00 00 00 00 00 00 00 00 00 00 00
00000545: 00 00 00 00 00 00 00 00 04 04 00 00 00 00 00 01
00000555: 00 00 00 00 00 00 00 00 00 00 00 00 00 00 00 00
00000565: 00 00 00 00 00 00 00 00 00 00 00 00 00 00 00 00

# UDB_0_2_1_CONFIG (count=128)
00000575: 00 00 00 00 00 00 00 00 00 00 00 00 00 00 00 00
00000585: 00 00 00 00 00 00 00 00 00 00 00 00 00 00 00 00
00000595: 00 00 00 00 00 00 00 00 00 00 00 00 00 00 00 00
000005a5: 00 00 00 00 00 00 00 00 00 00 00 00 00 00 00 00
000005b5: 00 00 00 00 00 00 00 00 00 00 00 00 00 00 00 00
000005c5: 00 00 00 00 00 00 00 00 00 00 00 00 00 00 00 00
000005d5: 00 00 00 00 00 00 00 00 00 00 00 00 00 00 00 00
000005e5: 00 00 00 00 00 00 00 00 00 00 00 00 00 00 00 00

# UDB_0_2_0_CONFIG (count=128)
000005f5: 00 00 00 00 00 00 00 00 00 00 00 00 00 00 00 00
00000605: 00 00 00 00 00 00 00 00 00 00 00 00 00 00 00 00
00000615: 00 00 00 00 00 00 00 00 00 00 00 00 00 00 00 00
00000625: 00 00 00 00 00 00 00 00 00 00 00 00 00 00 00 00
00000635: 00 00 00 00 00 00 00 00 00 00 00 00 00 00 00 00
00000645: 00 00 00 00 00 00 00 00 00 00 00 00 00 00 00 00
00000655: 00 00 00 00 00 00 00 00 00 00 00 00 00 00 00 00
00000665: 00 00 00 00 00 00 00 00 00 00 00 00 00 00 00 00

# UDB_0_3_0_CONFIG (count=128)
00000675: 00 00 00 00 00 00 00 00 00 00 00 00 00 00 00 00
00000685: 00 00 00 00 00 00 00 00 00 00 00 00 00 00 00 00
00000695: 00 00 00 00 00 00 00 00 00 00 00 00 00 00 00 00
000006a5: 00 00 00 00 00 00 00 00 00 00 00 00 00 00 00 00
000006b5: 00 00 00 00 00 00 00 00 00 00 00 00 00 00 00 00
000006c5: 00 00 00 00 00 00 00 00 00 00 00 00 00 00 00 00
000006d5: 00 00 00 00 00 00 00 00 00 00 00 00 00 00 00 00
000006e5: 00 00 00 00 00 00 00 00 00 00 00 00 00 00 00 00

# UDB_0_3_1_CONFIG (count=128)
000006f5: 00 00 00 00 00 00 00 00 00 00 00 00 00 00 00 00
00000705: 00 00 00 00 00 00 00 00 00 00 00 00 00 00 00 00
00000715: 00 00 00 00 00 00 00 00 00 00 00 00 00 00 00 00
00000725: 00 00 00 00 00 00 00 00 00 00 00 00 00 00 00 00
00000735: 00 00 00 00 00 00 00 00 00 00 00 00 00 00 00 00
00000745: 00 00 00 00 00 00 00 00 00 00 00 00 00 00 00 00
00000755: 00 00 00 00 00 00 00 00 00 00 00 00 00 00 00 00
00000765: 00 00 00 00 00 00 00 00 00 00 00 00 00 00 00 00

# UDB_0_4_1_CONFIG (count=128)
00000775: 00 00 00 00 00 00 00 00 00 00 00 00 00 00 00 00
00000785: 00 00 00 00 00 00 00 00 00 00 00 00 00 00 00 00
00000795: 00 00 00 00 00 00 00 00 00 00 00 00 00 00 00 00
000007a5: 00 00 00 00 00 00 00 00 00 00 00 00 00 00 00 00
000007b5: 00 00 00 00 00 00 00 00 00 00 00 00 00 00 00 00
000007c5: 00 00 00 00 00 00 00 00 00 00 00 00 00 00 00 00
000007d5: 00 00 00 00 00 00 00 00 00 00 00 00 00 00 00 00
000007e5: 00 00 00 00 00 00 00 00 00 00 00 00 00 00 00 00

# UDB_0_4_0_CONFIG (count=128)
000007f5: 00 00 00 00 00 00 00 00 00 00 00 00 00 00 00 00
00000805: 00 00 00 00 00 00 00 00 00 00 00 00 00 00 00 00
00000815: 00 00 00 00 00 00 00 00 00 00 00 00 00 00 00 00
00000825: 00 00 00 00 00 00 00 00 00 00 00 00 00 00 00 00
00000835: 00 00 00 00 00 00 00 00 00 00 00 00 00 00 00 00
00000845: 00 00 00 00 00 00 00 00 00 00 00 00 00 00 00 00
00000855: 00 00 00 00 00 00 00 00 00 00 00 00 00 00 00 00
00000865: 00 00 00 00 00 00 00 00 00 00 00 00 00 00 00 00

# UDB_0_5_0_CONFIG (count=128)
00000875: 00 00 00 00 00 00 00 00 00 00 00 00 00 00 00 00
00000885: 00 00 00 00 00 00 00 00 00 00 00 00 00 00 00 00
00000895: 00 00 00 00 00 00 00 00 00 00 00 00 00 00 00 00
000008a5: 00 00 00 00 00 00 00 00 00 00 00 00 00 00 00 00
000008b5: 00 00 00 00 00 00 00 00 00 00 00 00 00 00 00 00
000008c5: 00 00 00 00 00 00 00 00 00 00 00 00 00 00 00 00
000008d5: 00 00 00 00 00 00 00 00 00 00 00 00 00 00 00 00
000008e5: 00 00 00 00 00 00 00 00 00 00 00 00 00 00 00 00

# UDB_0_5_1_CONFIG (count=128)
000008f5: 00 00 00 00 00 00 00 00 00 00 00 00 00 00 00 00
00000905: 00 00 00 00 00 00 00 00 00 00 00 00 00 00 00 00
00000915: 00 00 00 00 00 00 00 00 00 00 00 00 00 00 00 00
00000925: 00 00 00 00 00 00 00 00 00 00 00 00 00 00 00 00
00000935: 00 00 00 00 00 00 00 00 00 00 00 00 00 00 00 00
00000945: 00 00 00 00 00 00 00 00 00 00 00 00 00 00 00 00
00000955: 00 00 00 00 00 00 00 00 00 00 00 00 00 00 00 00
00000965: 00 00 00 00 00 00 00 00 00 00 00 00 00 00 00 00

# UDB_1_0_0_CONFIG (count=128)
00000975: 00 00 00 00 00 00 00 00 00 00 00 00 00 00 00 00
00000985: 00 00 00 00 00 00 00 00 00 00 00 00 00 00 00 00
00000995: 00 00 00 00 00 00 00 00 00 00 00 00 00 00 00 00
000009a5: 00 00 00 00 00 00 00 00 00 00 00 00 00 00 00 00
000009b5: 00 00 00 00 00 00 00 00 00 00 00 00 00 00 00 00
000009c5: 00 00 80 00 00 00 00 00 04 04 00 04 00 30 00 01
000009d5: 00 00 00 00 00 00 00 00 00 00 00 00 00 00 00 00
000009e5: 00 00 00 00 00 00 00 00 00 00 00 00 00 00 00 00

# UDB_1_0_1_CONFIG (count=128)
000009f5: 00 00 00 03 07 04 00 00 00 00 00 00 07 00 00 00
00000a05: 01 03 06 04 04 00 03 00 00 00 00 00 00 00 07 00
00000a15: 03 00 04 00 07 00 00 01 00 00 00 02 00 00 00 08
00000a25: 02 08 01 01 04 02 00 04 00 00 00 00 00 00 00 00
00000a35: 50 06 00 00 00 05 20 01 19 ff ff ff 00 a0 00 04
00000a45: 18 00 00 00 00 00 00 00 04 04 04 04 30 03 00 01
00000a55: 40 00 c0 00 40 40 c0 00 c0 00 c0 00 c0 00 c0 00
00000a65: 00 00 00 00 00 00 00 00 00 00 00 00 00 00 00 00

# UDB_1_1_1_CONFIG (count=128)
00000a75: 00 00 04 00 02 00 00 00 04 00 00 04 00 00 00 00
00000a85: 00 00 00 00 00 00 10 00 00 00 00 00 00 00 02 01
00000a95: 08 00 00 00 00 00 01 02 00 00 08 00 01 00 00 00
00000aa5: 00 02 00 00 00 01 1f 04 80 00 00 00 00 00 40 00
00000ab5: 05 00 00 00 00 02 00 00 01 ff ff ff 00 a0 00 00
00000ac5: 08 00 00 00 00 00 08 00 04 04 04 04 00 93 00 01
00000ad5: 80 00 40 40 40 00 40 00 40 00 40 00 40 00 40 00
00000ae5: 00 00 00 00 00 00 00 00 00 00 00 00 00 00 00 00

# UDB_1_1_0_CONFIG (count=128)
00000af5: 00 00 00 00 00 00 00 00 00 00 00 00 00 00 00 00
00000b05: 00 00 00 00 00 00 00 00 00 00 00 00 00 00 00 00
00000b15: 00 00 00 00 00 00 00 00 00 00 00 00 00 00 00 00
00000b25: 00 00 00 00 00 00 00 00 00 00 00 00 00 00 00 00
00000b35: 00 00 00 00 00 00 00 00 00 00 00 00 00 00 00 00
00000b45: 00 00 00 00 00 00 00 00 04 04 00 04 00 00 00 01
00000b55: 00 00 00 00 00 00 00 00 00 00 00 00 00 00 00 00
00000b65: 00 00 00 00 00 00 00 00 00 00 00 00 00 00 00 00

# UDB_0_1_1_CONFIG (count=128)
00000b75: 00 00 00 00 00 00 00 00 00 00 00 00 00 00 00 00
00000b85: 00 00 00 00 00 00 00 00 00 00 00 00 00 00 00 00
00000b95: 00 00 00 00 00 00 00 00 00 00 00 00 00 00 00 00
00000ba5: 00 00 00 00 00 00 00 00 00 00 00 00 00 00 00 00
00000bb5: 00 00 00 00 00 00 00 00 00 00 00 00 00 00 00 00
00000bc5: 00 00 00 00 00 00 00 00 00 00 00 00 00 00 00 00
00000bd5: 00 00 00 00 00 00 00 00 00 00 00 00 00 00 00 00
00000be5: 00 00 00 00 00 00 00 00 00 00 00 00 00 00 00 00

# UDB_0_1_0_CONFIG (count=128)
00000bf5: 00 00 00 00 00 00 00 00 00 00 00 00 00 00 00 00
00000c05: 00 00 00 00 00 00 00 00 00 00 00 00 00 00 00 00
00000c15: 00 00 00 00 00 00 00 00 00 00 00 00 00 00 00 00
00000c25: 00 00 00 00 00 00 00 00 00 00 00 00 00 00 00 00
00000c35: 00 00 00 00 00 00 00 00 00 00 00 00 00 00 00 00
00000c45: 00 00 00 00 00 00 00 00 00 00 00 00 00 00 00 00
00000c55: 00 00 00 00 00 00 00 00 00 00 00 00 00 00 00 00
00000c65: 00 00 00 00 00 00 00 00 00 00 00 00 00 00 00 00

# UDB_0_0_0_CONFIG (count=128)
00000c75: 00 00 00 00 00 00 00 00 00 00 00 00 00 00 00 00
00000c85: 00 00 00 00 00 00 00 00 00 00 00 00 00 00 00 00
00000c95: 00 00 00 00 00 00 00 00 00 00 00 00 00 00 00 00
00000ca5: 00 00 00 00 00 00 00 00 00 00 00 00 00 00 00 00
00000cb5: 00 00 00 00 00 00 00 00 00 00 00 00 00 00 00 00
00000cc5: 00 00 00 00 00 00 00 00 00 00 00 00 00 00 00 00
00000cd5: 00 00 00 00 00 00 00 00 00 00 00 00 00 00 00 00
00000ce5: 00 00 00 00 00 00 00 00 00 00 00 00 00 00 00 00

# UDB_0_0_1_CONFIG (count=128)
00000cf5: 00 00 00 00 00 00 00 00 00 00 00 00 00 00 00 00
00000d05: 00 00 00 00 00 00 00 00 00 00 00 00 00 00 00 00
00000d15: 00 00 00 00 00 00 00 00 00 00 00 00 00 00 00 00
00000d25: 00 00 00 00 00 00 00 00 28 00 00 00 00 00 14 00
00000d35: 00 00 00 00 00 00 00 00 00 00 00 00 00 00 00 00
00000d45: 00 00 00 00 00 00 00 00 04 00 00 00 00 00 00 01
00000d55: 00 00 00 00 00 00 00 00 00 00 00 00 00 00 00 00
00000d65: 00 00 00 00 00 00 00 00 00 00 00 00 00 00 00 00

# UWRK_B0_WRK_DP_BITS (count=64)
00000d75: 00 00 00 00 00 00 00 00 00 00 00 00 00 00 00 00
00000d85: 00 00 00 00 00 00 00 00 00 00 00 00 00 00 00 00
00000d95: 00 00 00 00 00 00 00 00 00 00 00 00 00 00 00 00
00000da5: 00 00 00 00 00 00 00 00 00 00 00 00 00 00 00 00

# UWRK_B0_WRK_STATCTL_BITS + 0x00000070 (count=32)
00000db5: 00 00 00 00 00 00 00 00 00 00 00 00 00 00 00 00
00000dc5: 00 00 00 00 00 00 06 00 00 00 00 00 00 00 00 00

# UWRK_B1_WRK_DP_BITS (count=64)
00000dd5: 00 00 00 00 00 00 00 00 00 00 00 00 00 00 00 00
00000de5: 00 00 00 00 00 00 00 00 00 00 00 00 00 00 00 00
00000df5: 00 00 00 00 00 00 00 00 00 00 00 00 00 00 00 00
00000e05: 00 00 00 00 00 00 00 00 00 00 00 00 00 00 00 00

# UWRK_B1_WRK_STATCTL_BITS + 0x00000070 (count=32)
00000e15: 00 00 00 00 00 00 00 00 00 00 00 00 00 00 00 00
00000e25: 00 00 00 00 00 00 00 00 00 00 00 00 00 00 00 00

# UCFG_BCTL1 (count=16)
00000e35: 09 01 00 00 00 00 00 00 00 00 09 01 00 00 00 00

# UCFG_BCTL0 (count=16)
00000e45: 09 01 00 00 00 00 00 00 09 01 01 00 00 00 00 00

# DSISWITCH_0_0 (count=128)
00000e55: 00 00 00 00 00 00 00 00 00 00 00 00 00 00 00 00
00000e65: 00 00 00 00 00 00 00 00 00 00 00 00 00 00 00 00
00000e75: 00 00 00 00 00 00 00 00 00 00 00 00 00 00 00 00
00000e85: 00 00 00 00 00 00 00 00 00 00 00 00 00 00 00 00
00000e95: 00 00 00 00 00 00 00 00 00 00 00 00 00 00 00 00
00000ea5: 00 00 00 00 00 00 00 00 00 00 00 00 00 00 00 00
00000eb5: 00 00 00 00 00 00 00 00 00 00 00 00 00 00 00 00
00000ec5: 00 00 00 00 00 00 00 00 00 00 00 00 00 00 00 00

# DSI0_0_HV_ROUTING + 0x00000080 (count=128)
00000ed5: 00 00 00 00 00 00 00 00 00 00 00 00 00 00 00 00
00000ee5: 00 00 00 00 00 00 00 00 00 00 00 00 00 00 00 00
00000ef5: 00 00 00 00 00 00 00 00 00 00 00 00 00 00 00 00
00000f05: 40 00 00 00 02 00 00 00 00 00 00 00 00 00 00 00
00000f15: 00 00 00 00 00 00 00 00 00 00 00 00 00 00 00 00
00000f25: 00 00 00 00 00 00 00 00 00 00 00 00 00 00 00 00
00000f35: 00 00 00 00 00 00 00 00 08 00 01 00 00 00 00 00
00000f45: 00 00 00 00 00 00 00 00 00 00 00 00 00 00 00 00

# DSISWITCH_0_1 (count=128)
00000f55: 00 00 00 00 00 00 00 00 00 00 00 00 40 00 00 00
00000f65: 00 00 00 88 20 00 00 00 00 00 00 00 00 00 00 00
00000f75: 00 00 00 00 00 00 00 00 00 00 00 00 00 00 00 00
00000f85: 00 00 00 00 00 00 00 00 00 00 00 00 00 00 00 00
00000f95: 00 00 00 00 00 00 00 00 00 00 00 00 00 00 00 00
00000fa5: 00 00 00 00 00 00 00 00 00 00 00 00 00 00 00 00
00000fb5: 80 00 00 00 00 00 00 00 00 00 00 00 00 00 00 00
00000fc5: 00 00 00 00 00 00 00 00 10 00 00 00 00 20 00 00

# DSI0_1_HV_ROUTING + 0x00000080 (count=128)
00000fd5: 00 00 00 00 00 00 00 80 00 00 00 00 00 00 00 00
00000fe5: 00 00 00 00 00 00 00 00 90 00 00 00 22 00 00 08
00000ff5: 00 10 00 00 00 00 00 00 00 00 00 00 00 00 00 40
00001005: 00 00 00 00 80 00 00 00 00 00 00 00 00 00 00 00
00001015: 00 00 01 00 0e 00 00 00 00 00 00 00 00 00 00 00
00001025: 00 00 00 00 00 00 00 00 02 00 00 00 00 00 03 00
00001035: 00 00 00 00 00 00 00 00 08 00 00 00 00 00 00 00
00001045: 00 00 00 00 00 00 00 00 00 00 00 00 00 00 00 00

# DSISWITCH_0_2 (count=128)
00001055: 00 00 00 00 00 00 00 00 00 00 01 40 08 00 00 00
00001065: 00 00 00 00 00 00 00 00 00 00 00 00 00 00 00 00
00001075: 00 00 00 00 00 00 00 00 00 00 00 00 00 00 00 00
00001085: 00 00 00 00 00 00 00 00 00 00 00 00 00 00 00 00
00001095: 00 00 00 00 02 00 00 00 00 00 00 00 00 00 00 00
000010a5: 00 00 04 00 00 00 00 00 00 00 00 00 00 00 00 00
000010b5: 00 00 00 00 00 00 00 00 00 00 00 00 00 00 00 00
000010c5: 00 00 00 00 00 00 00 00 00 00 00 00 00 00 00 00

# DSI0_2_HV_ROUTING + 0x00000080 (count=128)
000010d5: 00 00 04 00 00 00 00 00 00 00 00 00 00 00 00 00
000010e5: 00 00 00 00 00 00 01 00 10 00 04 00 20 00 00 08
000010f5: 00 10 00 00 08 00 00 00 00 00 00 04 00 00 00 00
00001105: 00 00 00 00 00 00 00 00 00 00 00 00 00 00 00 00
00001115: 00 00 0e 00 00 00 00 00 00 00 00 00 00 00 00 00
00001125: 04 00 00 00 04 00 00 00 00 00 00 00 00 00 00 00
00001135: 00 00 00 00 00 00 00 00 00 00 00 00 00 00 00 00
00001145: 00 00 00 00 00 00 00 00 00 00 00 00 00 00 00 00

# DSISWITCH_0_3 (count=128)
00001155: 00 00 00 00 00 00 00 00 00 00 00 00 00 00 00 00
00001165: 00 00 00 00 00 00 00 00 00 00 00 04 00 00 00 00
00001175: 00 00 00 00 00 01 00 00 00 00 00 00 00 00 00 00
00001185: 00 00 00 00 00 00 00 00 00 00 00 00 00 00 00 00
00001195: 00 00 00 00 00 00 00 00 00 00 00 00 00 00 00 00
000011a5: 00 00 00 00 00 00 00 00 00 00 00 00 00 00 00 00
000011b5: 00 00 00 00 00 00 00 00 00 00 00 00 00 00 00 00
000011c5: 00 00 00 00 00 00 00 00 00 00 00 00 00 00 00 00

# DSI0_3_HV_ROUTING + 0x00000080 (count=128)
000011d5: 00 00 00 00 00 00 00 00 00 00 00 00 00 01 00 00
000011e5: 00 00 00 00 00 00 01 00 10 00 04 00 20 00 00 08
000011f5: 00 10 00 00 08 00 00 00 00 00 00 00 00 00 00 00
00001205: 05 00 00 00 01 12 00 00 00 00 00 00 00 00 00 00
00001215: 00 00 00 00 00 00 08 00 01 00 00 00 00 00 00 00
00001225: 00 00 00 00 00 00 00 00 00 00 00 00 00 00 00 00
00001235: 00 00 08 00 00 00 00 00 03 00 04 00 00 00 00 00
00001245: 00 00 00 00 00 00 00 00 00 00 00 00 00 00 00 00

# DSISWITCH_0_4 (count=128)
00001255: 08 00 00 00 00 00 04 00 10 00 00 00 00 02 00 00
00001265: 00 00 00 00 00 00 00 00 00 00 00 00 00 00 00 00
00001275: 00 00 00 00 00 00 00 00 00 00 00 00 00 00 00 00
00001285: 00 00 00 00 00 00 00 00 00 00 00 00 00 00 00 00
00001295: 00 00 00 00 00 00 00 00 00 00 00 00 00 00 00 00
000012a5: 01 00 00 00 01 00 00 00 00 00 00 08 00 00 00 00
000012b5: 20 00 00 00 00 00 00 00 00 00 00 00 00 00 00 00
000012c5: 00 00 00 00 00 00 00 00 00 00 00 00 00 00 00 00

# DSI0_4_HV_ROUTING + 0x00000080 (count=128)
000012d5: 00 00 00 00 08 00 01 00 00 00 00 00 00 00 00 00
000012e5: 00 00 00 00 00 00 00 00 00 00 00 00 00 00 00 00
000012f5: 00 00 00 00 00 00 00 00 00 00 00 00 00 00 00 00
00001305: 00 00 00 00 00 00 00 00 00 00 00 00 00 00 00 00
00001315: 09 00 06 00 00 00 00 00 00 00 00 00 00 00 00 00
00001325: 00 00 00 00 01 00 06 00 02 00 00 00 00 00 00 00
00001335: 00 00 00 00 00 00 00 00 00 00 00 00 00 00 00 00
00001345: 00 00 00 00 00 00 00 00 00 00 00 00 00 00 00 00

# DSISWITCH_0_5 (count=128)
00001355: 00 00 00 00 00 00 00 00 00 00 00 00 00 00 00 00
00001365: 00 00 00 00 00 00 00 00 00 00 00 00 00 00 00 00
00001375: 00 00 00 00 00 00 00 00 00 00 00 00 00 00 00 00
00001385: 00 00 00 00 00 00 00 00 00 00 00 00 00 00 00 00
00001395: 00 00 00 00 00 00 00 00 00 00 00 00 00 00 00 00
000013a5: 00 00 00 00 00 00 00 00 00 00 00 00 00 00 00 00
000013b5: 00 00 00 00 00 00 00 00 00 00 00 00 00 00 00 00
000013c5: 00 00 00 00 00 00 00 00 00 00 00 00 00 00 00 00

# DSI0_5_HV_ROUTING + 0x00000080 (count=128)
000013d5: 00 00 00 00 00 00 00 00 00 00 00 00 00 00 00 00
000013e5: 00 00 00 00 00 00 00 00 00 00 00 00 00 00 00 00
000013f5: 00 00 00 00 00 00 00 00 00 00 00 00 00 00 00 00
00001405: 00 00 00 00 00 00 00 00 00 00 00 00 00 00 00 00
00001415: 00 00 00 00 00 00 00 00 00 00 00 00 00 00 00 00
00001425: 00 00 00 00 00 00 00 00 00 00 00 00 00 00 00 00
00001435: 00 00 00 00 00 00 00 00 00 00 00 00 00 00 00 00
00001445: 00 00 00 00 00 00 00 00 00 00 00 00 00 00 00 00

# UDBSWITCH_0_0 (count=128)
00001455: 00 00 00 00 00 00 00 00 00 00 00 00 00 00 00 00
00001465: 00 00 00 00 00 00 00 00 00 00 00 00 00 00 00 28
00001475: 00 00 00 00 00 00 00 00 00 00 00 00 00 00 00 00
00001485: 00 00 00 00 00 00 00 00 00 00 00 00 00 00 00 00
00001495: 00 00 00 00 00 00 00 00 00 00 00 00 00 00 00 00
000014a5: 00 00 00 00 00 00 00 00 00 00 00 00 00 00 00 00
000014b5: 00 00 00 00 00 00 00 00 00 00 00 00 00 00 00 00
000014c5: 00 00 00 00 00 00 00 00 00 00 00 00 00 00 00 00

# UDB_1_0_HV_ROUTING + 0x00000080 (count=128)
000014d5: 00 00 00 00 00 00 00 28 00 00 00 00 00 00 00 00
000014e5: 00 00 00 00 00 00 00 00 00 00 00 00 00 00 00 00
000014f5: 00 00 00 00 00 00 00 00 00 00 00 00 00 00 00 00
00001505: 00 00 00 00 00 00 00 00 00 00 00 00 00 00 00 00
00001515: 00 00 00 00 00 00 00 00 00 00 00 00 00 00 00 00
00001525: 00 00 00 00 00 00 00 00 00 00 00 00 00 00 00 00
00001535: 00 00 00 00 00 00 00 00 10 00 80 00 00 00 00 00
00001545: 00 00 00 00 00 00 00 00 00 00 00 00 00 00 00 00

# UDBSWITCH_1_0 (count=128)
00001555: 00 00 81 04 00 00 11 00 08 06 00 10 00 02 00 11
00001565: 00 01 50 01 00 00 00 05 00 00 00 00 10 00 00 22
00001575: 00 00 00 00 0a 01 0a 02 08 00 40 00 00 04 40 08
00001585: 00 02 80 04 00 00 00 02 00 00 11 00 00 02 00 08
00001595: 00 00 00 00 00 00 00 00 00 00 00 00 00 04 02 20
000015a5: 00 00 00 00 00 00 00 18 00 00 00 00 00 00 00 00
000015b5: 00 00 00 00 00 00 00 00 00 00 00 00 02 00 18 80
000015c5: 00 00 40 00 00 00 00 00 00 00 00 00 00 00 00 00

# UDB_2_0_HV_ROUTING + 0x00000080 (count=128)
000015d5: 06 00 00 80 00 00 00 00 00 00 00 22 10 00 1c 00
000015e5: 00 01 00 00 02 00 00 00 00 00 11 05 00 00 00 00
000015f5: 00 06 80 04 00 00 00 10 00 00 00 00 00 00 00 00
00001605: 40 00 00 00 00 00 00 00 00 00 00 00 00 00 00 00
00001615: ab 00 bc 00 3c 00 00 00 00 00 7c 00 8b 00 c5 00
00001625: 00 00 30 00 00 00 00 00 00 00 00 00 00 00 00 00
00001635: 00 00 d0 00 00 00 da 00 10 00 00 00 00 00 00 00
00001645: 00 00 00 00 00 00 00 00 00 00 00 00 00 00 00 00

# UDBSWITCH_0_1 (count=128)
00001655: 00 00 00 00 00 00 00 00 00 00 00 00 00 00 00 00
00001665: 00 00 00 00 00 00 00 00 00 00 00 00 00 00 00 00
00001675: 00 00 00 00 00 00 00 00 00 00 00 00 00 00 00 00
00001685: 00 00 00 00 00 00 00 00 00 00 00 00 00 00 00 00
00001695: 00 00 00 00 00 00 00 00 00 00 00 00 00 00 00 00
000016a5: 00 00 00 00 00 00 00 00 00 00 00 00 00 00 00 00
000016b5: 00 00 00 00 00 00 00 00 00 00 00 00 00 00 00 00
000016c5: 00 00 00 00 00 00 00 00 00 00 00 00 00 00 00 00

# UDB_1_1_HV_ROUTING + 0x00000080 (count=128)
000016d5: 00 00 00 00 00 00 00 00 00 00 00 00 00 00 00 00
000016e5: 00 00 00 00 00 00 00 00 00 00 00 00 00 00 00 00
000016f5: 00 00 00 00 00 00 00 00 00 00 00 00 00 00 00 00
00001705: 00 00 00 00 00 00 00 00 00 00 00 00 00 00 00 00
00001715: 00 00 00 00 00 00 00 00 00 00 00 00 00 00 00 00
00001725: 00 00 00 00 00 00 00 00 00 00 00 00 00 00 00 00
00001735: 00 00 02 00 00 00 00 00 10 00 00 00 00 00 02 00
00001745: 00 00 00 00 00 00 00 00 00 00 00 00 00 00 00 00

# UDBSWITCH_1_1 (count=128)
00001755: 04 01 01 84 0c 40 10 44 00 02 00 00 90 0a 00 40
00001765: 00 08 80 00 00 14 01 19 00 00 00 00 00 40 00 80
00001775: 00 00 00 00 80 00 80 05 10 40 00 00 00 84 00 80
00001785: 00 02 80 04 10 00 00 45 00 00 11 00 04 10 00 40
00001795: 00 00 00 00 00 00 00 00 00 00 00 00 01 00 00 08
000017a5: 00 00 00 00 00 00 00 00 42 00 00 01 00 40 00 00
000017b5: 00 00 00 00 00 00 80 00 00 00 00 00 00 00 00 00
000017c5: 00 00 00 00 00 00 00 00 00 00 00 00 00 00 00 00

# UDB_2_1_HV_ROUTING + 0x00000080 (count=128)
000017d5: 00 00 00 00 00 00 00 00 00 00 00 00 00 20 00 00
000017e5: 08 40 00 00 80 00 00 00 10 80 01 58 02 20 80 04
000017f5: 80 0e 00 00 00 00 80 90 00 00 00 00 00 00 00 00
00001805: 00 00 00 00 00 40 00 00 00 00 00 00 00 00 00 00
00001815: ff 00 f8 00 fc 00 00 00 00 00 da 00 fb 00 75 00
00001825: 00 00 10 00 00 00 18 00 10 00 00 00 00 00 00 00
00001835: 10 00 02 00 00 00 00 00 50 00 00 00 00 00 02 00
00001845: 00 00 00 00 00 00 00 00 00 00 00 00 00 00 00 00

# UDBSWITCH_0_2 (count=128)
00001855: 00 00 00 00 00 00 00 00 00 00 00 00 00 00 00 00
00001865: 00 00 00 00 00 00 00 00 00 00 00 00 00 00 00 00
00001875: 00 00 00 00 00 00 00 00 00 00 00 00 00 00 00 00
00001885: 00 00 00 00 00 00 00 00 00 00 00 00 00 00 00 00
00001895: 00 00 00 00 00 00 00 00 00 00 00 00 00 00 00 00
000018a5: 00 00 00 00 00 00 00 00 00 00 00 00 00 00 00 00
000018b5: 00 00 00 00 00 00 00 00 00 00 00 00 00 00 00 00
000018c5: 00 00 00 00 00 00 00 00 00 00 00 00 00 00 00 00

# UDB_1_2_HV_ROUTING + 0x00000080 (count=128)
000018d5: 00 00 00 00 00 00 00 00 00 00 00 00 00 00 00 00
000018e5: 00 00 00 00 00 00 00 00 00 00 00 00 00 00 00 00
000018f5: 00 00 00 00 00 00 00 00 00 00 00 00 00 00 00 00
00001905: 00 00 00 00 00 00 00 00 00 00 00 00 00 00 00 00
00001915: 00 00 00 00 00 00 00 00 00 00 00 00 00 00 00 00
00001925: 00 00 00 00 00 00 00 00 00 00 00 00 00 00 00 00
00001935: 00 00 01 00 00 00 00 00 00 00 00 00 00 00 04 00
00001945: 00 00 00 00 00 00 00 00 00 00 00 00 00 00 00 00

# UDBSWITCH_1_2 (count=128)
00001955: 04 00 00 84 8c 90 01 44 00 02 00 00 90 02 28 00
00001965: 00 08 81 00 02 00 00 19 00 00 00 00 00 08 00 00
00001975: 00 00 00 00 20 07 04 00 02 00 00 80 10 80 00 80
00001985: 00 22 00 04 00 00 90 05 a0 00 00 00 04 02 00 00
00001995: 00 00 00 00 00 00 00 00 00 00 00 00 00 00 00 00
000019a5: 00 00 00 00 00 00 00 00 00 00 00 00 00 00 10 00
000019b5: 00 00 00 00 00 00 04 00 00 00 00 00 00 00 20 51
000019c5: 00 00 00 00 c0 00 00 08 00 00 00 00 00 80 00 00

# UDB_2_2_HV_ROUTING + 0x00000080 (count=128)
000019d5: 00 00 00 00 00 00 00 00 00 00 00 40 00 00 00 00
000019e5: 08 00 10 00 a0 00 00 40 00 00 04 00 00 b0 81 04
000019f5: 00 60 00 00 40 06 84 90 00 00 00 00 84 00 00 00
00001a05: 00 00 00 00 00 00 00 00 00 00 00 00 00 00 00 00
00001a15: fe 00 f8 00 fd 00 00 00 00 00 d9 00 f7 00 cc 00
00001a25: 00 00 00 00 00 00 20 00 40 00 00 00 00 00 10 00
00001a35: 20 00 01 00 00 00 00 00 00 00 00 00 00 00 04 00
00001a45: 00 00 00 00 00 00 00 00 00 00 00 00 00 00 00 00

# UDBSWITCH_0_3 (count=128)
00001a55: 00 00 00 00 00 00 00 00 00 00 00 00 00 00 00 00
00001a65: 00 00 00 00 00 00 00 00 00 00 00 00 00 00 00 00
00001a75: 00 00 00 00 00 00 00 00 00 00 00 00 00 00 00 00
00001a85: 00 00 00 00 00 00 00 00 00 00 00 00 00 00 00 00
00001a95: 00 00 00 00 00 00 00 00 00 00 00 00 00 00 00 00
00001aa5: 00 00 00 00 00 00 00 00 00 00 00 00 00 00 00 00
00001ab5: 00 00 00 00 00 00 00 00 00 00 00 00 00 00 00 00
00001ac5: 00 00 00 00 00 00 00 00 00 00 00 00 00 00 00 00

# UDB_1_3_HV_ROUTING + 0x00000080 (count=128)
00001ad5: 00 00 00 00 00 00 00 00 00 00 00 00 00 00 00 00
00001ae5: 00 00 00 00 00 00 00 00 00 00 00 00 00 00 00 00
00001af5: 00 00 00 00 00 00 00 00 00 00 00 00 00 00 00 00
00001b05: 00 00 00 00 00 00 00 00 00 00 00 00 00 00 00 00
00001b15: 00 00 00 00 00 00 00 00 00 00 00 00 00 00 00 00
00001b25: 00 00 00 00 00 00 00 00 00 00 00 00 00 00 00 00
00001b35: 00 00 10 00 00 00 00 00 c0 00 20 00 00 00 00 00
00001b45: 00 00 00 00 00 00 00 00 00 00 00 00 00 00 00 00

# UDBSWITCH_1_3 (count=128)
00001b55: 00 00 20 c4 80 00 00 44 00 07 00 00 00 02 28 01
00001b65: 00 00 8d 01 00 00 00 00 00 00 00 00 00 00 00 00
00001b75: 00 00 00 00 08 20 38 00 00 10 00 a0 00 80 00 a0
00001b85: 00 22 00 00 00 00 10 06 a0 00 00 00 80 0a 10 00
00001b95: 00 00 00 00 00 00 00 00 00 00 00 00 00 00 00 00
00001ba5: 00 00 00 00 00 00 00 00 00 40 00 00 85 00 00 10
00001bb5: 00 00 00 00 00 04 00 0a 00 00 00 00 00 c0 10 00
00001bc5: 00 00 00 00 00 00 00 00 00 40 00 00 00 00 00 00

# UDB_2_3_HV_ROUTING + 0x00000080 (count=128)
00001bd5: 00 00 80 20 00 00 00 00 00 00 00 00 00 00 00 02
00001be5: 05 00 00 1a a0 00 00 40 00 44 00 00 00 30 80 00
00001bf5: 04 00 00 00 00 62 a0 b0 00 00 00 00 00 00 00 13
00001c05: 81 00 00 00 01 00 00 00 00 00 00 00 00 00 00 00
00001c15: de 00 fc 00 09 00 00 00 00 00 d7 00 e5 00 fc 00
00001c25: 00 00 00 00 00 00 f8 00 70 00 00 00 00 00 08 00
00001c35: 00 00 00 00 00 00 00 00 00 00 00 00 00 00 00 00
00001c45: 00 00 00 00 00 00 00 00 00 00 00 00 00 00 00 00

# UDBSWITCH_0_4 (count=128)
00001c55: 00 00 00 00 00 00 00 00 00 00 00 00 00 00 00 00
00001c65: 00 00 00 00 00 00 00 00 00 00 00 00 00 00 00 00
00001c75: 00 00 00 00 00 00 00 00 00 00 00 00 00 00 00 00
00001c85: 00 00 00 00 00 00 00 00 00 00 00 00 00 00 00 00
00001c95: 00 00 00 00 00 00 00 00 00 00 00 00 00 00 00 00
00001ca5: 00 00 00 00 00 00 00 00 00 00 00 00 00 00 00 00
00001cb5: 00 00 00 00 00 00 00 00 00 00 00 00 00 00 00 00
00001cc5: 00 00 00 00 00 00 00 00 00 00 00 00 00 00 00 00

# UDB_1_4_HV_ROUTING + 0x00000080 (count=128)
00001cd5: 00 00 00 00 00 00 00 00 00 00 00 00 00 00 00 00
00001ce5: 00 00 00 00 00 00 00 00 00 00 00 00 00 00 00 00
00001cf5: 00 00 00 00 00 00 00 00 00 00 00 00 00 00 00 00
00001d05: 00 00 00 00 00 00 00 00 00 00 00 00 00 00 00 00
00001d15: 00 00 00 00 00 00 00 00 00 00 00 00 00 00 00 00
00001d25: 00 00 00 00 00 00 00 00 00 00 00 00 00 00 00 00
00001d35: 00 00 0a 00 00 00 00 00 00 00 00 00 00 00 00 00
00001d45: 00 00 00 00 00 00 00 00 00 00 00 00 00 00 00 00

# UDBSWITCH_1_4 (count=128)
00001d55: 00 00 00 80 45 00 00 04 08 02 00 00 01 00 25 00
00001d65: 00 50 a0 00 02 00 68 00 02 00 00 01 45 00 20 06
00001d75: 02 00 00 00 00 00 00 40 08 10 00 a0 00 00 00 00
00001d85: 00 22 00 00 00 00 00 40 a0 50 00 00 00 00 00 20
00001d95: 00 00 00 00 00 00 00 00 00 00 00 00 00 00 00 00
00001da5: 00 00 00 00 00 00 00 00 80 00 00 00 00 24 00 40
00001db5: 02 00 00 00 00 00 68 00 00 00 00 00 00 00 00 00
00001dc5: 00 00 00 00 00 00 00 00 00 00 00 00 00 00 00 00

# UDB_2_4_HV_ROUTING + 0x00000080 (count=128)
00001dd5: 00 00 00 00 00 00 00 00 00 04 00 00 00 00 00 00
00001de5: 00 00 05 02 a0 00 00 00 01 44 00 04 00 10 80 00
00001df5: 04 00 00 00 00 62 80 80 00 80 00 00 00 40 10 00
00001e05: 00 00 00 00 00 00 00 00 00 00 00 00 00 00 00 00
00001e15: f8 00 fc 00 ff 00 00 00 00 00 07 00 15 00 2c 00
00001e25: 00 00 00 00 00 00 78 00 78 00 00 00 00 00 00 00
00001e35: 20 00 0a 00 00 00 00 00 00 00 00 00 00 00 00 00
00001e45: 00 00 00 00 00 00 00 00 00 00 00 00 00 00 00 00

# UDBSWITCH_0_5 (count=128)
00001e55: 00 00 00 00 00 00 00 00 00 00 00 00 00 00 00 00
00001e65: 00 00 00 00 00 00 00 00 00 00 00 00 00 00 00 00
00001e75: 00 00 00 00 00 00 00 00 00 00 00 00 00 00 00 00
00001e85: 00 00 00 00 00 00 00 00 00 00 00 00 00 00 00 00
00001e95: 00 00 00 00 00 00 00 00 00 00 00 00 00 00 00 00
00001ea5: 00 00 00 00 00 00 00 00 00 00 00 00 00 00 00 00
00001eb5: 00 00 00 00 00 00 00 00 00 00 00 00 00 00 00 00
00001ec5: 00 00 00 00 00 00 00 00 00 00 00 00 00 00 00 00

# UDB_1_5_HV_ROUTING + 0x00000080 (count=128)
00001ed5: 00 00 00 00 00 00 00 00 00 00 00 00 00 00 00 00
00001ee5: 00 00 00 00 00 00 00 00 00 00 00 00 00 00 00 00
00001ef5: 00 00 00 00 00 00 00 00 00 00 00 00 00 00 00 00
00001f05: 00 00 00 00 00 00 00 00 00 00 00 00 00 00 00 00
00001f15: 00 00 00 00 00 00 00 00 00 00 00 00 00 00 00 00
00001f25: 00 00 00 00 00 00 00 00 00 00 00 00 00 00 00 00
00001f35: 00 00 00 00 00 00 00 00 00 00 00 00 00 00 00 00
00001f45: 00 00 00 00 00 00 00 00 00 00 00 00 00 00 00 00

# UDBSWITCH_1_5 (count=128)
00001f55: 00 00 00 80 00 04 80 01 08 22 00 00 00 00 6a 00
00001f65: 00 11 80 40 00 40 60 00 00 00 00 00 08 04 4a 01
00001f75: 00 00 00 00 00 00 10 10 08 10 00 80 00 00 00 00
00001f85: 00 22 00 00 00 00 01 10 a0 11 00 40 00 00 00 00
00001f95: 00 00 00 00 00 00 00 00 00 00 00 00 00 00 00 00
00001fa5: 00 00 00 00 00 00 00 00 00 00 00 00 00 80 00 00
00001fb5: 00 00 00 00 00 00 40 00 00 00 00 00 00 40 05 04
00001fc5: 00 00 00 00 20 00 20 01 00 00 00 00 00 80 00 00

# UDB_2_5_HV_ROUTING + 0x00000080 (count=128)
00001fd5: 00 00 00 00 21 00 00 00 00 00 00 00 00 00 00 00
00001fe5: 00 00 00 00 00 00 00 00 00 00 00 00 00 00 00 00
00001ff5: 00 00 00 00 00 00 00 00 00 00 00 00 00 00 00 00
00002005: 00 00 00 00 00 00 00 00 00 00 00 00 00 00 00 00
00002015: b8 00 fe 00 bb 00 00 00 00 00 05 00 a5 00 0d 00
00002025: 00 00 00 00 00 00 10 00 10 00 00 00 00 00 10 00
00002035: 00 00 00 00 00 00 00 00 00 00 00 00 00 00 00 00
00002045: 00 00 00 00 00 00 00 00 00 00 00 00 00 00 00 00

# DSISWITCH_1_0 (count=128)
00002055: 00 00 00 00 00 00 00 00 00 00 00 00 00 00 00 00
00002065: 00 00 00 00 00 00 00 00 00 00 00 00 00 00 00 00
00002075: 00 00 00 00 00 00 00 00 00 00 00 00 00 00 00 00
00002085: 00 00 00 00 00 00 00 00 00 00 00 00 00 00 00 00
00002095: 00 00 00 00 00 00 00 00 00 00 00 00 00 00 00 00
000020a5: 01 08 00 00 01 00 20 00 02 00 00 00 00 00 01 00
000020b5: 08 00 00 00 00 00 08 00 00 80 00 00 00 00 00 00
000020c5: 00 01 00 00 08 00 00 00 00 00 00 00 00 00 00 00

# DSI3_0_HV_ROUTING + 0x00000080 (count=128)
000020d5: 0a 01 00 00 00 00 04 60 01 00 01 00 09 00 28 00
000020e5: 00 80 00 00 00 00 08 40 00 00 00 00 00 00 00 00
000020f5: 00 08 00 00 00 00 00 20 00 00 00 00 00 00 00 00
00002105: 00 00 00 00 04 00 00 00 00 00 00 00 00 00 00 00
00002115: 00 00 00 00 00 00 00 00 00 00 00 00 00 00 00 00
00002125: 00 00 00 00 e0 00 e0 00 c0 00 40 00 80 00 20 00
00002135: 00 00 20 00 00 00 f0 00 00 00 00 00 00 00 00 00
00002145: 00 00 00 00 00 00 00 00 00 00 00 00 00 00 00 00

# DSISWITCH_1_1 (count=128)
00002155: 00 20 00 00 10 00 00 00 00 00 00 00 00 00 00 00
00002165: 00 00 00 00 00 00 00 00 00 00 00 00 00 00 00 00
00002175: 00 00 00 00 08 00 00 00 00 00 00 00 00 00 00 00
00002185: 00 00 00 00 00 00 00 00 00 00 00 00 00 00 00 00
00002195: 00 00 00 00 00 00 00 00 00 00 00 00 00 00 00 00
000021a5: 00 00 00 00 00 00 00 00 00 00 00 00 00 00 00 00
000021b5: 00 00 00 00 00 00 00 40 00 00 08 00 00 00 00 20
000021c5: 00 00 00 00 00 00 00 00 00 00 00 00 00 00 00 00

# DSI3_1_HV_ROUTING + 0x00000080 (count=128)
000021d5: 00 00 00 00 40 00 00 00 00 00 00 00 10 00 00 00
000021e5: 00 80 00 00 00 00 00 00 00 00 00 00 00 20 00 00
000021f5: 00 08 00 00 40 00 00 00 00 00 00 00 00 00 40 00
00002205: 00 00 00 00 10 00 80 00 00 00 00 00 00 00 00 00
00002215: c0 00 00 00 00 00 00 00 20 00 00 00 00 00 00 00
00002225: 00 00 00 00 00 00 00 00 80 00 c0 00 00 00 00 00
00002235: 00 00 40 00 00 00 00 00 00 00 00 00 00 00 40 00
00002245: 00 00 00 00 00 00 00 00 00 00 00 00 00 00 00 00

# DSISWITCH_1_2 (count=128)
00002255: 00 00 00 00 00 00 00 00 00 00 00 00 00 00 00 00
00002265: 00 00 00 00 00 00 00 00 10 00 00 00 00 08 00 00
00002275: 00 00 00 00 00 00 00 00 00 00 00 00 00 00 00 00
00002285: 00 00 00 00 00 00 00 00 00 00 00 00 00 00 00 00
00002295: 00 00 00 00 00 00 00 00 00 00 00 00 00 00 00 00
000022a5: 00 00 00 00 00 00 00 00 00 00 00 00 00 00 00 00
000022b5: 00 00 00 00 00 00 00 00 00 00 00 00 00 00 00 00
000022c5: 00 00 00 00 00 00 00 00 00 00 00 00 00 00 00 00

# DSI3_2_HV_ROUTING + 0x00000080 (count=128)
000022d5: 00 40 00 00 00 00 00 00 00 20 00 00 00 00 00 00
000022e5: 00 00 00 00 00 00 00 00 00 00 00 00 00 00 00 00
000022f5: 00 00 80 00 40 00 40 00 00 00 00 01 00 00 00 00
00002305: 00 00 00 00 00 00 00 00 00 00 00 00 00 00 00 00
00002315: 00 00 00 00 00 00 30 00 00 00 00 00 00 00 00 00
00002325: 00 00 00 00 00 00 00 00 00 00 00 00 00 00 00 00
00002335: 00 00 80 00 00 00 00 00 00 00 00 00 00 00 20 00
00002345: 00 00 00 00 00 00 00 00 00 00 00 00 00 00 00 00

# DSISWITCH_1_3 (count=128)
00002355: 00 00 00 00 00 00 00 00 00 00 00 00 00 00 00 00
00002365: 00 00 00 00 00 00 00 00 00 00 00 00 00 00 00 00
00002375: 00 00 00 00 00 00 00 00 00 00 00 00 00 00 00 00
00002385: 00 00 00 00 00 00 00 00 00 00 00 00 80 00 00 00
00002395: 00 00 00 00 00 00 00 00 00 00 00 00 00 00 00 00
000023a5: 00 00 00 00 00 00 00 00 00 00 00 00 00 00 00 00
000023b5: 00 00 00 00 00 00 00 00 00 00 00 00 00 00 00 00
000023c5: 00 00 00 00 00 00 00 00 00 00 00 00 00 00 00 00

# DSI3_3_HV_ROUTING + 0x00000080 (count=128)
000023d5: 00 00 00 00 00 00 00 00 00 00 00 00 00 00 00 00
000023e5: 00 00 00 00 00 00 00 02 00 00 00 00 00 00 00 00
000023f5: 00 00 80 00 00 00 40 00 00 00 00 00 00 00 00 04
00002405: 00 00 00 00 00 00 00 00 00 00 00 00 00 00 00 00
00002415: 00 00 00 00 00 00 00 00 00 00 00 00 00 00 20 00
00002425: 00 00 00 00 00 00 00 00 00 00 00 00 00 00 00 00
00002435: 00 00 00 00 00 00 00 00 00 00 00 00 00 00 10 00
00002445: 00 00 00 00 00 00 00 00 00 00 00 00 00 00 00 00

# DSISWITCH_1_4 (count=128)
00002455: 08 00 00 00 00 00 00 10 00 00 00 00 00 00 00 00
00002465: 00 00 00 00 00 00 00 00 00 00 00 00 00 00 00 00
00002475: 00 00 00 00 00 00 00 00 00 00 00 00 00 00 00 00
00002485: 00 00 00 00 00 00 00 00 00 00 00 00 00 00 00 00
00002495: 00 00 00 00 00 00 00 00 00 00 00 00 00 00 00 00
000024a5: 00 00 00 00 00 00 00 00 00 00 00 00 00 00 00 00
000024b5: 00 00 00 00 00 00 00 08 00 00 00 00 00 00 00 00
000024c5: 00 00 00 00 00 00 00 00 00 00 00 00 00 00 00 00

# DSI3_4_HV_ROUTING + 0x00000080 (count=128)
000024d5: 00 00 00 00 00 00 0a 00 04 00 00 00 00 00 00 00
000024e5: 00 00 00 00 00 00 00 02 00 00 00 00 00 00 00 10
000024f5: 00 00 80 00 00 00 4a 00 00 00 00 10 00 00 00 20
00002505: 00 00 00 00 00 00 00 00 00 00 00 00 00 00 00 00
00002515: 30 00 00 00 00 00 00 00 00 00 00 00 00 00 00 00
00002525: 00 00 00 00 00 00 00 00 80 00 00 00 00 00 00 00
00002535: 00 00 50 00 00 00 00 00 20 00 00 00 00 00 10 00
00002545: 00 00 00 00 00 00 00 00 00 00 00 00 00 00 00 00

# DSISWITCH_1_5 (count=128)
00002555: 00 00 00 00 00 00 00 00 00 00 00 00 00 00 00 00
00002565: 00 00 80 00 00 00 80 00 00 00 00 00 00 00 00 00
00002575: 00 00 00 00 00 00 00 00 00 00 00 00 00 00 00 00
00002585: 00 00 02 20 00 00 48 00 00 00 00 02 00 00 80 00
00002595: 00 00 00 00 00 00 00 00 00 00 00 00 00 00 00 00
000025a5: 00 00 00 00 00 00 00 00 00 00 00 00 00 00 00 00
000025b5: 00 00 00 00 00 00 00 00 00 00 00 00 00 00 00 00
000025c5: 00 00 00 00 00 00 00 00 00 00 00 00 00 00 00 00

# DSI3_5_HV_ROUTING + 0x00000080 (count=128)
000025d5: 00 00 00 00 00 00 00 00 00 00 00 00 00 00 00 00
000025e5: 00 00 00 00 00 00 00 00 00 00 00 00 00 00 00 00
000025f5: 00 00 00 00 00 00 00 00 00 00 00 00 00 00 00 00
00002605: 00 00 00 00 00 00 00 00 00 00 00 00 00 00 00 00
00002615: 00 00 00 00 30 00 00 00 00 00 00 00 f0 00 60 00
00002625: 00 00 00 00 00 00 00 00 00 00 00 00 00 00 00 00
00002635: 00 00 00 00 00 00 00 00 00 00 00 00 00 00 00 00
00002645: 00 00 00 00 00 00 00 00 00 00 00 00 00 00 00 00

