ARM GAS  C:\Users\MANSRO~1\AppData\Local\Temp\ccdewCPz.s 			page 1


   1              		.syntax unified
   2              		.cpu cortex-m3
   3              		.fpu softvfp
   4              		.eabi_attribute 20, 1
   5              		.eabi_attribute 21, 1
   6              		.eabi_attribute 23, 3
   7              		.eabi_attribute 24, 1
   8              		.eabi_attribute 25, 1
   9              		.eabi_attribute 26, 1
  10              		.eabi_attribute 30, 1
  11              		.eabi_attribute 34, 1
  12              		.eabi_attribute 18, 4
  13              		.thumb
  14              		.syntax unified
  15              		.file	"drive.c"
  16              		.text
  17              	.Ltext0:
  18              		.cfi_sections	.debug_frame
  19              		.section	.text.Motor_Init,"ax",%progbits
  20              		.align	2
  21              		.global	Motor_Init
  22              		.thumb
  23              		.thumb_func
  24              		.type	Motor_Init, %function
  25              	Motor_Init:
  26              	.LFB63:
  27              		.file 1 "drive.c"
   1:drive.c       **** /* ========================================
   2:drive.c       ****  *
   3:drive.c       ****  * Copyright YOUR COMPANY, THE YEAR
   4:drive.c       ****  * All Rights Reserved
   5:drive.c       ****  * UNPUBLISHED, LICENSED SOFTWARE.
   6:drive.c       ****  *
   7:drive.c       ****  * CONFIDENTIAL AND PROPRIETARY INFORMATION
   8:drive.c       ****  * WHICH IS THE PROPERTY OF your company.
   9:drive.c       ****  *
  10:drive.c       ****  * ========================================
  11:drive.c       **** */
  12:drive.c       **** #include "drive.h"
  13:drive.c       **** #include "project.h"
  14:drive.c       **** 
  15:drive.c       **** #define TICKS_PER_REVOLUTION 5
  16:drive.c       **** #define MAX_PWM     98
  17:drive.c       **** #define MIN_PWM    15
  18:drive.c       **** #define CM_TO_TICKS_SCALE  2 //1.5  // need to calibrate
  19:drive.c       **** #define ANGLE_TO_TICKS_SCALE 0.06 // need to calibrate
  20:drive.c       **** 
  21:drive.c       **** void Motor_Init(void){
  28              		.loc 1 21 0
  29              		.cfi_startproc
  30              		@ args = 0, pretend = 0, frame = 0
  31              		@ frame_needed = 0, uses_anonymous_args = 0
  32 0000 08B5     		push	{r3, lr}
  33              		.cfi_def_cfa_offset 8
  34              		.cfi_offset 3, -8
  35              		.cfi_offset 14, -4
  22:drive.c       ****     MOT_PWM_Start();
ARM GAS  C:\Users\MANSRO~1\AppData\Local\Temp\ccdewCPz.s 			page 2


  36              		.loc 1 22 0
  37 0002 FFF7FEFF 		bl	MOT_PWM_Start
  38              	.LVL0:
  23:drive.c       ****     MOT_CTRL_reg_Write(0); 
  39              		.loc 1 23 0
  40 0006 0020     		movs	r0, #0
  41 0008 FFF7FEFF 		bl	MOT_CTRL_reg_Write
  42              	.LVL1:
  43 000c 08BD     		pop	{r3, pc}
  44              		.cfi_endproc
  45              	.LFE63:
  46              		.size	Motor_Init, .-Motor_Init
  47 000e 00BF     		.section	.text.drive_forward,"ax",%progbits
  48              		.align	2
  49              		.global	drive_forward
  50              		.thumb
  51              		.thumb_func
  52              		.type	drive_forward, %function
  53              	drive_forward:
  54              	.LFB64:
  24:drive.c       **** }
  25:drive.c       **** 
  26:drive.c       **** void drive_forward(int left_pwm, int right_pwm){
  55              		.loc 1 26 0
  56              		.cfi_startproc
  57              		@ args = 0, pretend = 0, frame = 0
  58              		@ frame_needed = 0, uses_anonymous_args = 0
  59              	.LVL2:
  60 0000 38B5     		push	{r3, r4, r5, lr}
  61              		.cfi_def_cfa_offset 16
  62              		.cfi_offset 3, -16
  63              		.cfi_offset 4, -12
  64              		.cfi_offset 5, -8
  65              		.cfi_offset 14, -4
  66 0002 0546     		mov	r5, r0
  67 0004 0C46     		mov	r4, r1
  27:drive.c       ****     MOT_CTRL_reg_Write(0x5); 
  68              		.loc 1 27 0
  69 0006 0520     		movs	r0, #5
  70              	.LVL3:
  71 0008 FFF7FEFF 		bl	MOT_CTRL_reg_Write
  72              	.LVL4:
  28:drive.c       ****     MOT_PWM_WriteCompare1(left_pwm);
  73              		.loc 1 28 0
  74 000c E8B2     		uxtb	r0, r5
  75 000e FFF7FEFF 		bl	MOT_PWM_WriteCompare1
  76              	.LVL5:
  29:drive.c       ****     MOT_PWM_WriteCompare2(right_pwm);
  77              		.loc 1 29 0
  78 0012 E0B2     		uxtb	r0, r4
  79 0014 FFF7FEFF 		bl	MOT_PWM_WriteCompare2
  80              	.LVL6:
  30:drive.c       ****     gMotor.max_pwm_Limited_L = 5;
  81              		.loc 1 30 0
  82 0018 024B     		ldr	r3, .L5
  83 001a 0522     		movs	r2, #5
  84 001c 9A60     		str	r2, [r3, #8]
ARM GAS  C:\Users\MANSRO~1\AppData\Local\Temp\ccdewCPz.s 			page 3


  31:drive.c       ****     gMotor.max_pwm_Limited_R = 5;
  85              		.loc 1 31 0
  86 001e DA60     		str	r2, [r3, #12]
  87 0020 38BD     		pop	{r3, r4, r5, pc}
  88              	.LVL7:
  89              	.L6:
  90 0022 00BF     		.align	2
  91              	.L5:
  92 0024 00000000 		.word	gMotor
  93              		.cfi_endproc
  94              	.LFE64:
  95              		.size	drive_forward, .-drive_forward
  96              		.section	.text.soft_drive_forward,"ax",%progbits
  97              		.align	2
  98              		.global	soft_drive_forward
  99              		.thumb
 100              		.thumb_func
 101              		.type	soft_drive_forward, %function
 102              	soft_drive_forward:
 103              	.LFB65:
  32:drive.c       **** }
  33:drive.c       **** 
  34:drive.c       **** void soft_drive_forward(int left_pwm, int right_pwm){
 104              		.loc 1 34 0
 105              		.cfi_startproc
 106              		@ args = 0, pretend = 0, frame = 0
 107              		@ frame_needed = 0, uses_anonymous_args = 0
 108              	.LVL8:
 109 0000 70B5     		push	{r4, r5, r6, lr}
 110              		.cfi_def_cfa_offset 16
 111              		.cfi_offset 4, -16
 112              		.cfi_offset 5, -12
 113              		.cfi_offset 6, -8
 114              		.cfi_offset 14, -4
 115 0002 0646     		mov	r6, r0
 116 0004 0D46     		mov	r5, r1
  35:drive.c       ****     MOT_CTRL_reg_Write(0x5); 
 117              		.loc 1 35 0
 118 0006 0520     		movs	r0, #5
 119              	.LVL9:
 120 0008 FFF7FEFF 		bl	MOT_CTRL_reg_Write
 121              	.LVL10:
  36:drive.c       ****     while(right_pwm != gMotor.max_pwm_Limited_R && left_pwm != gMotor.max_pwm_Limited_L ) {
 122              		.loc 1 36 0
 123 000c 19E0     		b	.L8
 124              	.L12:
  37:drive.c       **** 		// Soft start implementation
  38:drive.c       **** 		if( left_pwm > gMotor.max_pwm_Limited_L ){
 125              		.loc 1 38 0
 126 000e B242     		cmp	r2, r6
 127 0010 05DA     		bge	.L9
  39:drive.c       **** 			gMotor.max_pwm_Limited_L += 5;
 128              		.loc 1 39 0
 129 0012 0532     		adds	r2, r2, #5
 130 0014 1349     		ldr	r1, .L14
 131 0016 8A60     		str	r2, [r1, #8]
  40:drive.c       **** 			if( left_pwm < gMotor.max_pwm_Limited_L ){
ARM GAS  C:\Users\MANSRO~1\AppData\Local\Temp\ccdewCPz.s 			page 4


 132              		.loc 1 40 0
 133 0018 9642     		cmp	r6, r2
 134 001a 00DA     		bge	.L9
  41:drive.c       **** 				gMotor.max_pwm_Limited_L = left_pwm;
 135              		.loc 1 41 0
 136 001c 8E60     		str	r6, [r1, #8]
 137              	.L9:
  42:drive.c       **** 			}
  43:drive.c       **** 		}
  44:drive.c       **** 		if( right_pwm > gMotor.max_pwm_Limited_R ){
 138              		.loc 1 44 0
 139 001e AB42     		cmp	r3, r5
 140 0020 05DA     		bge	.L10
  45:drive.c       **** 			gMotor.max_pwm_Limited_R += 5;
 141              		.loc 1 45 0
 142 0022 0533     		adds	r3, r3, #5
 143 0024 0F4A     		ldr	r2, .L14
 144 0026 D360     		str	r3, [r2, #12]
  46:drive.c       **** 			if( right_pwm < gMotor.max_pwm_Limited_R ){
 145              		.loc 1 46 0
 146 0028 9D42     		cmp	r5, r3
 147 002a 00DA     		bge	.L10
  47:drive.c       **** 				gMotor.max_pwm_Limited_R = right_pwm;
 148              		.loc 1 47 0
 149 002c D560     		str	r5, [r2, #12]
 150              	.L10:
  48:drive.c       **** 			}
  49:drive.c       **** 		}        
  50:drive.c       ****         CyDelay(50);
 151              		.loc 1 50 0
 152 002e 3220     		movs	r0, #50
 153 0030 FFF7FEFF 		bl	CyDelay
 154              	.LVL11:
  51:drive.c       ****         MOT_PWM_WriteCompare1(gMotor.max_pwm_Limited_L);
 155              		.loc 1 51 0
 156 0034 0B4C     		ldr	r4, .L14
 157 0036 207A     		ldrb	r0, [r4, #8]	@ zero_extendqisi2
 158 0038 FFF7FEFF 		bl	MOT_PWM_WriteCompare1
 159              	.LVL12:
  52:drive.c       ****         MOT_PWM_WriteCompare2(gMotor.max_pwm_Limited_R);   
 160              		.loc 1 52 0
 161 003c 207B     		ldrb	r0, [r4, #12]	@ zero_extendqisi2
 162 003e FFF7FEFF 		bl	MOT_PWM_WriteCompare2
 163              	.LVL13:
 164              	.L8:
  36:drive.c       **** 		// Soft start implementation
 165              		.loc 1 36 0
 166 0042 084B     		ldr	r3, .L14
 167 0044 DB68     		ldr	r3, [r3, #12]
 168 0046 AB42     		cmp	r3, r5
 169 0048 03D0     		beq	.L11
  36:drive.c       **** 		// Soft start implementation
 170              		.loc 1 36 0 is_stmt 0 discriminator 1
 171 004a 064A     		ldr	r2, .L14
 172 004c 9268     		ldr	r2, [r2, #8]
 173 004e B242     		cmp	r2, r6
 174 0050 DDD1     		bne	.L12
ARM GAS  C:\Users\MANSRO~1\AppData\Local\Temp\ccdewCPz.s 			page 5


 175              	.L11:
  53:drive.c       ****     }
  54:drive.c       ****     MOT_PWM_WriteCompare1(gMotor.max_pwm_Limited_L);
 176              		.loc 1 54 0 is_stmt 1
 177 0052 044C     		ldr	r4, .L14
 178 0054 207A     		ldrb	r0, [r4, #8]	@ zero_extendqisi2
 179 0056 FFF7FEFF 		bl	MOT_PWM_WriteCompare1
 180              	.LVL14:
  55:drive.c       ****     MOT_PWM_WriteCompare2(gMotor.max_pwm_Limited_R);
 181              		.loc 1 55 0
 182 005a 207B     		ldrb	r0, [r4, #12]	@ zero_extendqisi2
 183 005c FFF7FEFF 		bl	MOT_PWM_WriteCompare2
 184              	.LVL15:
 185 0060 70BD     		pop	{r4, r5, r6, pc}
 186              	.LVL16:
 187              	.L15:
 188 0062 00BF     		.align	2
 189              	.L14:
 190 0064 00000000 		.word	gMotor
 191              		.cfi_endproc
 192              	.LFE65:
 193              		.size	soft_drive_forward, .-soft_drive_forward
 194              		.section	.text.drive_backward,"ax",%progbits
 195              		.align	2
 196              		.global	drive_backward
 197              		.thumb
 198              		.thumb_func
 199              		.type	drive_backward, %function
 200              	drive_backward:
 201              	.LFB66:
  56:drive.c       ****     
  57:drive.c       **** }
  58:drive.c       **** 
  59:drive.c       **** void drive_backward(int left_pwm, int right_pwm){
 202              		.loc 1 59 0
 203              		.cfi_startproc
 204              		@ args = 0, pretend = 0, frame = 0
 205              		@ frame_needed = 0, uses_anonymous_args = 0
 206              	.LVL17:
 207 0000 38B5     		push	{r3, r4, r5, lr}
 208              		.cfi_def_cfa_offset 16
 209              		.cfi_offset 3, -16
 210              		.cfi_offset 4, -12
 211              		.cfi_offset 5, -8
 212              		.cfi_offset 14, -4
 213 0002 0546     		mov	r5, r0
 214 0004 0C46     		mov	r4, r1
  60:drive.c       ****     MOT_CTRL_reg_Write(0xA); 
 215              		.loc 1 60 0
 216 0006 0A20     		movs	r0, #10
 217              	.LVL18:
 218 0008 FFF7FEFF 		bl	MOT_CTRL_reg_Write
 219              	.LVL19:
  61:drive.c       ****     MOT_PWM_WriteCompare1(left_pwm);
 220              		.loc 1 61 0
 221 000c E8B2     		uxtb	r0, r5
 222 000e FFF7FEFF 		bl	MOT_PWM_WriteCompare1
ARM GAS  C:\Users\MANSRO~1\AppData\Local\Temp\ccdewCPz.s 			page 6


 223              	.LVL20:
  62:drive.c       ****     MOT_PWM_WriteCompare2(right_pwm);
 224              		.loc 1 62 0
 225 0012 E0B2     		uxtb	r0, r4
 226 0014 FFF7FEFF 		bl	MOT_PWM_WriteCompare2
 227              	.LVL21:
 228 0018 38BD     		pop	{r3, r4, r5, pc}
 229              		.cfi_endproc
 230              	.LFE66:
 231              		.size	drive_backward, .-drive_backward
 232 001a 00BF     		.section	.text.turn_right,"ax",%progbits
 233              		.align	2
 234              		.global	turn_right
 235              		.thumb
 236              		.thumb_func
 237              		.type	turn_right, %function
 238              	turn_right:
 239              	.LFB67:
  63:drive.c       ****     
  64:drive.c       **** }
  65:drive.c       **** 
  66:drive.c       **** void turn_right(int left_pwm, int right_pwm){
 240              		.loc 1 66 0
 241              		.cfi_startproc
 242              		@ args = 0, pretend = 0, frame = 0
 243              		@ frame_needed = 0, uses_anonymous_args = 0
 244              	.LVL22:
 245 0000 38B5     		push	{r3, r4, r5, lr}
 246              		.cfi_def_cfa_offset 16
 247              		.cfi_offset 3, -16
 248              		.cfi_offset 4, -12
 249              		.cfi_offset 5, -8
 250              		.cfi_offset 14, -4
 251 0002 0546     		mov	r5, r0
 252 0004 0C46     		mov	r4, r1
  67:drive.c       ****     MOT_CTRL_reg_Write(0x9); 
 253              		.loc 1 67 0
 254 0006 0920     		movs	r0, #9
 255              	.LVL23:
 256 0008 FFF7FEFF 		bl	MOT_CTRL_reg_Write
 257              	.LVL24:
  68:drive.c       ****     MOT_PWM_WriteCompare1(left_pwm);
 258              		.loc 1 68 0
 259 000c E8B2     		uxtb	r0, r5
 260 000e FFF7FEFF 		bl	MOT_PWM_WriteCompare1
 261              	.LVL25:
  69:drive.c       ****     MOT_PWM_WriteCompare2(right_pwm);
 262              		.loc 1 69 0
 263 0012 E0B2     		uxtb	r0, r4
 264 0014 FFF7FEFF 		bl	MOT_PWM_WriteCompare2
 265              	.LVL26:
  70:drive.c       ****     gMotor.max_pwm_Limited_L = 5;
 266              		.loc 1 70 0
 267 0018 024B     		ldr	r3, .L20
 268 001a 0522     		movs	r2, #5
 269 001c 9A60     		str	r2, [r3, #8]
  71:drive.c       ****     gMotor.max_pwm_Limited_R = 5;
ARM GAS  C:\Users\MANSRO~1\AppData\Local\Temp\ccdewCPz.s 			page 7


 270              		.loc 1 71 0
 271 001e DA60     		str	r2, [r3, #12]
 272 0020 38BD     		pop	{r3, r4, r5, pc}
 273              	.LVL27:
 274              	.L21:
 275 0022 00BF     		.align	2
 276              	.L20:
 277 0024 00000000 		.word	gMotor
 278              		.cfi_endproc
 279              	.LFE67:
 280              		.size	turn_right, .-turn_right
 281              		.section	.text.turn_left,"ax",%progbits
 282              		.align	2
 283              		.global	turn_left
 284              		.thumb
 285              		.thumb_func
 286              		.type	turn_left, %function
 287              	turn_left:
 288              	.LFB68:
  72:drive.c       **** }
  73:drive.c       **** 
  74:drive.c       **** void turn_left(int left_pwm, int right_pwm){
 289              		.loc 1 74 0
 290              		.cfi_startproc
 291              		@ args = 0, pretend = 0, frame = 0
 292              		@ frame_needed = 0, uses_anonymous_args = 0
 293              	.LVL28:
 294 0000 38B5     		push	{r3, r4, r5, lr}
 295              		.cfi_def_cfa_offset 16
 296              		.cfi_offset 3, -16
 297              		.cfi_offset 4, -12
 298              		.cfi_offset 5, -8
 299              		.cfi_offset 14, -4
 300 0002 0546     		mov	r5, r0
 301 0004 0C46     		mov	r4, r1
  75:drive.c       ****     MOT_CTRL_reg_Write(0x6); 
 302              		.loc 1 75 0
 303 0006 0620     		movs	r0, #6
 304              	.LVL29:
 305 0008 FFF7FEFF 		bl	MOT_CTRL_reg_Write
 306              	.LVL30:
  76:drive.c       ****     MOT_PWM_WriteCompare1(left_pwm);
 307              		.loc 1 76 0
 308 000c E8B2     		uxtb	r0, r5
 309 000e FFF7FEFF 		bl	MOT_PWM_WriteCompare1
 310              	.LVL31:
  77:drive.c       ****     MOT_PWM_WriteCompare2(right_pwm);
 311              		.loc 1 77 0
 312 0012 E0B2     		uxtb	r0, r4
 313 0014 FFF7FEFF 		bl	MOT_PWM_WriteCompare2
 314              	.LVL32:
  78:drive.c       ****     gMotor.max_pwm_Limited_L = 5;
 315              		.loc 1 78 0
 316 0018 024B     		ldr	r3, .L24
 317 001a 0522     		movs	r2, #5
 318 001c 9A60     		str	r2, [r3, #8]
  79:drive.c       ****     gMotor.max_pwm_Limited_R = 5;
ARM GAS  C:\Users\MANSRO~1\AppData\Local\Temp\ccdewCPz.s 			page 8


 319              		.loc 1 79 0
 320 001e DA60     		str	r2, [r3, #12]
 321 0020 38BD     		pop	{r3, r4, r5, pc}
 322              	.LVL33:
 323              	.L25:
 324 0022 00BF     		.align	2
 325              	.L24:
 326 0024 00000000 		.word	gMotor
 327              		.cfi_endproc
 328              	.LFE68:
 329              		.size	turn_left, .-turn_left
 330              		.section	.text.brake,"ax",%progbits
 331              		.align	2
 332              		.global	brake
 333              		.thumb
 334              		.thumb_func
 335              		.type	brake, %function
 336              	brake:
 337              	.LFB69:
  80:drive.c       **** }
  81:drive.c       **** 
  82:drive.c       **** void brake(void){
 338              		.loc 1 82 0
 339              		.cfi_startproc
 340              		@ args = 0, pretend = 0, frame = 0
 341              		@ frame_needed = 0, uses_anonymous_args = 0
 342 0000 08B5     		push	{r3, lr}
 343              		.cfi_def_cfa_offset 8
 344              		.cfi_offset 3, -8
 345              		.cfi_offset 14, -4
  83:drive.c       ****     MOT_CTRL_reg_Write(0xF); 
 346              		.loc 1 83 0
 347 0002 0F20     		movs	r0, #15
 348 0004 FFF7FEFF 		bl	MOT_CTRL_reg_Write
 349              	.LVL34:
  84:drive.c       ****     MOT_PWM_WriteCompare1(0);
 350              		.loc 1 84 0
 351 0008 0020     		movs	r0, #0
 352 000a FFF7FEFF 		bl	MOT_PWM_WriteCompare1
 353              	.LVL35:
  85:drive.c       ****     MOT_PWM_WriteCompare2(0);
 354              		.loc 1 85 0
 355 000e 0020     		movs	r0, #0
 356 0010 FFF7FEFF 		bl	MOT_PWM_WriteCompare2
 357              	.LVL36:
  86:drive.c       ****     gMotor.max_pwm_Limited_L = 5;
 358              		.loc 1 86 0
 359 0014 034B     		ldr	r3, .L28
 360 0016 0522     		movs	r2, #5
 361 0018 9A60     		str	r2, [r3, #8]
  87:drive.c       ****     gMotor.max_pwm_Limited_R = 5;
 362              		.loc 1 87 0
 363 001a DA60     		str	r2, [r3, #12]
  88:drive.c       ****     CyDelay(10);
 364              		.loc 1 88 0
 365 001c 0A20     		movs	r0, #10
 366 001e FFF7FEFF 		bl	CyDelay
ARM GAS  C:\Users\MANSRO~1\AppData\Local\Temp\ccdewCPz.s 			page 9


 367              	.LVL37:
 368 0022 08BD     		pop	{r3, pc}
 369              	.L29:
 370              		.align	2
 371              	.L28:
 372 0024 00000000 		.word	gMotor
 373              		.cfi_endproc
 374              	.LFE69:
 375              		.size	brake, .-brake
 376              		.comm	gMotor,16,4
 377              		.text
 378              	.Letext0:
 379              		.file 2 "drive.h"
 380              		.file 3 "c:\\program files (x86)\\cypress\\psoc creator\\4.1\\psoc creator\\import\\gnu\\arm\\5.4.
 381              		.file 4 "c:\\program files (x86)\\cypress\\psoc creator\\4.1\\psoc creator\\import\\gnu\\arm\\5.4.
 382              		.file 5 "Generated_Source\\PSoC5/core_cm3.h"
 383              		.file 6 "Generated_Source\\PSoC5/MOT_PWM.h"
 384              		.file 7 "Generated_Source\\PSoC5/MOT_CTRL_reg.h"
 385              		.file 8 "Generated_Source\\PSoC5/CyLib.h"
 386              		.section	.debug_info,"",%progbits
 387              	.Ldebug_info0:
 388 0000 EE030000 		.4byte	0x3ee
 389 0004 0400     		.2byte	0x4
 390 0006 00000000 		.4byte	.Ldebug_abbrev0
 391 000a 04       		.byte	0x4
 392 000b 01       		.uleb128 0x1
 393 000c B1000000 		.4byte	.LASF36
 394 0010 0C       		.byte	0xc
 395 0011 AC010000 		.4byte	.LASF37
 396 0015 04020000 		.4byte	.LASF38
 397 0019 00000000 		.4byte	.Ldebug_ranges0+0
 398 001d 00000000 		.4byte	0
 399 0021 00000000 		.4byte	.Ldebug_line0
 400 0025 02       		.uleb128 0x2
 401 0026 53020000 		.4byte	.LASF39
 402 002a 10       		.byte	0x10
 403 002b 02       		.byte	0x2
 404 002c 11       		.byte	0x11
 405 002d 62000000 		.4byte	0x62
 406 0031 03       		.uleb128 0x3
 407 0032 9C020000 		.4byte	.LASF0
 408 0036 02       		.byte	0x2
 409 0037 12       		.byte	0x12
 410 0038 62000000 		.4byte	0x62
 411 003c 00       		.byte	0
 412 003d 03       		.uleb128 0x3
 413 003e C5010000 		.4byte	.LASF1
 414 0042 02       		.byte	0x2
 415 0043 13       		.byte	0x13
 416 0044 62000000 		.4byte	0x62
 417 0048 04       		.byte	0x4
 418 0049 03       		.uleb128 0x3
 419 004a 00000000 		.4byte	.LASF2
 420 004e 02       		.byte	0x2
 421 004f 14       		.byte	0x14
 422 0050 62000000 		.4byte	0x62
 423 0054 08       		.byte	0x8
ARM GAS  C:\Users\MANSRO~1\AppData\Local\Temp\ccdewCPz.s 			page 10


 424 0055 03       		.uleb128 0x3
 425 0056 2C000000 		.4byte	.LASF3
 426 005a 02       		.byte	0x2
 427 005b 15       		.byte	0x15
 428 005c 62000000 		.4byte	0x62
 429 0060 0C       		.byte	0xc
 430 0061 00       		.byte	0
 431 0062 04       		.uleb128 0x4
 432 0063 04       		.byte	0x4
 433 0064 05       		.byte	0x5
 434 0065 696E7400 		.ascii	"int\000"
 435 0069 05       		.uleb128 0x5
 436 006a 01       		.byte	0x1
 437 006b 06       		.byte	0x6
 438 006c 12000000 		.4byte	.LASF4
 439 0070 05       		.uleb128 0x5
 440 0071 01       		.byte	0x1
 441 0072 08       		.byte	0x8
 442 0073 A3000000 		.4byte	.LASF5
 443 0077 05       		.uleb128 0x5
 444 0078 02       		.byte	0x2
 445 0079 05       		.byte	0x5
 446 007a 70010000 		.4byte	.LASF6
 447 007e 05       		.uleb128 0x5
 448 007f 02       		.byte	0x2
 449 0080 07       		.byte	0x7
 450 0081 64000000 		.4byte	.LASF7
 451 0085 06       		.uleb128 0x6
 452 0086 3E000000 		.4byte	.LASF13
 453 008a 03       		.byte	0x3
 454 008b 3F       		.byte	0x3f
 455 008c 90000000 		.4byte	0x90
 456 0090 05       		.uleb128 0x5
 457 0091 04       		.byte	0x4
 458 0092 05       		.byte	0x5
 459 0093 5B000000 		.4byte	.LASF8
 460 0097 05       		.uleb128 0x5
 461 0098 04       		.byte	0x4
 462 0099 07       		.byte	0x7
 463 009a 3F010000 		.4byte	.LASF9
 464 009e 05       		.uleb128 0x5
 465 009f 08       		.byte	0x8
 466 00a0 05       		.byte	0x5
 467 00a1 D0010000 		.4byte	.LASF10
 468 00a5 05       		.uleb128 0x5
 469 00a6 08       		.byte	0x8
 470 00a7 07       		.byte	0x7
 471 00a8 87010000 		.4byte	.LASF11
 472 00ac 05       		.uleb128 0x5
 473 00ad 04       		.byte	0x4
 474 00ae 07       		.byte	0x7
 475 00af 7A010000 		.4byte	.LASF12
 476 00b3 06       		.uleb128 0x6
 477 00b4 B4010000 		.4byte	.LASF14
 478 00b8 04       		.byte	0x4
 479 00b9 2C       		.byte	0x2c
 480 00ba 85000000 		.4byte	0x85
ARM GAS  C:\Users\MANSRO~1\AppData\Local\Temp\ccdewCPz.s 			page 11


 481 00be 05       		.uleb128 0x5
 482 00bf 04       		.byte	0x4
 483 00c0 04       		.byte	0x4
 484 00c1 9D000000 		.4byte	.LASF15
 485 00c5 05       		.uleb128 0x5
 486 00c6 08       		.byte	0x8
 487 00c7 04       		.byte	0x4
 488 00c8 69010000 		.4byte	.LASF16
 489 00cc 05       		.uleb128 0x5
 490 00cd 01       		.byte	0x1
 491 00ce 08       		.byte	0x8
 492 00cf DE010000 		.4byte	.LASF17
 493 00d3 05       		.uleb128 0x5
 494 00d4 08       		.byte	0x8
 495 00d5 04       		.byte	0x4
 496 00d6 64020000 		.4byte	.LASF18
 497 00da 05       		.uleb128 0x5
 498 00db 04       		.byte	0x4
 499 00dc 07       		.byte	0x7
 500 00dd BC010000 		.4byte	.LASF19
 501 00e1 07       		.uleb128 0x7
 502 00e2 E3010000 		.4byte	.LASF20
 503 00e6 01       		.byte	0x1
 504 00e7 15       		.byte	0x15
 505 00e8 00000000 		.4byte	.LFB63
 506 00ec 0E000000 		.4byte	.LFE63-.LFB63
 507 00f0 01       		.uleb128 0x1
 508 00f1 9C       		.byte	0x9c
 509 00f2 0F010000 		.4byte	0x10f
 510 00f6 08       		.uleb128 0x8
 511 00f7 06000000 		.4byte	.LVL0
 512 00fb BA030000 		.4byte	0x3ba
 513 00ff 09       		.uleb128 0x9
 514 0100 0C000000 		.4byte	.LVL1
 515 0104 C5030000 		.4byte	0x3c5
 516 0108 0A       		.uleb128 0xa
 517 0109 01       		.uleb128 0x1
 518 010a 50       		.byte	0x50
 519 010b 01       		.uleb128 0x1
 520 010c 30       		.byte	0x30
 521 010d 00       		.byte	0
 522 010e 00       		.byte	0
 523 010f 07       		.uleb128 0x7
 524 0110 1E000000 		.4byte	.LASF21
 525 0114 01       		.byte	0x1
 526 0115 1A       		.byte	0x1a
 527 0116 00000000 		.4byte	.LFB64
 528 011a 28000000 		.4byte	.LFE64-.LFB64
 529 011e 01       		.uleb128 0x1
 530 011f 9C       		.byte	0x9c
 531 0120 7A010000 		.4byte	0x17a
 532 0124 0B       		.uleb128 0xb
 533 0125 77000000 		.4byte	.LASF22
 534 0129 01       		.byte	0x1
 535 012a 1A       		.byte	0x1a
 536 012b 62000000 		.4byte	0x62
 537 012f 00000000 		.4byte	.LLST0
ARM GAS  C:\Users\MANSRO~1\AppData\Local\Temp\ccdewCPz.s 			page 12


 538 0133 0B       		.uleb128 0xb
 539 0134 A8020000 		.4byte	.LASF23
 540 0138 01       		.byte	0x1
 541 0139 1A       		.byte	0x1a
 542 013a 62000000 		.4byte	0x62
 543 013e 2C000000 		.4byte	.LLST1
 544 0142 0C       		.uleb128 0xc
 545 0143 0C000000 		.4byte	.LVL4
 546 0147 C5030000 		.4byte	0x3c5
 547 014b 55010000 		.4byte	0x155
 548 014f 0A       		.uleb128 0xa
 549 0150 01       		.uleb128 0x1
 550 0151 50       		.byte	0x50
 551 0152 01       		.uleb128 0x1
 552 0153 35       		.byte	0x35
 553 0154 00       		.byte	0
 554 0155 0C       		.uleb128 0xc
 555 0156 12000000 		.4byte	.LVL5
 556 015a D0030000 		.4byte	0x3d0
 557 015e 69010000 		.4byte	0x169
 558 0162 0A       		.uleb128 0xa
 559 0163 01       		.uleb128 0x1
 560 0164 50       		.byte	0x50
 561 0165 02       		.uleb128 0x2
 562 0166 75       		.byte	0x75
 563 0167 00       		.sleb128 0
 564 0168 00       		.byte	0
 565 0169 09       		.uleb128 0x9
 566 016a 18000000 		.4byte	.LVL6
 567 016e DB030000 		.4byte	0x3db
 568 0172 0A       		.uleb128 0xa
 569 0173 01       		.uleb128 0x1
 570 0174 50       		.byte	0x50
 571 0175 02       		.uleb128 0x2
 572 0176 74       		.byte	0x74
 573 0177 00       		.sleb128 0
 574 0178 00       		.byte	0
 575 0179 00       		.byte	0
 576 017a 07       		.uleb128 0x7
 577 017b 80000000 		.4byte	.LASF24
 578 017f 01       		.byte	0x1
 579 0180 22       		.byte	0x22
 580 0181 00000000 		.4byte	.LFB65
 581 0185 68000000 		.4byte	.LFE65-.LFB65
 582 0189 01       		.uleb128 0x1
 583 018a 9C       		.byte	0x9c
 584 018b F9010000 		.4byte	0x1f9
 585 018f 0B       		.uleb128 0xb
 586 0190 77000000 		.4byte	.LASF22
 587 0194 01       		.byte	0x1
 588 0195 22       		.byte	0x22
 589 0196 62000000 		.4byte	0x62
 590 019a 58000000 		.4byte	.LLST2
 591 019e 0B       		.uleb128 0xb
 592 019f A8020000 		.4byte	.LASF23
 593 01a3 01       		.byte	0x1
 594 01a4 22       		.byte	0x22
ARM GAS  C:\Users\MANSRO~1\AppData\Local\Temp\ccdewCPz.s 			page 13


 595 01a5 62000000 		.4byte	0x62
 596 01a9 84000000 		.4byte	.LLST3
 597 01ad 0C       		.uleb128 0xc
 598 01ae 0C000000 		.4byte	.LVL10
 599 01b2 C5030000 		.4byte	0x3c5
 600 01b6 C0010000 		.4byte	0x1c0
 601 01ba 0A       		.uleb128 0xa
 602 01bb 01       		.uleb128 0x1
 603 01bc 50       		.byte	0x50
 604 01bd 01       		.uleb128 0x1
 605 01be 35       		.byte	0x35
 606 01bf 00       		.byte	0
 607 01c0 0C       		.uleb128 0xc
 608 01c1 34000000 		.4byte	.LVL11
 609 01c5 E6030000 		.4byte	0x3e6
 610 01c9 D4010000 		.4byte	0x1d4
 611 01cd 0A       		.uleb128 0xa
 612 01ce 01       		.uleb128 0x1
 613 01cf 50       		.byte	0x50
 614 01d0 02       		.uleb128 0x2
 615 01d1 08       		.byte	0x8
 616 01d2 32       		.byte	0x32
 617 01d3 00       		.byte	0
 618 01d4 08       		.uleb128 0x8
 619 01d5 3C000000 		.4byte	.LVL12
 620 01d9 D0030000 		.4byte	0x3d0
 621 01dd 08       		.uleb128 0x8
 622 01de 42000000 		.4byte	.LVL13
 623 01e2 DB030000 		.4byte	0x3db
 624 01e6 08       		.uleb128 0x8
 625 01e7 5A000000 		.4byte	.LVL14
 626 01eb D0030000 		.4byte	0x3d0
 627 01ef 08       		.uleb128 0x8
 628 01f0 60000000 		.4byte	.LVL15
 629 01f4 DB030000 		.4byte	0x3db
 630 01f8 00       		.byte	0
 631 01f9 07       		.uleb128 0x7
 632 01fa EE010000 		.4byte	.LASF25
 633 01fe 01       		.byte	0x1
 634 01ff 3B       		.byte	0x3b
 635 0200 00000000 		.4byte	.LFB66
 636 0204 1A000000 		.4byte	.LFE66-.LFB66
 637 0208 01       		.uleb128 0x1
 638 0209 9C       		.byte	0x9c
 639 020a 64020000 		.4byte	0x264
 640 020e 0B       		.uleb128 0xb
 641 020f 77000000 		.4byte	.LASF22
 642 0213 01       		.byte	0x1
 643 0214 3B       		.byte	0x3b
 644 0215 62000000 		.4byte	0x62
 645 0219 B0000000 		.4byte	.LLST4
 646 021d 0B       		.uleb128 0xb
 647 021e A8020000 		.4byte	.LASF23
 648 0222 01       		.byte	0x1
 649 0223 3B       		.byte	0x3b
 650 0224 62000000 		.4byte	0x62
 651 0228 CE000000 		.4byte	.LLST5
ARM GAS  C:\Users\MANSRO~1\AppData\Local\Temp\ccdewCPz.s 			page 14


 652 022c 0C       		.uleb128 0xc
 653 022d 0C000000 		.4byte	.LVL19
 654 0231 C5030000 		.4byte	0x3c5
 655 0235 3F020000 		.4byte	0x23f
 656 0239 0A       		.uleb128 0xa
 657 023a 01       		.uleb128 0x1
 658 023b 50       		.byte	0x50
 659 023c 01       		.uleb128 0x1
 660 023d 3A       		.byte	0x3a
 661 023e 00       		.byte	0
 662 023f 0C       		.uleb128 0xc
 663 0240 12000000 		.4byte	.LVL20
 664 0244 D0030000 		.4byte	0x3d0
 665 0248 53020000 		.4byte	0x253
 666 024c 0A       		.uleb128 0xa
 667 024d 01       		.uleb128 0x1
 668 024e 50       		.byte	0x50
 669 024f 02       		.uleb128 0x2
 670 0250 75       		.byte	0x75
 671 0251 00       		.sleb128 0
 672 0252 00       		.byte	0
 673 0253 09       		.uleb128 0x9
 674 0254 18000000 		.4byte	.LVL21
 675 0258 DB030000 		.4byte	0x3db
 676 025c 0A       		.uleb128 0xa
 677 025d 01       		.uleb128 0x1
 678 025e 50       		.byte	0x50
 679 025f 02       		.uleb128 0x2
 680 0260 74       		.byte	0x74
 681 0261 00       		.sleb128 0
 682 0262 00       		.byte	0
 683 0263 00       		.byte	0
 684 0264 07       		.uleb128 0x7
 685 0265 51010000 		.4byte	.LASF26
 686 0269 01       		.byte	0x1
 687 026a 42       		.byte	0x42
 688 026b 00000000 		.4byte	.LFB67
 689 026f 28000000 		.4byte	.LFE67-.LFB67
 690 0273 01       		.uleb128 0x1
 691 0274 9C       		.byte	0x9c
 692 0275 CF020000 		.4byte	0x2cf
 693 0279 0B       		.uleb128 0xb
 694 027a 77000000 		.4byte	.LASF22
 695 027e 01       		.byte	0x1
 696 027f 42       		.byte	0x42
 697 0280 62000000 		.4byte	0x62
 698 0284 EC000000 		.4byte	.LLST6
 699 0288 0B       		.uleb128 0xb
 700 0289 A8020000 		.4byte	.LASF23
 701 028d 01       		.byte	0x1
 702 028e 42       		.byte	0x42
 703 028f 62000000 		.4byte	0x62
 704 0293 18010000 		.4byte	.LLST7
 705 0297 0C       		.uleb128 0xc
 706 0298 0C000000 		.4byte	.LVL24
 707 029c C5030000 		.4byte	0x3c5
 708 02a0 AA020000 		.4byte	0x2aa
ARM GAS  C:\Users\MANSRO~1\AppData\Local\Temp\ccdewCPz.s 			page 15


 709 02a4 0A       		.uleb128 0xa
 710 02a5 01       		.uleb128 0x1
 711 02a6 50       		.byte	0x50
 712 02a7 01       		.uleb128 0x1
 713 02a8 39       		.byte	0x39
 714 02a9 00       		.byte	0
 715 02aa 0C       		.uleb128 0xc
 716 02ab 12000000 		.4byte	.LVL25
 717 02af D0030000 		.4byte	0x3d0
 718 02b3 BE020000 		.4byte	0x2be
 719 02b7 0A       		.uleb128 0xa
 720 02b8 01       		.uleb128 0x1
 721 02b9 50       		.byte	0x50
 722 02ba 02       		.uleb128 0x2
 723 02bb 75       		.byte	0x75
 724 02bc 00       		.sleb128 0
 725 02bd 00       		.byte	0
 726 02be 09       		.uleb128 0x9
 727 02bf 18000000 		.4byte	.LVL26
 728 02c3 DB030000 		.4byte	0x3db
 729 02c7 0A       		.uleb128 0xa
 730 02c8 01       		.uleb128 0x1
 731 02c9 50       		.byte	0x50
 732 02ca 02       		.uleb128 0x2
 733 02cb 74       		.byte	0x74
 734 02cc 00       		.sleb128 0
 735 02cd 00       		.byte	0
 736 02ce 00       		.byte	0
 737 02cf 07       		.uleb128 0x7
 738 02d0 93000000 		.4byte	.LASF27
 739 02d4 01       		.byte	0x1
 740 02d5 4A       		.byte	0x4a
 741 02d6 00000000 		.4byte	.LFB68
 742 02da 28000000 		.4byte	.LFE68-.LFB68
 743 02de 01       		.uleb128 0x1
 744 02df 9C       		.byte	0x9c
 745 02e0 3A030000 		.4byte	0x33a
 746 02e4 0B       		.uleb128 0xb
 747 02e5 77000000 		.4byte	.LASF22
 748 02e9 01       		.byte	0x1
 749 02ea 4A       		.byte	0x4a
 750 02eb 62000000 		.4byte	0x62
 751 02ef 44010000 		.4byte	.LLST8
 752 02f3 0B       		.uleb128 0xb
 753 02f4 A8020000 		.4byte	.LASF23
 754 02f8 01       		.byte	0x1
 755 02f9 4A       		.byte	0x4a
 756 02fa 62000000 		.4byte	0x62
 757 02fe 70010000 		.4byte	.LLST9
 758 0302 0C       		.uleb128 0xc
 759 0303 0C000000 		.4byte	.LVL30
 760 0307 C5030000 		.4byte	0x3c5
 761 030b 15030000 		.4byte	0x315
 762 030f 0A       		.uleb128 0xa
 763 0310 01       		.uleb128 0x1
 764 0311 50       		.byte	0x50
 765 0312 01       		.uleb128 0x1
ARM GAS  C:\Users\MANSRO~1\AppData\Local\Temp\ccdewCPz.s 			page 16


 766 0313 36       		.byte	0x36
 767 0314 00       		.byte	0
 768 0315 0C       		.uleb128 0xc
 769 0316 12000000 		.4byte	.LVL31
 770 031a D0030000 		.4byte	0x3d0
 771 031e 29030000 		.4byte	0x329
 772 0322 0A       		.uleb128 0xa
 773 0323 01       		.uleb128 0x1
 774 0324 50       		.byte	0x50
 775 0325 02       		.uleb128 0x2
 776 0326 75       		.byte	0x75
 777 0327 00       		.sleb128 0
 778 0328 00       		.byte	0
 779 0329 09       		.uleb128 0x9
 780 032a 18000000 		.4byte	.LVL32
 781 032e DB030000 		.4byte	0x3db
 782 0332 0A       		.uleb128 0xa
 783 0333 01       		.uleb128 0x1
 784 0334 50       		.byte	0x50
 785 0335 02       		.uleb128 0x2
 786 0336 74       		.byte	0x74
 787 0337 00       		.sleb128 0
 788 0338 00       		.byte	0
 789 0339 00       		.byte	0
 790 033a 07       		.uleb128 0x7
 791 033b 5E020000 		.4byte	.LASF28
 792 033f 01       		.byte	0x1
 793 0340 52       		.byte	0x52
 794 0341 00000000 		.4byte	.LFB69
 795 0345 28000000 		.4byte	.LFE69-.LFB69
 796 0349 01       		.uleb128 0x1
 797 034a 9C       		.byte	0x9c
 798 034b 98030000 		.4byte	0x398
 799 034f 0C       		.uleb128 0xc
 800 0350 08000000 		.4byte	.LVL34
 801 0354 C5030000 		.4byte	0x3c5
 802 0358 62030000 		.4byte	0x362
 803 035c 0A       		.uleb128 0xa
 804 035d 01       		.uleb128 0x1
 805 035e 50       		.byte	0x50
 806 035f 01       		.uleb128 0x1
 807 0360 3F       		.byte	0x3f
 808 0361 00       		.byte	0
 809 0362 0C       		.uleb128 0xc
 810 0363 0E000000 		.4byte	.LVL35
 811 0367 D0030000 		.4byte	0x3d0
 812 036b 75030000 		.4byte	0x375
 813 036f 0A       		.uleb128 0xa
 814 0370 01       		.uleb128 0x1
 815 0371 50       		.byte	0x50
 816 0372 01       		.uleb128 0x1
 817 0373 30       		.byte	0x30
 818 0374 00       		.byte	0
 819 0375 0C       		.uleb128 0xc
 820 0376 14000000 		.4byte	.LVL36
 821 037a DB030000 		.4byte	0x3db
 822 037e 88030000 		.4byte	0x388
ARM GAS  C:\Users\MANSRO~1\AppData\Local\Temp\ccdewCPz.s 			page 17


 823 0382 0A       		.uleb128 0xa
 824 0383 01       		.uleb128 0x1
 825 0384 50       		.byte	0x50
 826 0385 01       		.uleb128 0x1
 827 0386 30       		.byte	0x30
 828 0387 00       		.byte	0
 829 0388 09       		.uleb128 0x9
 830 0389 22000000 		.4byte	.LVL37
 831 038d E6030000 		.4byte	0x3e6
 832 0391 0A       		.uleb128 0xa
 833 0392 01       		.uleb128 0x1
 834 0393 50       		.byte	0x50
 835 0394 01       		.uleb128 0x1
 836 0395 3A       		.byte	0x3a
 837 0396 00       		.byte	0
 838 0397 00       		.byte	0
 839 0398 0D       		.uleb128 0xd
 840 0399 FD010000 		.4byte	.LASF29
 841 039d 02       		.byte	0x2
 842 039e 17       		.byte	0x17
 843 039f 25000000 		.4byte	0x25
 844 03a3 05       		.uleb128 0x5
 845 03a4 03       		.byte	0x3
 846 03a5 00000000 		.4byte	gMotor
 847 03a9 0E       		.uleb128 0xe
 848 03aa 5C010000 		.4byte	.LASF30
 849 03ae 05       		.byte	0x5
 850 03af 1207     		.2byte	0x712
 851 03b1 B5030000 		.4byte	0x3b5
 852 03b5 0F       		.uleb128 0xf
 853 03b6 B3000000 		.4byte	0xb3
 854 03ba 10       		.uleb128 0x10
 855 03bb 9E010000 		.4byte	.LASF31
 856 03bf 9E010000 		.4byte	.LASF31
 857 03c3 06       		.byte	0x6
 858 03c4 92       		.byte	0x92
 859 03c5 10       		.uleb128 0x10
 860 03c6 48000000 		.4byte	.LASF32
 861 03ca 48000000 		.4byte	.LASF32
 862 03ce 07       		.byte	0x7
 863 03cf 2F       		.byte	0x2f
 864 03d0 10       		.uleb128 0x10
 865 03d1 70020000 		.4byte	.LASF33
 866 03d5 70020000 		.4byte	.LASF33
 867 03d9 06       		.byte	0x6
 868 03da C7       		.byte	0xc7
 869 03db 10       		.uleb128 0x10
 870 03dc 86020000 		.4byte	.LASF34
 871 03e0 86020000 		.4byte	.LASF34
 872 03e4 06       		.byte	0x6
 873 03e5 CA       		.byte	0xca
 874 03e6 10       		.uleb128 0x10
 875 03e7 B2020000 		.4byte	.LASF35
 876 03eb B2020000 		.4byte	.LASF35
 877 03ef 08       		.byte	0x8
 878 03f0 76       		.byte	0x76
 879 03f1 00       		.byte	0
ARM GAS  C:\Users\MANSRO~1\AppData\Local\Temp\ccdewCPz.s 			page 18


 880              		.section	.debug_abbrev,"",%progbits
 881              	.Ldebug_abbrev0:
 882 0000 01       		.uleb128 0x1
 883 0001 11       		.uleb128 0x11
 884 0002 01       		.byte	0x1
 885 0003 25       		.uleb128 0x25
 886 0004 0E       		.uleb128 0xe
 887 0005 13       		.uleb128 0x13
 888 0006 0B       		.uleb128 0xb
 889 0007 03       		.uleb128 0x3
 890 0008 0E       		.uleb128 0xe
 891 0009 1B       		.uleb128 0x1b
 892 000a 0E       		.uleb128 0xe
 893 000b 55       		.uleb128 0x55
 894 000c 17       		.uleb128 0x17
 895 000d 11       		.uleb128 0x11
 896 000e 01       		.uleb128 0x1
 897 000f 10       		.uleb128 0x10
 898 0010 17       		.uleb128 0x17
 899 0011 00       		.byte	0
 900 0012 00       		.byte	0
 901 0013 02       		.uleb128 0x2
 902 0014 13       		.uleb128 0x13
 903 0015 01       		.byte	0x1
 904 0016 03       		.uleb128 0x3
 905 0017 0E       		.uleb128 0xe
 906 0018 0B       		.uleb128 0xb
 907 0019 0B       		.uleb128 0xb
 908 001a 3A       		.uleb128 0x3a
 909 001b 0B       		.uleb128 0xb
 910 001c 3B       		.uleb128 0x3b
 911 001d 0B       		.uleb128 0xb
 912 001e 01       		.uleb128 0x1
 913 001f 13       		.uleb128 0x13
 914 0020 00       		.byte	0
 915 0021 00       		.byte	0
 916 0022 03       		.uleb128 0x3
 917 0023 0D       		.uleb128 0xd
 918 0024 00       		.byte	0
 919 0025 03       		.uleb128 0x3
 920 0026 0E       		.uleb128 0xe
 921 0027 3A       		.uleb128 0x3a
 922 0028 0B       		.uleb128 0xb
 923 0029 3B       		.uleb128 0x3b
 924 002a 0B       		.uleb128 0xb
 925 002b 49       		.uleb128 0x49
 926 002c 13       		.uleb128 0x13
 927 002d 38       		.uleb128 0x38
 928 002e 0B       		.uleb128 0xb
 929 002f 00       		.byte	0
 930 0030 00       		.byte	0
 931 0031 04       		.uleb128 0x4
 932 0032 24       		.uleb128 0x24
 933 0033 00       		.byte	0
 934 0034 0B       		.uleb128 0xb
 935 0035 0B       		.uleb128 0xb
 936 0036 3E       		.uleb128 0x3e
ARM GAS  C:\Users\MANSRO~1\AppData\Local\Temp\ccdewCPz.s 			page 19


 937 0037 0B       		.uleb128 0xb
 938 0038 03       		.uleb128 0x3
 939 0039 08       		.uleb128 0x8
 940 003a 00       		.byte	0
 941 003b 00       		.byte	0
 942 003c 05       		.uleb128 0x5
 943 003d 24       		.uleb128 0x24
 944 003e 00       		.byte	0
 945 003f 0B       		.uleb128 0xb
 946 0040 0B       		.uleb128 0xb
 947 0041 3E       		.uleb128 0x3e
 948 0042 0B       		.uleb128 0xb
 949 0043 03       		.uleb128 0x3
 950 0044 0E       		.uleb128 0xe
 951 0045 00       		.byte	0
 952 0046 00       		.byte	0
 953 0047 06       		.uleb128 0x6
 954 0048 16       		.uleb128 0x16
 955 0049 00       		.byte	0
 956 004a 03       		.uleb128 0x3
 957 004b 0E       		.uleb128 0xe
 958 004c 3A       		.uleb128 0x3a
 959 004d 0B       		.uleb128 0xb
 960 004e 3B       		.uleb128 0x3b
 961 004f 0B       		.uleb128 0xb
 962 0050 49       		.uleb128 0x49
 963 0051 13       		.uleb128 0x13
 964 0052 00       		.byte	0
 965 0053 00       		.byte	0
 966 0054 07       		.uleb128 0x7
 967 0055 2E       		.uleb128 0x2e
 968 0056 01       		.byte	0x1
 969 0057 3F       		.uleb128 0x3f
 970 0058 19       		.uleb128 0x19
 971 0059 03       		.uleb128 0x3
 972 005a 0E       		.uleb128 0xe
 973 005b 3A       		.uleb128 0x3a
 974 005c 0B       		.uleb128 0xb
 975 005d 3B       		.uleb128 0x3b
 976 005e 0B       		.uleb128 0xb
 977 005f 27       		.uleb128 0x27
 978 0060 19       		.uleb128 0x19
 979 0061 11       		.uleb128 0x11
 980 0062 01       		.uleb128 0x1
 981 0063 12       		.uleb128 0x12
 982 0064 06       		.uleb128 0x6
 983 0065 40       		.uleb128 0x40
 984 0066 18       		.uleb128 0x18
 985 0067 9742     		.uleb128 0x2117
 986 0069 19       		.uleb128 0x19
 987 006a 01       		.uleb128 0x1
 988 006b 13       		.uleb128 0x13
 989 006c 00       		.byte	0
 990 006d 00       		.byte	0
 991 006e 08       		.uleb128 0x8
 992 006f 898201   		.uleb128 0x4109
 993 0072 00       		.byte	0
ARM GAS  C:\Users\MANSRO~1\AppData\Local\Temp\ccdewCPz.s 			page 20


 994 0073 11       		.uleb128 0x11
 995 0074 01       		.uleb128 0x1
 996 0075 31       		.uleb128 0x31
 997 0076 13       		.uleb128 0x13
 998 0077 00       		.byte	0
 999 0078 00       		.byte	0
 1000 0079 09       		.uleb128 0x9
 1001 007a 898201   		.uleb128 0x4109
 1002 007d 01       		.byte	0x1
 1003 007e 11       		.uleb128 0x11
 1004 007f 01       		.uleb128 0x1
 1005 0080 31       		.uleb128 0x31
 1006 0081 13       		.uleb128 0x13
 1007 0082 00       		.byte	0
 1008 0083 00       		.byte	0
 1009 0084 0A       		.uleb128 0xa
 1010 0085 8A8201   		.uleb128 0x410a
 1011 0088 00       		.byte	0
 1012 0089 02       		.uleb128 0x2
 1013 008a 18       		.uleb128 0x18
 1014 008b 9142     		.uleb128 0x2111
 1015 008d 18       		.uleb128 0x18
 1016 008e 00       		.byte	0
 1017 008f 00       		.byte	0
 1018 0090 0B       		.uleb128 0xb
 1019 0091 05       		.uleb128 0x5
 1020 0092 00       		.byte	0
 1021 0093 03       		.uleb128 0x3
 1022 0094 0E       		.uleb128 0xe
 1023 0095 3A       		.uleb128 0x3a
 1024 0096 0B       		.uleb128 0xb
 1025 0097 3B       		.uleb128 0x3b
 1026 0098 0B       		.uleb128 0xb
 1027 0099 49       		.uleb128 0x49
 1028 009a 13       		.uleb128 0x13
 1029 009b 02       		.uleb128 0x2
 1030 009c 17       		.uleb128 0x17
 1031 009d 00       		.byte	0
 1032 009e 00       		.byte	0
 1033 009f 0C       		.uleb128 0xc
 1034 00a0 898201   		.uleb128 0x4109
 1035 00a3 01       		.byte	0x1
 1036 00a4 11       		.uleb128 0x11
 1037 00a5 01       		.uleb128 0x1
 1038 00a6 31       		.uleb128 0x31
 1039 00a7 13       		.uleb128 0x13
 1040 00a8 01       		.uleb128 0x1
 1041 00a9 13       		.uleb128 0x13
 1042 00aa 00       		.byte	0
 1043 00ab 00       		.byte	0
 1044 00ac 0D       		.uleb128 0xd
 1045 00ad 34       		.uleb128 0x34
 1046 00ae 00       		.byte	0
 1047 00af 03       		.uleb128 0x3
 1048 00b0 0E       		.uleb128 0xe
 1049 00b1 3A       		.uleb128 0x3a
 1050 00b2 0B       		.uleb128 0xb
ARM GAS  C:\Users\MANSRO~1\AppData\Local\Temp\ccdewCPz.s 			page 21


 1051 00b3 3B       		.uleb128 0x3b
 1052 00b4 0B       		.uleb128 0xb
 1053 00b5 49       		.uleb128 0x49
 1054 00b6 13       		.uleb128 0x13
 1055 00b7 3F       		.uleb128 0x3f
 1056 00b8 19       		.uleb128 0x19
 1057 00b9 02       		.uleb128 0x2
 1058 00ba 18       		.uleb128 0x18
 1059 00bb 00       		.byte	0
 1060 00bc 00       		.byte	0
 1061 00bd 0E       		.uleb128 0xe
 1062 00be 34       		.uleb128 0x34
 1063 00bf 00       		.byte	0
 1064 00c0 03       		.uleb128 0x3
 1065 00c1 0E       		.uleb128 0xe
 1066 00c2 3A       		.uleb128 0x3a
 1067 00c3 0B       		.uleb128 0xb
 1068 00c4 3B       		.uleb128 0x3b
 1069 00c5 05       		.uleb128 0x5
 1070 00c6 49       		.uleb128 0x49
 1071 00c7 13       		.uleb128 0x13
 1072 00c8 3F       		.uleb128 0x3f
 1073 00c9 19       		.uleb128 0x19
 1074 00ca 3C       		.uleb128 0x3c
 1075 00cb 19       		.uleb128 0x19
 1076 00cc 00       		.byte	0
 1077 00cd 00       		.byte	0
 1078 00ce 0F       		.uleb128 0xf
 1079 00cf 35       		.uleb128 0x35
 1080 00d0 00       		.byte	0
 1081 00d1 49       		.uleb128 0x49
 1082 00d2 13       		.uleb128 0x13
 1083 00d3 00       		.byte	0
 1084 00d4 00       		.byte	0
 1085 00d5 10       		.uleb128 0x10
 1086 00d6 2E       		.uleb128 0x2e
 1087 00d7 00       		.byte	0
 1088 00d8 3F       		.uleb128 0x3f
 1089 00d9 19       		.uleb128 0x19
 1090 00da 3C       		.uleb128 0x3c
 1091 00db 19       		.uleb128 0x19
 1092 00dc 6E       		.uleb128 0x6e
 1093 00dd 0E       		.uleb128 0xe
 1094 00de 03       		.uleb128 0x3
 1095 00df 0E       		.uleb128 0xe
 1096 00e0 3A       		.uleb128 0x3a
 1097 00e1 0B       		.uleb128 0xb
 1098 00e2 3B       		.uleb128 0x3b
 1099 00e3 0B       		.uleb128 0xb
 1100 00e4 00       		.byte	0
 1101 00e5 00       		.byte	0
 1102 00e6 00       		.byte	0
 1103              		.section	.debug_loc,"",%progbits
 1104              	.Ldebug_loc0:
 1105              	.LLST0:
 1106 0000 00000000 		.4byte	.LVL2
 1107 0004 08000000 		.4byte	.LVL3
ARM GAS  C:\Users\MANSRO~1\AppData\Local\Temp\ccdewCPz.s 			page 22


 1108 0008 0100     		.2byte	0x1
 1109 000a 50       		.byte	0x50
 1110 000b 08000000 		.4byte	.LVL3
 1111 000f 22000000 		.4byte	.LVL7
 1112 0013 0100     		.2byte	0x1
 1113 0015 55       		.byte	0x55
 1114 0016 22000000 		.4byte	.LVL7
 1115 001a 28000000 		.4byte	.LFE64
 1116 001e 0400     		.2byte	0x4
 1117 0020 F3       		.byte	0xf3
 1118 0021 01       		.uleb128 0x1
 1119 0022 50       		.byte	0x50
 1120 0023 9F       		.byte	0x9f
 1121 0024 00000000 		.4byte	0
 1122 0028 00000000 		.4byte	0
 1123              	.LLST1:
 1124 002c 00000000 		.4byte	.LVL2
 1125 0030 0B000000 		.4byte	.LVL4-1
 1126 0034 0100     		.2byte	0x1
 1127 0036 51       		.byte	0x51
 1128 0037 0B000000 		.4byte	.LVL4-1
 1129 003b 22000000 		.4byte	.LVL7
 1130 003f 0100     		.2byte	0x1
 1131 0041 54       		.byte	0x54
 1132 0042 22000000 		.4byte	.LVL7
 1133 0046 28000000 		.4byte	.LFE64
 1134 004a 0400     		.2byte	0x4
 1135 004c F3       		.byte	0xf3
 1136 004d 01       		.uleb128 0x1
 1137 004e 51       		.byte	0x51
 1138 004f 9F       		.byte	0x9f
 1139 0050 00000000 		.4byte	0
 1140 0054 00000000 		.4byte	0
 1141              	.LLST2:
 1142 0058 00000000 		.4byte	.LVL8
 1143 005c 08000000 		.4byte	.LVL9
 1144 0060 0100     		.2byte	0x1
 1145 0062 50       		.byte	0x50
 1146 0063 08000000 		.4byte	.LVL9
 1147 0067 62000000 		.4byte	.LVL16
 1148 006b 0100     		.2byte	0x1
 1149 006d 56       		.byte	0x56
 1150 006e 62000000 		.4byte	.LVL16
 1151 0072 68000000 		.4byte	.LFE65
 1152 0076 0400     		.2byte	0x4
 1153 0078 F3       		.byte	0xf3
 1154 0079 01       		.uleb128 0x1
 1155 007a 50       		.byte	0x50
 1156 007b 9F       		.byte	0x9f
 1157 007c 00000000 		.4byte	0
 1158 0080 00000000 		.4byte	0
 1159              	.LLST3:
 1160 0084 00000000 		.4byte	.LVL8
 1161 0088 0B000000 		.4byte	.LVL10-1
 1162 008c 0100     		.2byte	0x1
 1163 008e 51       		.byte	0x51
 1164 008f 0B000000 		.4byte	.LVL10-1
ARM GAS  C:\Users\MANSRO~1\AppData\Local\Temp\ccdewCPz.s 			page 23


 1165 0093 62000000 		.4byte	.LVL16
 1166 0097 0100     		.2byte	0x1
 1167 0099 55       		.byte	0x55
 1168 009a 62000000 		.4byte	.LVL16
 1169 009e 68000000 		.4byte	.LFE65
 1170 00a2 0400     		.2byte	0x4
 1171 00a4 F3       		.byte	0xf3
 1172 00a5 01       		.uleb128 0x1
 1173 00a6 51       		.byte	0x51
 1174 00a7 9F       		.byte	0x9f
 1175 00a8 00000000 		.4byte	0
 1176 00ac 00000000 		.4byte	0
 1177              	.LLST4:
 1178 00b0 00000000 		.4byte	.LVL17
 1179 00b4 08000000 		.4byte	.LVL18
 1180 00b8 0100     		.2byte	0x1
 1181 00ba 50       		.byte	0x50
 1182 00bb 08000000 		.4byte	.LVL18
 1183 00bf 1A000000 		.4byte	.LFE66
 1184 00c3 0100     		.2byte	0x1
 1185 00c5 55       		.byte	0x55
 1186 00c6 00000000 		.4byte	0
 1187 00ca 00000000 		.4byte	0
 1188              	.LLST5:
 1189 00ce 00000000 		.4byte	.LVL17
 1190 00d2 0B000000 		.4byte	.LVL19-1
 1191 00d6 0100     		.2byte	0x1
 1192 00d8 51       		.byte	0x51
 1193 00d9 0B000000 		.4byte	.LVL19-1
 1194 00dd 1A000000 		.4byte	.LFE66
 1195 00e1 0100     		.2byte	0x1
 1196 00e3 54       		.byte	0x54
 1197 00e4 00000000 		.4byte	0
 1198 00e8 00000000 		.4byte	0
 1199              	.LLST6:
 1200 00ec 00000000 		.4byte	.LVL22
 1201 00f0 08000000 		.4byte	.LVL23
 1202 00f4 0100     		.2byte	0x1
 1203 00f6 50       		.byte	0x50
 1204 00f7 08000000 		.4byte	.LVL23
 1205 00fb 22000000 		.4byte	.LVL27
 1206 00ff 0100     		.2byte	0x1
 1207 0101 55       		.byte	0x55
 1208 0102 22000000 		.4byte	.LVL27
 1209 0106 28000000 		.4byte	.LFE67
 1210 010a 0400     		.2byte	0x4
 1211 010c F3       		.byte	0xf3
 1212 010d 01       		.uleb128 0x1
 1213 010e 50       		.byte	0x50
 1214 010f 9F       		.byte	0x9f
 1215 0110 00000000 		.4byte	0
 1216 0114 00000000 		.4byte	0
 1217              	.LLST7:
 1218 0118 00000000 		.4byte	.LVL22
 1219 011c 0B000000 		.4byte	.LVL24-1
 1220 0120 0100     		.2byte	0x1
 1221 0122 51       		.byte	0x51
ARM GAS  C:\Users\MANSRO~1\AppData\Local\Temp\ccdewCPz.s 			page 24


 1222 0123 0B000000 		.4byte	.LVL24-1
 1223 0127 22000000 		.4byte	.LVL27
 1224 012b 0100     		.2byte	0x1
 1225 012d 54       		.byte	0x54
 1226 012e 22000000 		.4byte	.LVL27
 1227 0132 28000000 		.4byte	.LFE67
 1228 0136 0400     		.2byte	0x4
 1229 0138 F3       		.byte	0xf3
 1230 0139 01       		.uleb128 0x1
 1231 013a 51       		.byte	0x51
 1232 013b 9F       		.byte	0x9f
 1233 013c 00000000 		.4byte	0
 1234 0140 00000000 		.4byte	0
 1235              	.LLST8:
 1236 0144 00000000 		.4byte	.LVL28
 1237 0148 08000000 		.4byte	.LVL29
 1238 014c 0100     		.2byte	0x1
 1239 014e 50       		.byte	0x50
 1240 014f 08000000 		.4byte	.LVL29
 1241 0153 22000000 		.4byte	.LVL33
 1242 0157 0100     		.2byte	0x1
 1243 0159 55       		.byte	0x55
 1244 015a 22000000 		.4byte	.LVL33
 1245 015e 28000000 		.4byte	.LFE68
 1246 0162 0400     		.2byte	0x4
 1247 0164 F3       		.byte	0xf3
 1248 0165 01       		.uleb128 0x1
 1249 0166 50       		.byte	0x50
 1250 0167 9F       		.byte	0x9f
 1251 0168 00000000 		.4byte	0
 1252 016c 00000000 		.4byte	0
 1253              	.LLST9:
 1254 0170 00000000 		.4byte	.LVL28
 1255 0174 0B000000 		.4byte	.LVL30-1
 1256 0178 0100     		.2byte	0x1
 1257 017a 51       		.byte	0x51
 1258 017b 0B000000 		.4byte	.LVL30-1
 1259 017f 22000000 		.4byte	.LVL33
 1260 0183 0100     		.2byte	0x1
 1261 0185 54       		.byte	0x54
 1262 0186 22000000 		.4byte	.LVL33
 1263 018a 28000000 		.4byte	.LFE68
 1264 018e 0400     		.2byte	0x4
 1265 0190 F3       		.byte	0xf3
 1266 0191 01       		.uleb128 0x1
 1267 0192 51       		.byte	0x51
 1268 0193 9F       		.byte	0x9f
 1269 0194 00000000 		.4byte	0
 1270 0198 00000000 		.4byte	0
 1271              		.section	.debug_aranges,"",%progbits
 1272 0000 4C000000 		.4byte	0x4c
 1273 0004 0200     		.2byte	0x2
 1274 0006 00000000 		.4byte	.Ldebug_info0
 1275 000a 04       		.byte	0x4
 1276 000b 00       		.byte	0
 1277 000c 0000     		.2byte	0
 1278 000e 0000     		.2byte	0
ARM GAS  C:\Users\MANSRO~1\AppData\Local\Temp\ccdewCPz.s 			page 25


 1279 0010 00000000 		.4byte	.LFB63
 1280 0014 0E000000 		.4byte	.LFE63-.LFB63
 1281 0018 00000000 		.4byte	.LFB64
 1282 001c 28000000 		.4byte	.LFE64-.LFB64
 1283 0020 00000000 		.4byte	.LFB65
 1284 0024 68000000 		.4byte	.LFE65-.LFB65
 1285 0028 00000000 		.4byte	.LFB66
 1286 002c 1A000000 		.4byte	.LFE66-.LFB66
 1287 0030 00000000 		.4byte	.LFB67
 1288 0034 28000000 		.4byte	.LFE67-.LFB67
 1289 0038 00000000 		.4byte	.LFB68
 1290 003c 28000000 		.4byte	.LFE68-.LFB68
 1291 0040 00000000 		.4byte	.LFB69
 1292 0044 28000000 		.4byte	.LFE69-.LFB69
 1293 0048 00000000 		.4byte	0
 1294 004c 00000000 		.4byte	0
 1295              		.section	.debug_ranges,"",%progbits
 1296              	.Ldebug_ranges0:
 1297 0000 00000000 		.4byte	.LFB63
 1298 0004 0E000000 		.4byte	.LFE63
 1299 0008 00000000 		.4byte	.LFB64
 1300 000c 28000000 		.4byte	.LFE64
 1301 0010 00000000 		.4byte	.LFB65
 1302 0014 68000000 		.4byte	.LFE65
 1303 0018 00000000 		.4byte	.LFB66
 1304 001c 1A000000 		.4byte	.LFE66
 1305 0020 00000000 		.4byte	.LFB67
 1306 0024 28000000 		.4byte	.LFE67
 1307 0028 00000000 		.4byte	.LFB68
 1308 002c 28000000 		.4byte	.LFE68
 1309 0030 00000000 		.4byte	.LFB69
 1310 0034 28000000 		.4byte	.LFE69
 1311 0038 00000000 		.4byte	0
 1312 003c 00000000 		.4byte	0
 1313              		.section	.debug_line,"",%progbits
 1314              	.Ldebug_line0:
 1315 0000 1C020000 		.section	.debug_str,"MS",%progbits,1
 1315      02007501 
 1315      00000201 
 1315      FB0E0D00 
 1315      01010101 
 1316              	.LASF2:
 1317 0000 6D61785F 		.ascii	"max_pwm_Limited_L\000"
 1317      70776D5F 
 1317      4C696D69 
 1317      7465645F 
 1317      4C00
 1318              	.LASF4:
 1319 0012 7369676E 		.ascii	"signed char\000"
 1319      65642063 
 1319      68617200 
 1320              	.LASF21:
 1321 001e 64726976 		.ascii	"drive_forward\000"
 1321      655F666F 
 1321      72776172 
 1321      6400
 1322              	.LASF3:
ARM GAS  C:\Users\MANSRO~1\AppData\Local\Temp\ccdewCPz.s 			page 26


 1323 002c 6D61785F 		.ascii	"max_pwm_Limited_R\000"
 1323      70776D5F 
 1323      4C696D69 
 1323      7465645F 
 1323      5200
 1324              	.LASF13:
 1325 003e 5F5F696E 		.ascii	"__int32_t\000"
 1325      7433325F 
 1325      7400
 1326              	.LASF32:
 1327 0048 4D4F545F 		.ascii	"MOT_CTRL_reg_Write\000"
 1327      4354524C 
 1327      5F726567 
 1327      5F577269 
 1327      746500
 1328              	.LASF8:
 1329 005b 6C6F6E67 		.ascii	"long int\000"
 1329      20696E74 
 1329      00
 1330              	.LASF7:
 1331 0064 73686F72 		.ascii	"short unsigned int\000"
 1331      7420756E 
 1331      7369676E 
 1331      65642069 
 1331      6E7400
 1332              	.LASF22:
 1333 0077 6C656674 		.ascii	"left_pwm\000"
 1333      5F70776D 
 1333      00
 1334              	.LASF24:
 1335 0080 736F6674 		.ascii	"soft_drive_forward\000"
 1335      5F647269 
 1335      76655F66 
 1335      6F727761 
 1335      726400
 1336              	.LASF27:
 1337 0093 7475726E 		.ascii	"turn_left\000"
 1337      5F6C6566 
 1337      7400
 1338              	.LASF15:
 1339 009d 666C6F61 		.ascii	"float\000"
 1339      7400
 1340              	.LASF5:
 1341 00a3 756E7369 		.ascii	"unsigned char\000"
 1341      676E6564 
 1341      20636861 
 1341      7200
 1342              	.LASF36:
 1343 00b1 474E5520 		.ascii	"GNU C11 5.4.1 20160609 (release) [ARM/embedded-5-br"
 1343      43313120 
 1343      352E342E 
 1343      31203230 
 1343      31363036 
 1344 00e4 616E6368 		.ascii	"anch revision 237715] -mcpu=cortex-m3 -mthumb -g -O"
 1344      20726576 
 1344      6973696F 
 1344      6E203233 
ARM GAS  C:\Users\MANSRO~1\AppData\Local\Temp\ccdewCPz.s 			page 27


 1344      37373135 
 1345 0117 67202D66 		.ascii	"g -ffunction-sections -ffat-lto-objects\000"
 1345      66756E63 
 1345      74696F6E 
 1345      2D736563 
 1345      74696F6E 
 1346              	.LASF9:
 1347 013f 6C6F6E67 		.ascii	"long unsigned int\000"
 1347      20756E73 
 1347      69676E65 
 1347      6420696E 
 1347      7400
 1348              	.LASF26:
 1349 0151 7475726E 		.ascii	"turn_right\000"
 1349      5F726967 
 1349      687400
 1350              	.LASF30:
 1351 015c 49544D5F 		.ascii	"ITM_RxBuffer\000"
 1351      52784275 
 1351      66666572 
 1351      00
 1352              	.LASF16:
 1353 0169 646F7562 		.ascii	"double\000"
 1353      6C6500
 1354              	.LASF6:
 1355 0170 73686F72 		.ascii	"short int\000"
 1355      7420696E 
 1355      7400
 1356              	.LASF12:
 1357 017a 756E7369 		.ascii	"unsigned int\000"
 1357      676E6564 
 1357      20696E74 
 1357      00
 1358              	.LASF11:
 1359 0187 6C6F6E67 		.ascii	"long long unsigned int\000"
 1359      206C6F6E 
 1359      6720756E 
 1359      7369676E 
 1359      65642069 
 1360              	.LASF31:
 1361 019e 4D4F545F 		.ascii	"MOT_PWM_Start\000"
 1361      50574D5F 
 1361      53746172 
 1361      7400
 1362              	.LASF37:
 1363 01ac 64726976 		.ascii	"drive.c\000"
 1363      652E6300 
 1364              	.LASF14:
 1365 01b4 696E7433 		.ascii	"int32_t\000"
 1365      325F7400 
 1366              	.LASF19:
 1367 01bc 73697A65 		.ascii	"sizetype\000"
 1367      74797065 
 1367      00
 1368              	.LASF1:
 1369 01c5 7475726E 		.ascii	"turn_speed\000"
 1369      5F737065 
ARM GAS  C:\Users\MANSRO~1\AppData\Local\Temp\ccdewCPz.s 			page 28


 1369      656400
 1370              	.LASF10:
 1371 01d0 6C6F6E67 		.ascii	"long long int\000"
 1371      206C6F6E 
 1371      6720696E 
 1371      7400
 1372              	.LASF17:
 1373 01de 63686172 		.ascii	"char\000"
 1373      00
 1374              	.LASF20:
 1375 01e3 4D6F746F 		.ascii	"Motor_Init\000"
 1375      725F496E 
 1375      697400
 1376              	.LASF25:
 1377 01ee 64726976 		.ascii	"drive_backward\000"
 1377      655F6261 
 1377      636B7761 
 1377      726400
 1378              	.LASF29:
 1379 01fd 674D6F74 		.ascii	"gMotor\000"
 1379      6F7200
 1380              	.LASF38:
 1381 0204 433A5C55 		.ascii	"C:\\Users\\Mans Robots\\Google Drive\\new_sumo code"
 1381      73657273 
 1381      5C4D616E 
 1381      7320526F 
 1381      626F7473 
 1382 0233 5C42555F 		.ascii	"\\BU_newboard_sumo\\BU_sumo.cydsn\000"
 1382      6E657762 
 1382      6F617264 
 1382      5F73756D 
 1382      6F5C4255 
 1383              	.LASF39:
 1384 0253 67447269 		.ascii	"gDrivevars\000"
 1384      76657661 
 1384      727300
 1385              	.LASF28:
 1386 025e 6272616B 		.ascii	"brake\000"
 1386      6500
 1387              	.LASF18:
 1388 0264 6C6F6E67 		.ascii	"long double\000"
 1388      20646F75 
 1388      626C6500 
 1389              	.LASF33:
 1390 0270 4D4F545F 		.ascii	"MOT_PWM_WriteCompare1\000"
 1390      50574D5F 
 1390      57726974 
 1390      65436F6D 
 1390      70617265 
 1391              	.LASF34:
 1392 0286 4D4F545F 		.ascii	"MOT_PWM_WriteCompare2\000"
 1392      50574D5F 
 1392      57726974 
 1392      65436F6D 
 1392      70617265 
 1393              	.LASF0:
 1394 029c 62617369 		.ascii	"basic_speed\000"
ARM GAS  C:\Users\MANSRO~1\AppData\Local\Temp\ccdewCPz.s 			page 29


 1394      635F7370 
 1394      65656400 
 1395              	.LASF23:
 1396 02a8 72696768 		.ascii	"right_pwm\000"
 1396      745F7077 
 1396      6D00
 1397              	.LASF35:
 1398 02b2 43794465 		.ascii	"CyDelay\000"
 1398      6C617900 
 1399              		.ident	"GCC: (GNU Tools for ARM Embedded Processors) 5.4.1 20160609 (release) [ARM/embedded-5-bran
