ARM GAS  C:\Users\ARMAND~1\AppData\Local\Temp\cc9xSBEa.s 			page 1


   1              		.syntax unified
   2              		.cpu cortex-m3
   3              		.fpu softvfp
   4              		.eabi_attribute 20, 1
   5              		.eabi_attribute 21, 1
   6              		.eabi_attribute 23, 3
   7              		.eabi_attribute 24, 1
   8              		.eabi_attribute 25, 1
   9              		.eabi_attribute 26, 1
  10              		.eabi_attribute 30, 1
  11              		.eabi_attribute 34, 1
  12              		.eabi_attribute 18, 4
  13              		.thumb
  14              		.syntax unified
  15              		.file	"sensors.c"
  16              		.text
  17              	.Ltext0:
  18              		.cfi_sections	.debug_frame
  19              		.section	.text.WaitForIRStart,"ax",%progbits
  20              		.align	2
  21              		.global	WaitForIRStart
  22              		.thumb
  23              		.thumb_func
  24              		.type	WaitForIRStart, %function
  25              	WaitForIRStart:
  26              	.LFB64:
  27              		.file 1 "sensors.c"
   1:sensors.c     **** /* ========================================
   2:sensors.c     ****  *
   3:sensors.c     ****  * Copyright YOUR COMPANY, THE YEAR
   4:sensors.c     ****  * All Rights Reserved
   5:sensors.c     ****  * UNPUBLISHED, LICENSED SOFTWARE.
   6:sensors.c     ****  *
   7:sensors.c     ****  * CONFIDENTIAL AND PROPRIETARY INFORMATION
   8:sensors.c     ****  * WHICH IS THE PROPERTY OF your company.
   9:sensors.c     ****  *
  10:sensors.c     ****  * ========================================
  11:sensors.c     **** */
  12:sensors.c     **** #include "sensors.h"
  13:sensors.c     **** #include "menu.h"
  14:sensors.c     **** #include "settings.h"
  15:sensors.c     **** #include "flag_servo.h"
  16:sensors.c     **** 
  17:sensors.c     **** #define Rd_bits(value, mask)        ((value)&(mask))
  18:sensors.c     **** 
  19:sensors.c     **** #define LINE_DETECT 250
  20:sensors.c     **** 
  21:sensors.c     **** 
  22:sensors.c     **** void WaitForIRStart(void) {
  28              		.loc 1 22 0
  29              		.cfi_startproc
  30              		@ args = 0, pretend = 0, frame = 0
  31              		@ frame_needed = 0, uses_anonymous_args = 0
  32 0000 08B5     		push	{r3, lr}
  33              		.cfi_def_cfa_offset 8
  34              		.cfi_offset 3, -8
  35              		.cfi_offset 14, -4
ARM GAS  C:\Users\ARMAND~1\AppData\Local\Temp\cc9xSBEa.s 			page 2


  23:sensors.c     ****     // Safety measure to check if start is already pressed!
  24:sensors.c     ****     if (1u == IR_START_Read()) {
  36              		.loc 1 24 0
  37 0002 FFF7FEFF 		bl	IR_START_Read
  38              	.LVL0:
  39 0006 0128     		cmp	r0, #1
  40 0008 04D1     		bne	.L2
  41              	.L3:
  25:sensors.c     ****         // Error - IR button is already pressed!!!
  26:sensors.c     ****         while (1) {
  27:sensors.c     ****             showText(25, "ERROR");
  42              		.loc 1 27 0 discriminator 1
  43 000a 0E49     		ldr	r1, .L8
  44 000c 1920     		movs	r0, #25
  45 000e FFF7FEFF 		bl	showText
  46              	.LVL1:
  47 0012 FAE7     		b	.L3
  48              	.L2:
  28:sensors.c     ****         }
  29:sensors.c     ****     }
  30:sensors.c     **** 
  31:sensors.c     ****     while (0u == IR_START_Read()) {
  49              		.loc 1 31 0 discriminator 1
  50 0014 FFF7FEFF 		bl	IR_START_Read
  51              	.LVL2:
  52 0018 0028     		cmp	r0, #0
  53 001a FBD0     		beq	.L2
  32:sensors.c     ****         // wait for IR start forever
  33:sensors.c     ****     }
  34:sensors.c     ****     if (gSettings.five_seconds == 1)
  54              		.loc 1 34 0
  55 001c 0A4B     		ldr	r3, .L8+4
  56 001e 93F90030 		ldrsb	r3, [r3]
  57 0022 012B     		cmp	r3, #1
  58 0024 03D1     		bne	.L4
  35:sensors.c     ****     {
  36:sensors.c     ****         CyDelay(4950);
  59              		.loc 1 36 0
  60 0026 41F25630 		movw	r0, #4950
  61 002a FFF7FEFF 		bl	CyDelay
  62              	.LVL3:
  63              	.L4:
  37:sensors.c     ****     }
  38:sensors.c     ****     if (gSettings.flag){
  64              		.loc 1 38 0
  65 002e 064B     		ldr	r3, .L8+4
  66 0030 93F90130 		ldrsb	r3, [r3, #1]
  67 0034 13B1     		cbz	r3, .L5
  39:sensors.c     ****         rightFlagDown();
  68              		.loc 1 39 0
  69 0036 FFF7FEFF 		bl	rightFlagDown
  70              	.LVL4:
  71 003a 08BD     		pop	{r3, pc}
  72              	.L5:
  40:sensors.c     ****     }
  41:sensors.c     ****     else {
  42:sensors.c     ****         leftFlagDown();
ARM GAS  C:\Users\ARMAND~1\AppData\Local\Temp\cc9xSBEa.s 			page 3


  73              		.loc 1 42 0
  74 003c FFF7FEFF 		bl	leftFlagDown
  75              	.LVL5:
  76 0040 08BD     		pop	{r3, pc}
  77              	.L9:
  78 0042 00BF     		.align	2
  79              	.L8:
  80 0044 00000000 		.word	.LC0
  81 0048 00000000 		.word	gSettings
  82              		.cfi_endproc
  83              	.LFE64:
  84              		.size	WaitForIRStart, .-WaitForIRStart
  85              		.section	.text.DistSensRead,"ax",%progbits
  86              		.align	2
  87              		.global	DistSensRead
  88              		.thumb
  89              		.thumb_func
  90              		.type	DistSensRead, %function
  91              	DistSensRead:
  92              	.LFB65:
  43:sensors.c     ****     }
  44:sensors.c     **** }
  45:sensors.c     **** 
  46:sensors.c     **** uint8_t DistSensRead(void) {
  93              		.loc 1 46 0
  94              		.cfi_startproc
  95              		@ args = 0, pretend = 0, frame = 0
  96              		@ frame_needed = 0, uses_anonymous_args = 0
  97 0000 10B5     		push	{r4, lr}
  98              		.cfi_def_cfa_offset 8
  99              		.cfi_offset 4, -8
 100              		.cfi_offset 14, -4
 101              	.LVL6:
  47:sensors.c     **** 	uint8_t value = 0b00000000;
  48:sensors.c     **** 
  49:sensors.c     **** 	//if( 0u == IRL_L90_Read() ){
  50:sensors.c     ****     //    value |= DISTSENS_L90;
  51:sensors.c     **** 	//}
  52:sensors.c     **** 	if( 0u == IRL_L60_Read() ){
 102              		.loc 1 52 0
 103 0002 FFF7FEFF 		bl	IRL_L60_Read
 104              	.LVL7:
 105 0006 08B1     		cbz	r0, .L16
  47:sensors.c     **** 	uint8_t value = 0b00000000;
 106              		.loc 1 47 0
 107 0008 0024     		movs	r4, #0
 108 000a 00E0     		b	.L11
 109              	.L16:
  53:sensors.c     **** 		value |= DISTSENS_L60;
 110              		.loc 1 53 0
 111 000c 4024     		movs	r4, #64
 112              	.L11:
 113              	.LVL8:
  54:sensors.c     **** 	}
  55:sensors.c     **** 	if( 0u == IRL_L30_Read() ){
 114              		.loc 1 55 0
 115 000e FFF7FEFF 		bl	IRL_L30_Read
ARM GAS  C:\Users\ARMAND~1\AppData\Local\Temp\cc9xSBEa.s 			page 4


 116              	.LVL9:
 117 0012 08B9     		cbnz	r0, .L12
  56:sensors.c     **** 		value |= DISTSENS_L30;
 118              		.loc 1 56 0
 119 0014 44F02004 		orr	r4, r4, #32
 120              	.LVL10:
 121              	.L12:
  57:sensors.c     **** 	}
  58:sensors.c     **** 	if( 0u == IRL_R0_Read() ){
 122              		.loc 1 58 0
 123 0018 FFF7FEFF 		bl	IRL_R0_Read
 124              	.LVL11:
 125 001c 08B9     		cbnz	r0, .L13
  59:sensors.c     **** 		value |= DISTSENS_R00;
 126              		.loc 1 59 0
 127 001e 44F00804 		orr	r4, r4, #8
 128              	.LVL12:
 129              	.L13:
  60:sensors.c     **** 	}
  61:sensors.c     **** 	if( 0u == IRL_R30_Read() ){
 130              		.loc 1 61 0
 131 0022 FFF7FEFF 		bl	IRL_R30_Read
 132              	.LVL13:
 133 0026 08B9     		cbnz	r0, .L14
  62:sensors.c     **** 		value |= DISTSENS_R30;
 134              		.loc 1 62 0
 135 0028 44F00404 		orr	r4, r4, #4
 136              	.LVL14:
 137              	.L14:
  63:sensors.c     **** 	}
  64:sensors.c     **** 	if( 0u == IRL_R60_Read() ){
 138              		.loc 1 64 0
 139 002c FFF7FEFF 		bl	IRL_R60_Read
 140              	.LVL15:
 141 0030 08B9     		cbnz	r0, .L15
  65:sensors.c     **** 		value |= DISTSENS_R60;
 142              		.loc 1 65 0
 143 0032 44F00204 		orr	r4, r4, #2
 144              	.LVL16:
 145              	.L15:
  66:sensors.c     **** 	}
  67:sensors.c     **** 	//if( 0u == IRL_R90_Read() ){
  68:sensors.c     **** 	//	value |= DISTSENS_R90;
  69:sensors.c     **** 	//}
  70:sensors.c     **** 	return value;
  71:sensors.c     **** }
 146              		.loc 1 71 0
 147 0036 2046     		mov	r0, r4
 148 0038 10BD     		pop	{r4, pc}
 149              		.cfi_endproc
 150              	.LFE65:
 151              		.size	DistSensRead, .-DistSensRead
 152 003a 00BF     		.section	.text.ResetDistSensors,"ax",%progbits
 153              		.align	2
 154              		.global	ResetDistSensors
 155              		.thumb
 156              		.thumb_func
ARM GAS  C:\Users\ARMAND~1\AppData\Local\Temp\cc9xSBEa.s 			page 5


 157              		.type	ResetDistSensors, %function
 158              	ResetDistSensors:
 159              	.LFB66:
  72:sensors.c     **** 
  73:sensors.c     **** void ResetDistSensors(void) {
 160              		.loc 1 73 0
 161              		.cfi_startproc
 162              		@ args = 0, pretend = 0, frame = 0
 163              		@ frame_needed = 0, uses_anonymous_args = 0
 164 0000 08B5     		push	{r3, lr}
 165              		.cfi_def_cfa_offset 8
 166              		.cfi_offset 3, -8
 167              		.cfi_offset 14, -4
  74:sensors.c     ****     Sensor_Reset_Write(0xFF);  
 168              		.loc 1 74 0
 169 0002 FF20     		movs	r0, #255
 170 0004 FFF7FEFF 		bl	Sensor_Reset_Write
 171              	.LVL17:
  75:sensors.c     ****     CyDelay(1);
 172              		.loc 1 75 0
 173 0008 0120     		movs	r0, #1
 174 000a FFF7FEFF 		bl	CyDelay
 175              	.LVL18:
  76:sensors.c     ****     Sensor_Reset_Write(0);
 176              		.loc 1 76 0
 177 000e 0020     		movs	r0, #0
 178 0010 FFF7FEFF 		bl	Sensor_Reset_Write
 179              	.LVL19:
 180 0014 08BD     		pop	{r3, pc}
 181              		.cfi_endproc
 182              	.LFE66:
 183              		.size	ResetDistSensors, .-ResetDistSensors
 184 0016 00BF     		.section	.text.CalcAvrgAngle,"ax",%progbits
 185              		.align	2
 186              		.global	CalcAvrgAngle
 187              		.thumb
 188              		.thumb_func
 189              		.type	CalcAvrgAngle, %function
 190              	CalcAvrgAngle:
 191              	.LFB67:
  77:sensors.c     **** }
  78:sensors.c     **** 
  79:sensors.c     **** int8_t CalcAvrgAngle(){ 
 192              		.loc 1 79 0
 193              		.cfi_startproc
 194              		@ args = 0, pretend = 0, frame = 0
 195              		@ frame_needed = 0, uses_anonymous_args = 0
 196 0000 70B5     		push	{r4, r5, r6, lr}
 197              		.cfi_def_cfa_offset 16
 198              		.cfi_offset 4, -16
 199              		.cfi_offset 5, -12
 200              		.cfi_offset 6, -8
 201              		.cfi_offset 14, -4
  80:sensors.c     ****     uint8_t distSens = DistSensRead(); //Distance_sensor_value_Read(); //
 202              		.loc 1 80 0
 203 0002 FFF7FEFF 		bl	DistSensRead
 204              	.LVL20:
ARM GAS  C:\Users\ARMAND~1\AppData\Local\Temp\cc9xSBEa.s 			page 6


 205 0006 0646     		mov	r6, r0
 206              	.LVL21:
  81:sensors.c     ****     //Sensor_Reset_Write(0xFF);
  82:sensors.c     **** 	int16_t angle = 0;
  83:sensors.c     **** 	uint8_t see_sensor_cnt = 0;
  84:sensors.c     **** 
  85:sensors.c     **** 	if( Rd_bits(distSens, DISTSENS_L00) ){		// L01
 207              		.loc 1 85 0
 208 0008 10F0100F 		tst	r0, #16
 209 000c 02D1     		bne	.L27
  83:sensors.c     **** 
 210              		.loc 1 83 0
 211 000e 0025     		movs	r5, #0
  82:sensors.c     **** 	uint8_t see_sensor_cnt = 0;
 212              		.loc 1 82 0
 213 0010 2C46     		mov	r4, r5
 214 0012 02E0     		b	.L21
 215              	.L27:
  86:sensors.c     **** 		angle = angle - 5;
  87:sensors.c     **** 		see_sensor_cnt++;
 216              		.loc 1 87 0
 217 0014 0125     		movs	r5, #1
  86:sensors.c     **** 		angle = angle - 5;
 218              		.loc 1 86 0
 219 0016 6FF00404 		mvn	r4, #4
 220              	.L21:
 221              	.LVL22:
  88:sensors.c     **** 	}
  89:sensors.c     **** 	if( Rd_bits(distSens, DISTSENS_L30) ){		// L30
 222              		.loc 1 89 0
 223 001a 16F0200F 		tst	r6, #32
 224 001e 04D0     		beq	.L22
  90:sensors.c     **** 		angle = angle - 30;
 225              		.loc 1 90 0
 226 0020 A4F11E00 		sub	r0, r4, #30
 227              	.LVL23:
 228 0024 04B2     		sxth	r4, r0
 229              	.LVL24:
  91:sensors.c     **** 		see_sensor_cnt++;
 230              		.loc 1 91 0
 231 0026 681C     		adds	r0, r5, #1
 232 0028 C5B2     		uxtb	r5, r0
 233              	.LVL25:
 234              	.L22:
  92:sensors.c     **** 	}
  93:sensors.c     **** 	if( Rd_bits(distSens, DISTSENS_L60) ){		// L45
 235              		.loc 1 93 0
 236 002a 16F0400F 		tst	r6, #64
 237 002e 07D0     		beq	.L23
  94:sensors.c     ****         if( 0u == IRL_L60_Read() ){
 238              		.loc 1 94 0
 239 0030 FFF7FEFF 		bl	IRL_L60_Read
 240              	.LVL26:
 241 0034 20B9     		cbnz	r0, .L23
  95:sensors.c     ****     		angle = angle - 60;
 242              		.loc 1 95 0
 243 0036 A4F13C00 		sub	r0, r4, #60
ARM GAS  C:\Users\ARMAND~1\AppData\Local\Temp\cc9xSBEa.s 			page 7


 244 003a 04B2     		sxth	r4, r0
 245              	.LVL27:
  96:sensors.c     ****     		see_sensor_cnt++;
 246              		.loc 1 96 0
 247 003c 681C     		adds	r0, r5, #1
 248 003e C5B2     		uxtb	r5, r0
 249              	.LVL28:
 250              	.L23:
  97:sensors.c     ****         }
  98:sensors.c     **** 	}
  99:sensors.c     **** 	//if( Rd_bits(distSens, DISTSENS_L90) ){		// L90
 100:sensors.c     **** 	//	angle = angle - 90;
 101:sensors.c     **** 	//	see_sensor_cnt++;
 102:sensors.c     **** 	//}
 103:sensors.c     **** 	//if( Rd_bits(distSens, DISTSENS_R90) ){		// R90
 104:sensors.c     **** 	//	angle = angle + 90;
 105:sensors.c     **** 	//	see_sensor_cnt++;
 106:sensors.c     **** 	//}
 107:sensors.c     **** 	if( Rd_bits(distSens, DISTSENS_R60) ){		// R45
 251              		.loc 1 107 0
 252 0040 16F0020F 		tst	r6, #2
 253 0044 04D0     		beq	.L24
 108:sensors.c     **** 		angle = angle + 60;
 254              		.loc 1 108 0
 255 0046 04F13C00 		add	r0, r4, #60
 256 004a 04B2     		sxth	r4, r0
 257              	.LVL29:
 109:sensors.c     **** 		see_sensor_cnt++;
 258              		.loc 1 109 0
 259 004c 681C     		adds	r0, r5, #1
 260 004e C5B2     		uxtb	r5, r0
 261              	.LVL30:
 262              	.L24:
 110:sensors.c     **** 	}
 111:sensors.c     **** 	if( Rd_bits(distSens, DISTSENS_R30) ){		// R30
 263              		.loc 1 111 0
 264 0050 16F0040F 		tst	r6, #4
 265 0054 04D0     		beq	.L25
 112:sensors.c     **** 		angle = angle + 30;
 266              		.loc 1 112 0
 267 0056 04F11E00 		add	r0, r4, #30
 268 005a 04B2     		sxth	r4, r0
 269              	.LVL31:
 113:sensors.c     **** 		see_sensor_cnt++;
 270              		.loc 1 113 0
 271 005c 681C     		adds	r0, r5, #1
 272 005e C5B2     		uxtb	r5, r0
 273              	.LVL32:
 274              	.L25:
 114:sensors.c     **** 	}
 115:sensors.c     **** 	if( Rd_bits(distSens, DISTSENS_R00) ){		// R01
 275              		.loc 1 115 0
 276 0060 16F0080F 		tst	r6, #8
 277 0064 03D0     		beq	.L26
 116:sensors.c     **** 		angle = angle + 5;
 278              		.loc 1 116 0
 279 0066 601D     		adds	r0, r4, #5
ARM GAS  C:\Users\ARMAND~1\AppData\Local\Temp\cc9xSBEa.s 			page 8


 280 0068 04B2     		sxth	r4, r0
 281              	.LVL33:
 117:sensors.c     **** 		see_sensor_cnt++;
 282              		.loc 1 117 0
 283 006a 681C     		adds	r0, r5, #1
 284 006c C5B2     		uxtb	r5, r0
 285              	.LVL34:
 286              	.L26:
 118:sensors.c     **** 	}
 119:sensors.c     ****     //Sensor_Reset_Write(0);
 120:sensors.c     **** 	return (int8_t)(angle / see_sensor_cnt);
 287              		.loc 1 120 0
 288 006e 94FBF5F0 		sdiv	r0, r4, r5
 121:sensors.c     **** }
 289              		.loc 1 121 0
 290 0072 40B2     		sxtb	r0, r0
 291 0074 70BD     		pop	{r4, r5, r6, pc}
 292              		.cfi_endproc
 293              	.LFE67:
 294              		.size	CalcAvrgAngle, .-CalcAvrgAngle
 295 0076 00BF     		.section	.text.LineSensRead,"ax",%progbits
 296              		.align	2
 297              		.global	LineSensRead
 298              		.thumb
 299              		.thumb_func
 300              		.type	LineSensRead, %function
 301              	LineSensRead:
 302              	.LFB68:
 122:sensors.c     **** 
 123:sensors.c     **** uint8_t LineSensRead(void) {
 303              		.loc 1 123 0
 304              		.cfi_startproc
 305              		@ args = 0, pretend = 0, frame = 0
 306              		@ frame_needed = 0, uses_anonymous_args = 0
 307 0000 10B5     		push	{r4, lr}
 308              		.cfi_def_cfa_offset 8
 309              		.cfi_offset 4, -8
 310              		.cfi_offset 14, -4
 311              	.LVL35:
 124:sensors.c     **** 	uint8_t value = 0b00000000;
 125:sensors.c     ****     gLine.FTH_val = 150;
 312              		.loc 1 125 0
 313 0002 9622     		movs	r2, #150
 314 0004 124B     		ldr	r3, .L35
 315 0006 5A61     		str	r2, [r3, #20]
 126:sensors.c     ****     if (ADC_SAR_IsEndConversion(ADC_SAR_RETURN_STATUS) > 0)
 316              		.loc 1 126 0
 317 0008 0120     		movs	r0, #1
 318 000a FFF7FEFF 		bl	ADC_SAR_IsEndConversion
 319              	.LVL36:
 320 000e E8B1     		cbz	r0, .L32
 127:sensors.c     ****     {
 128:sensors.c     ****        
 129:sensors.c     ****         //gLine.FL1_val = ADC_SAR_GetResult16(0);
 130:sensors.c     ****         gLine.FL2_val = ADC_SAR_GetResult16(1);
 321              		.loc 1 130 0
 322 0010 0120     		movs	r0, #1
ARM GAS  C:\Users\ARMAND~1\AppData\Local\Temp\cc9xSBEa.s 			page 9


 323 0012 FFF7FEFF 		bl	ADC_SAR_GetResult16
 324              	.LVL37:
 325 0016 0E4C     		ldr	r4, .L35
 326 0018 6060     		str	r0, [r4, #4]
 131:sensors.c     ****       
 132:sensors.c     ****         //gLine.FR1_val = ADC_SAR_GetResult16(4);
 133:sensors.c     ****         gLine.FR2_val = ADC_SAR_GetResult16(3);
 327              		.loc 1 133 0
 328 001a 0320     		movs	r0, #3
 329 001c FFF7FEFF 		bl	ADC_SAR_GetResult16
 330              	.LVL38:
 331 0020 0246     		mov	r2, r0
 332 0022 E060     		str	r0, [r4, #12]
 134:sensors.c     ****     
 135:sensors.c     ****          //int16 lineBack = ADC_SAR_GetResult16(6);
 136:sensors.c     ****         
 137:sensors.c     ****         //int16 lineUP1 = ADC_SAR_GetResult16(2);
 138:sensors.c     ****         //int16 lineUP2 = ADC_SAR_GetResult16(5);
 139:sensors.c     **** 
 140:sensors.c     ****         //if (lineFL1 < LINE_DETECT) {
 141:sensors.c     ****             //value |= LINESENS_FL1;
 142:sensors.c     ****         //}
 143:sensors.c     ****         //if (lineFL2 < LINE_DETECT) {
 144:sensors.c     ****             //value |= LINESENS_FL2;
 145:sensors.c     ****         //}
 146:sensors.c     ****         //if (lineFR1 < LINE_DETECT) {
 147:sensors.c     ****             //value |= LINESENS_FR1;
 148:sensors.c     ****         //}
 149:sensors.c     ****         //if (lineFR2 < LINE_DETECT) {
 150:sensors.c     ****             //value |= LINESENS_FR2;
 151:sensors.c     ****         //}
 152:sensors.c     ****         //if (lineBack < LINE_DETECT) {
 153:sensors.c     ****         //    //value |= LINESENS_B;
 154:sensors.c     ****         
 155:sensors.c     ****         
 156:sensors.c     ****     gLine.F_LEFT = 0;
 333              		.loc 1 156 0
 334 0024 0023     		movs	r3, #0
 335 0026 A361     		str	r3, [r4, #24]
 157:sensors.c     **** 	//if(gLine.FL1_val<gLine.FTH_val){gLine.F_LEFT|=0x01; value = 1;}
 158:sensors.c     **** 	if(gLine.FL2_val<gLine.FTH_val){gLine.F_LEFT|=0x02; value = 1;}
 336              		.loc 1 158 0
 337 0028 6168     		ldr	r1, [r4, #4]
 338 002a 6369     		ldr	r3, [r4, #20]
 339 002c 9942     		cmp	r1, r3
 340 002e 03DA     		bge	.L33
 341              		.loc 1 158 0 is_stmt 0 discriminator 1
 342 0030 0220     		movs	r0, #2
 343 0032 A061     		str	r0, [r4, #24]
 344              	.LVL39:
 345 0034 0120     		movs	r0, #1
 346 0036 00E0     		b	.L31
 347              	.LVL40:
 348              	.L33:
 124:sensors.c     ****     gLine.FTH_val = 150;
 349              		.loc 1 124 0 is_stmt 1
 350 0038 0020     		movs	r0, #0
ARM GAS  C:\Users\ARMAND~1\AppData\Local\Temp\cc9xSBEa.s 			page 10


 351              	.LVL41:
 352              	.L31:
 159:sensors.c     ****     
 160:sensors.c     ****     gLine.F_RIGHT = 0;
 353              		.loc 1 160 0
 354 003a 0024     		movs	r4, #0
 355 003c 0449     		ldr	r1, .L35
 356 003e CC61     		str	r4, [r1, #28]
 161:sensors.c     **** 	//if(gLine.FR1_val<gLine.FTH_val){gLine.F_RIGHT|=0x01; value = 1;}
 162:sensors.c     **** 	if(gLine.FR2_val<gLine.FTH_val){gLine.F_RIGHT|=0x02; value = 1;}
 357              		.loc 1 162 0
 358 0040 9A42     		cmp	r2, r3
 359 0042 04DA     		bge	.L30
 360              		.loc 1 162 0 is_stmt 0 discriminator 1
 361 0044 0222     		movs	r2, #2
 362 0046 CA61     		str	r2, [r1, #28]
 363              	.LVL42:
 364 0048 0120     		movs	r0, #1
 365 004a 10BD     		pop	{r4, pc}
 366              	.LVL43:
 367              	.L32:
 124:sensors.c     ****     gLine.FTH_val = 150;
 368              		.loc 1 124 0 is_stmt 1
 369 004c 0020     		movs	r0, #0
 370              	.LVL44:
 371              	.L30:
 163:sensors.c     ****         
 164:sensors.c     ****     
 165:sensors.c     ****     //gLine.REAR = 0;
 166:sensors.c     **** 	
 167:sensors.c     ****    //     if(gLine.RL_val<gLine.RTH_val){gLine.REAR|=0x01;}
 168:sensors.c     ****    // }
 169:sensors.c     ****     }
 170:sensors.c     **** 	return value;
 171:sensors.c     **** }
 372              		.loc 1 171 0
 373 004e 10BD     		pop	{r4, pc}
 374              	.L36:
 375              		.align	2
 376              	.L35:
 377 0050 00000000 		.word	gLine
 378              		.cfi_endproc
 379              	.LFE68:
 380              		.size	LineSensRead, .-LineSensRead
 381              		.section	.text.opponentUp,"ax",%progbits
 382              		.align	2
 383              		.global	opponentUp
 384              		.thumb
 385              		.thumb_func
 386              		.type	opponentUp, %function
 387              	opponentUp:
 388              	.LFB69:
 172:sensors.c     **** 
 173:sensors.c     **** int opponentUp(void){
 389              		.loc 1 173 0
 390              		.cfi_startproc
 391              		@ args = 0, pretend = 0, frame = 0
ARM GAS  C:\Users\ARMAND~1\AppData\Local\Temp\cc9xSBEa.s 			page 11


 392              		@ frame_needed = 0, uses_anonymous_args = 0
 393 0000 10B5     		push	{r4, lr}
 394              		.cfi_def_cfa_offset 8
 395              		.cfi_offset 4, -8
 396              		.cfi_offset 14, -4
 174:sensors.c     ****     int16 up1 = ADC_SAR_GetResult16(2);
 397              		.loc 1 174 0
 398 0002 0220     		movs	r0, #2
 399 0004 FFF7FEFF 		bl	ADC_SAR_GetResult16
 400              	.LVL45:
 401 0008 0446     		mov	r4, r0
 402              	.LVL46:
 175:sensors.c     ****     int16 up2 = ADC_SAR_GetResult16(5);
 403              		.loc 1 175 0
 404 000a 0520     		movs	r0, #5
 405 000c FFF7FEFF 		bl	ADC_SAR_GetResult16
 406              	.LVL47:
 176:sensors.c     ****     if (up1 < 850) {return 1;}
 407              		.loc 1 176 0
 408 0010 40F25133 		movw	r3, #849
 409 0014 9C42     		cmp	r4, r3
 410 0016 05DD     		ble	.L39
 177:sensors.c     ****     else if (up2 > 850) {return 1;}
 411              		.loc 1 177 0
 412 0018 40F25233 		movw	r3, #850
 413 001c 9842     		cmp	r0, r3
 414 001e 03DD     		ble	.L40
 415 0020 0120     		movs	r0, #1
 416              	.LVL48:
 417 0022 10BD     		pop	{r4, pc}
 418              	.LVL49:
 419              	.L39:
 176:sensors.c     ****     if (up1 < 850) {return 1;}
 420              		.loc 1 176 0
 421 0024 0120     		movs	r0, #1
 422              	.LVL50:
 423 0026 10BD     		pop	{r4, pc}
 424              	.LVL51:
 425              	.L40:
 178:sensors.c     ****     else {return 0;}
 426              		.loc 1 178 0
 427 0028 0020     		movs	r0, #0
 428              	.LVL52:
 179:sensors.c     **** }
 429              		.loc 1 179 0
 430 002a 10BD     		pop	{r4, pc}
 431              		.cfi_endproc
 432              	.LFE69:
 433              		.size	opponentUp, .-opponentUp
 434              		.comm	gSettings,8,4
 435              		.comm	gLine,96,4
 436              		.section	.rodata.str1.4,"aMS",%progbits,1
 437              		.align	2
 438              	.LC0:
 439 0000 4552524F 		.ascii	"ERROR\000"
 439      5200
 440              		.text
ARM GAS  C:\Users\ARMAND~1\AppData\Local\Temp\cc9xSBEa.s 			page 12


 441              	.Letext0:
 442              		.file 2 "c:\\program files (x86)\\cypress\\psoc creator\\4.1\\psoc creator\\import\\gnu\\arm\\5.4.
 443              		.file 3 "c:\\program files (x86)\\cypress\\psoc creator\\4.1\\psoc creator\\import\\gnu\\arm\\5.4.
 444              		.file 4 "Generated_Source\\PSoC5/cytypes.h"
 445              		.file 5 "sensors.h"
 446              		.file 6 "settings.h"
 447              		.file 7 "Generated_Source\\PSoC5/core_cm3.h"
 448              		.file 8 "Generated_Source\\PSoC5/IR_START.h"
 449              		.file 9 "menu.h"
 450              		.file 10 "Generated_Source\\PSoC5/CyLib.h"
 451              		.file 11 "flag_servo.h"
 452              		.file 12 "Generated_Source\\PSoC5/IRL_L60.h"
 453              		.file 13 "Generated_Source\\PSoC5/IRL_L30.h"
 454              		.file 14 "Generated_Source\\PSoC5/IRL_R0.h"
 455              		.file 15 "Generated_Source\\PSoC5/IRL_R30.h"
 456              		.file 16 "Generated_Source\\PSoC5/IRL_R60.h"
 457              		.file 17 "Generated_Source\\PSoC5/Sensor_Reset.h"
 458              		.file 18 "Generated_Source\\PSoC5/ADC_SAR.h"
 459              		.section	.debug_info,"",%progbits
 460              	.Ldebug_info0:
 461 0000 D4040000 		.4byte	0x4d4
 462 0004 0400     		.2byte	0x4
 463 0006 00000000 		.4byte	.Ldebug_abbrev0
 464 000a 04       		.byte	0x4
 465 000b 01       		.uleb128 0x1
 466 000c 6C030000 		.4byte	.LASF72
 467 0010 0C       		.byte	0xc
 468 0011 58020000 		.4byte	.LASF73
 469 0015 6F020000 		.4byte	.LASF74
 470 0019 00000000 		.4byte	.Ldebug_ranges0+0
 471 001d 00000000 		.4byte	0
 472 0021 00000000 		.4byte	.Ldebug_line0
 473 0025 02       		.uleb128 0x2
 474 0026 0D020000 		.4byte	.LASF0
 475 002a 02       		.byte	0x2
 476 002b 1B       		.byte	0x1b
 477 002c 30000000 		.4byte	0x30
 478 0030 03       		.uleb128 0x3
 479 0031 01       		.byte	0x1
 480 0032 06       		.byte	0x6
 481 0033 B1010000 		.4byte	.LASF2
 482 0037 02       		.uleb128 0x2
 483 0038 34010000 		.4byte	.LASF1
 484 003c 02       		.byte	0x2
 485 003d 1D       		.byte	0x1d
 486 003e 42000000 		.4byte	0x42
 487 0042 03       		.uleb128 0x3
 488 0043 01       		.byte	0x1
 489 0044 08       		.byte	0x8
 490 0045 96010000 		.4byte	.LASF3
 491 0049 02       		.uleb128 0x2
 492 004a 00030000 		.4byte	.LASF4
 493 004e 02       		.byte	0x2
 494 004f 29       		.byte	0x29
 495 0050 54000000 		.4byte	0x54
 496 0054 03       		.uleb128 0x3
 497 0055 02       		.byte	0x2
ARM GAS  C:\Users\ARMAND~1\AppData\Local\Temp\cc9xSBEa.s 			page 13


 498 0056 05       		.byte	0x5
 499 0057 38000000 		.4byte	.LASF5
 500 005b 03       		.uleb128 0x3
 501 005c 02       		.byte	0x2
 502 005d 07       		.byte	0x7
 503 005e 3D020000 		.4byte	.LASF6
 504 0062 02       		.uleb128 0x2
 505 0063 F6020000 		.4byte	.LASF7
 506 0067 02       		.byte	0x2
 507 0068 3F       		.byte	0x3f
 508 0069 6D000000 		.4byte	0x6d
 509 006d 03       		.uleb128 0x3
 510 006e 04       		.byte	0x4
 511 006f 05       		.byte	0x5
 512 0070 24010000 		.4byte	.LASF8
 513 0074 03       		.uleb128 0x3
 514 0075 04       		.byte	0x4
 515 0076 07       		.byte	0x7
 516 0077 B4020000 		.4byte	.LASF9
 517 007b 03       		.uleb128 0x3
 518 007c 08       		.byte	0x8
 519 007d 05       		.byte	0x5
 520 007e 04010000 		.4byte	.LASF10
 521 0082 03       		.uleb128 0x3
 522 0083 08       		.byte	0x8
 523 0084 07       		.byte	0x7
 524 0085 BD010000 		.4byte	.LASF11
 525 0089 04       		.uleb128 0x4
 526 008a 04       		.byte	0x4
 527 008b 05       		.byte	0x5
 528 008c 696E7400 		.ascii	"int\000"
 529 0090 03       		.uleb128 0x3
 530 0091 04       		.byte	0x4
 531 0092 07       		.byte	0x7
 532 0093 D4010000 		.4byte	.LASF12
 533 0097 02       		.uleb128 0x2
 534 0098 24000000 		.4byte	.LASF13
 535 009c 03       		.byte	0x3
 536 009d 14       		.byte	0x14
 537 009e 25000000 		.4byte	0x25
 538 00a2 02       		.uleb128 0x2
 539 00a3 BA000000 		.4byte	.LASF14
 540 00a7 03       		.byte	0x3
 541 00a8 18       		.byte	0x18
 542 00a9 37000000 		.4byte	0x37
 543 00ad 02       		.uleb128 0x2
 544 00ae 50020000 		.4byte	.LASF15
 545 00b2 03       		.byte	0x3
 546 00b3 20       		.byte	0x20
 547 00b4 49000000 		.4byte	0x49
 548 00b8 02       		.uleb128 0x2
 549 00b9 35020000 		.4byte	.LASF16
 550 00bd 03       		.byte	0x3
 551 00be 2C       		.byte	0x2c
 552 00bf 62000000 		.4byte	0x62
 553 00c3 05       		.uleb128 0x5
 554 00c4 C2000000 		.4byte	.LASF17
ARM GAS  C:\Users\ARMAND~1\AppData\Local\Temp\cc9xSBEa.s 			page 14


 555 00c8 04       		.byte	0x4
 556 00c9 9601     		.2byte	0x196
 557 00cb 54000000 		.4byte	0x54
 558 00cf 03       		.uleb128 0x3
 559 00d0 04       		.byte	0x4
 560 00d1 04       		.byte	0x4
 561 00d2 E7000000 		.4byte	.LASF18
 562 00d6 03       		.uleb128 0x3
 563 00d7 08       		.byte	0x8
 564 00d8 04       		.byte	0x4
 565 00d9 D1020000 		.4byte	.LASF19
 566 00dd 03       		.uleb128 0x3
 567 00de 01       		.byte	0x1
 568 00df 08       		.byte	0x8
 569 00e0 23020000 		.4byte	.LASF20
 570 00e4 03       		.uleb128 0x3
 571 00e5 08       		.byte	0x8
 572 00e6 04       		.byte	0x4
 573 00e7 58000000 		.4byte	.LASF21
 574 00eb 03       		.uleb128 0x3
 575 00ec 04       		.byte	0x4
 576 00ed 07       		.byte	0x7
 577 00ee 42000000 		.4byte	.LASF22
 578 00f2 06       		.uleb128 0x6
 579 00f3 64000000 		.4byte	.LASF75
 580 00f7 01       		.byte	0x1
 581 00f8 42000000 		.4byte	0x42
 582 00fc 05       		.byte	0x5
 583 00fd 17       		.byte	0x17
 584 00fe 33010000 		.4byte	0x133
 585 0102 07       		.uleb128 0x7
 586 0103 7D000000 		.4byte	.LASF23
 587 0107 80       		.byte	0x80
 588 0108 07       		.uleb128 0x7
 589 0109 17010000 		.4byte	.LASF24
 590 010d 40       		.byte	0x40
 591 010e 07       		.uleb128 0x7
 592 010f EE010000 		.4byte	.LASF25
 593 0113 20       		.byte	0x20
 594 0114 07       		.uleb128 0x7
 595 0115 E9020000 		.4byte	.LASF26
 596 0119 10       		.byte	0x10
 597 011a 07       		.uleb128 0x7
 598 011b 00020000 		.4byte	.LASF27
 599 011f 08       		.byte	0x8
 600 0120 07       		.uleb128 0x7
 601 0121 90000000 		.4byte	.LASF28
 602 0125 04       		.byte	0x4
 603 0126 07       		.uleb128 0x7
 604 0127 62020000 		.4byte	.LASF29
 605 012b 02       		.byte	0x2
 606 012c 07       		.uleb128 0x7
 607 012d A4010000 		.4byte	.LASF30
 608 0131 01       		.byte	0x1
 609 0132 00       		.byte	0
 610 0133 08       		.uleb128 0x8
 611 0134 2C030000 		.4byte	.LASF41
ARM GAS  C:\Users\ARMAND~1\AppData\Local\Temp\cc9xSBEa.s 			page 15


 612 0138 60       		.byte	0x60
 613 0139 05       		.byte	0x5
 614 013a 2C       		.byte	0x2c
 615 013b B8010000 		.4byte	0x1b8
 616 013f 09       		.uleb128 0x9
 617 0140 02040000 		.4byte	.LASF31
 618 0144 05       		.byte	0x5
 619 0145 2D       		.byte	0x2d
 620 0146 89000000 		.4byte	0x89
 621 014a 00       		.byte	0
 622 014b 09       		.uleb128 0x9
 623 014c DF000000 		.4byte	.LASF32
 624 0150 05       		.byte	0x5
 625 0151 2E       		.byte	0x2e
 626 0152 89000000 		.4byte	0x89
 627 0156 04       		.byte	0x4
 628 0157 09       		.uleb128 0x9
 629 0158 4C030000 		.4byte	.LASF33
 630 015c 05       		.byte	0x5
 631 015d 2F       		.byte	0x2f
 632 015e 89000000 		.4byte	0x89
 633 0162 08       		.byte	0x8
 634 0163 09       		.uleb128 0x9
 635 0164 C8000000 		.4byte	.LASF34
 636 0168 05       		.byte	0x5
 637 0169 30       		.byte	0x30
 638 016a 89000000 		.4byte	0x89
 639 016e 0C       		.byte	0xc
 640 016f 09       		.uleb128 0x9
 641 0170 90010000 		.4byte	.LASF35
 642 0174 05       		.byte	0x5
 643 0175 32       		.byte	0x32
 644 0176 89000000 		.4byte	0x89
 645 017a 10       		.byte	0x10
 646 017b 09       		.uleb128 0x9
 647 017c 82010000 		.4byte	.LASF36
 648 0180 05       		.byte	0x5
 649 0181 33       		.byte	0x33
 650 0182 89000000 		.4byte	0x89
 651 0186 14       		.byte	0x14
 652 0187 09       		.uleb128 0x9
 653 0188 2D010000 		.4byte	.LASF37
 654 018c 05       		.byte	0x5
 655 018d 35       		.byte	0x35
 656 018e 89000000 		.4byte	0x89
 657 0192 18       		.byte	0x18
 658 0193 09       		.uleb128 0x9
 659 0194 0A030000 		.4byte	.LASF38
 660 0198 05       		.byte	0x5
 661 0199 36       		.byte	0x36
 662 019a 89000000 		.4byte	0x89
 663 019e 1C       		.byte	0x1c
 664 019f 09       		.uleb128 0x9
 665 01a0 FB010000 		.4byte	.LASF39
 666 01a4 05       		.byte	0x5
 667 01a5 37       		.byte	0x37
 668 01a6 89000000 		.4byte	0x89
ARM GAS  C:\Users\ARMAND~1\AppData\Local\Temp\cc9xSBEa.s 			page 16


 669 01aa 20       		.byte	0x20
 670 01ab 09       		.uleb128 0x9
 671 01ac 36030000 		.4byte	.LASF40
 672 01b0 05       		.byte	0x5
 673 01b1 39       		.byte	0x39
 674 01b2 B8010000 		.4byte	0x1b8
 675 01b6 24       		.byte	0x24
 676 01b7 00       		.byte	0
 677 01b8 0A       		.uleb128 0xa
 678 01b9 89000000 		.4byte	0x89
 679 01bd C8010000 		.4byte	0x1c8
 680 01c1 0B       		.uleb128 0xb
 681 01c2 EB000000 		.4byte	0xeb
 682 01c6 0E       		.byte	0xe
 683 01c7 00       		.byte	0
 684 01c8 08       		.uleb128 0x8
 685 01c9 ED000000 		.4byte	.LASF42
 686 01cd 08       		.byte	0x8
 687 01ce 06       		.byte	0x6
 688 01cf 18       		.byte	0x18
 689 01d0 F9010000 		.4byte	0x1f9
 690 01d4 09       		.uleb128 0x9
 691 01d5 3F030000 		.4byte	.LASF43
 692 01d9 06       		.byte	0x6
 693 01da 19       		.byte	0x19
 694 01db 97000000 		.4byte	0x97
 695 01df 00       		.byte	0
 696 01e0 09       		.uleb128 0x9
 697 01e1 12010000 		.4byte	.LASF44
 698 01e5 06       		.byte	0x6
 699 01e6 1A       		.byte	0x1a
 700 01e7 97000000 		.4byte	0x97
 701 01eb 01       		.byte	0x1
 702 01ec 09       		.uleb128 0x9
 703 01ed C6020000 		.4byte	.LASF45
 704 01f1 06       		.byte	0x6
 705 01f2 1B       		.byte	0x1b
 706 01f3 89000000 		.4byte	0x89
 707 01f7 04       		.byte	0x4
 708 01f8 00       		.byte	0
 709 01f9 0C       		.uleb128 0xc
 710 01fa AB000000 		.4byte	.LASF46
 711 01fe 01       		.byte	0x1
 712 01ff 16       		.byte	0x16
 713 0200 00000000 		.4byte	.LFB64
 714 0204 4C000000 		.4byte	.LFE64-.LFB64
 715 0208 01       		.uleb128 0x1
 716 0209 9C       		.byte	0x9c
 717 020a 64020000 		.4byte	0x264
 718 020e 0D       		.uleb128 0xd
 719 020f 06000000 		.4byte	.LVL0
 720 0213 48040000 		.4byte	0x448
 721 0217 0E       		.uleb128 0xe
 722 0218 12000000 		.4byte	.LVL1
 723 021c 53040000 		.4byte	0x453
 724 0220 33020000 		.4byte	0x233
 725 0224 0F       		.uleb128 0xf
ARM GAS  C:\Users\ARMAND~1\AppData\Local\Temp\cc9xSBEa.s 			page 17


 726 0225 01       		.uleb128 0x1
 727 0226 50       		.byte	0x50
 728 0227 01       		.uleb128 0x1
 729 0228 49       		.byte	0x49
 730 0229 0F       		.uleb128 0xf
 731 022a 01       		.uleb128 0x1
 732 022b 51       		.byte	0x51
 733 022c 05       		.uleb128 0x5
 734 022d 03       		.byte	0x3
 735 022e 00000000 		.4byte	.LC0
 736 0232 00       		.byte	0
 737 0233 0D       		.uleb128 0xd
 738 0234 18000000 		.4byte	.LVL2
 739 0238 48040000 		.4byte	0x448
 740 023c 0E       		.uleb128 0xe
 741 023d 2E000000 		.4byte	.LVL3
 742 0241 5E040000 		.4byte	0x45e
 743 0245 51020000 		.4byte	0x251
 744 0249 0F       		.uleb128 0xf
 745 024a 01       		.uleb128 0x1
 746 024b 50       		.byte	0x50
 747 024c 03       		.uleb128 0x3
 748 024d 0A       		.byte	0xa
 749 024e 5613     		.2byte	0x1356
 750 0250 00       		.byte	0
 751 0251 0D       		.uleb128 0xd
 752 0252 3A000000 		.4byte	.LVL4
 753 0256 69040000 		.4byte	0x469
 754 025a 0D       		.uleb128 0xd
 755 025b 40000000 		.4byte	.LVL5
 756 025f 74040000 		.4byte	0x474
 757 0263 00       		.byte	0
 758 0264 10       		.uleb128 0x10
 759 0265 2B000000 		.4byte	.LASF53
 760 0269 01       		.byte	0x1
 761 026a 2E       		.byte	0x2e
 762 026b A2000000 		.4byte	0xa2
 763 026f 00000000 		.4byte	.LFB65
 764 0273 3A000000 		.4byte	.LFE65-.LFB65
 765 0277 01       		.uleb128 0x1
 766 0278 9C       		.byte	0x9c
 767 0279 BA020000 		.4byte	0x2ba
 768 027d 11       		.uleb128 0x11
 769 027e 8A000000 		.4byte	.LASF49
 770 0282 01       		.byte	0x1
 771 0283 2F       		.byte	0x2f
 772 0284 A2000000 		.4byte	0xa2
 773 0288 00000000 		.4byte	.LLST0
 774 028c 0D       		.uleb128 0xd
 775 028d 06000000 		.4byte	.LVL7
 776 0291 7F040000 		.4byte	0x47f
 777 0295 0D       		.uleb128 0xd
 778 0296 12000000 		.4byte	.LVL9
 779 029a 8A040000 		.4byte	0x48a
 780 029e 0D       		.uleb128 0xd
 781 029f 1C000000 		.4byte	.LVL11
 782 02a3 95040000 		.4byte	0x495
ARM GAS  C:\Users\ARMAND~1\AppData\Local\Temp\cc9xSBEa.s 			page 18


 783 02a7 0D       		.uleb128 0xd
 784 02a8 26000000 		.4byte	.LVL13
 785 02ac A0040000 		.4byte	0x4a0
 786 02b0 0D       		.uleb128 0xd
 787 02b1 30000000 		.4byte	.LVL15
 788 02b5 AB040000 		.4byte	0x4ab
 789 02b9 00       		.byte	0
 790 02ba 0C       		.uleb128 0xc
 791 02bb D8020000 		.4byte	.LASF47
 792 02bf 01       		.byte	0x1
 793 02c0 49       		.byte	0x49
 794 02c1 00000000 		.4byte	.LFB66
 795 02c5 16000000 		.4byte	.LFE66-.LFB66
 796 02c9 01       		.uleb128 0x1
 797 02ca 9C       		.byte	0x9c
 798 02cb 06030000 		.4byte	0x306
 799 02cf 0E       		.uleb128 0xe
 800 02d0 08000000 		.4byte	.LVL17
 801 02d4 B6040000 		.4byte	0x4b6
 802 02d8 E3020000 		.4byte	0x2e3
 803 02dc 0F       		.uleb128 0xf
 804 02dd 01       		.uleb128 0x1
 805 02de 50       		.byte	0x50
 806 02df 02       		.uleb128 0x2
 807 02e0 09       		.byte	0x9
 808 02e1 FF       		.byte	0xff
 809 02e2 00       		.byte	0
 810 02e3 0E       		.uleb128 0xe
 811 02e4 0E000000 		.4byte	.LVL18
 812 02e8 5E040000 		.4byte	0x45e
 813 02ec F6020000 		.4byte	0x2f6
 814 02f0 0F       		.uleb128 0xf
 815 02f1 01       		.uleb128 0x1
 816 02f2 50       		.byte	0x50
 817 02f3 01       		.uleb128 0x1
 818 02f4 31       		.byte	0x31
 819 02f5 00       		.byte	0
 820 02f6 12       		.uleb128 0x12
 821 02f7 14000000 		.4byte	.LVL19
 822 02fb B6040000 		.4byte	0x4b6
 823 02ff 0F       		.uleb128 0xf
 824 0300 01       		.uleb128 0x1
 825 0301 50       		.byte	0x50
 826 0302 01       		.uleb128 0x1
 827 0303 30       		.byte	0x30
 828 0304 00       		.byte	0
 829 0305 00       		.byte	0
 830 0306 13       		.uleb128 0x13
 831 0307 F6000000 		.4byte	.LASF48
 832 030b 01       		.byte	0x1
 833 030c 4F       		.byte	0x4f
 834 030d 97000000 		.4byte	0x97
 835 0311 00000000 		.4byte	.LFB67
 836 0315 76000000 		.4byte	.LFE67-.LFB67
 837 0319 01       		.uleb128 0x1
 838 031a 9C       		.byte	0x9c
 839 031b 5F030000 		.4byte	0x35f
ARM GAS  C:\Users\ARMAND~1\AppData\Local\Temp\cc9xSBEa.s 			page 19


 840 031f 11       		.uleb128 0x11
 841 0320 1B000000 		.4byte	.LASF50
 842 0324 01       		.byte	0x1
 843 0325 50       		.byte	0x50
 844 0326 A2000000 		.4byte	0xa2
 845 032a 1F000000 		.4byte	.LLST1
 846 032e 11       		.uleb128 0x11
 847 032f 26030000 		.4byte	.LASF51
 848 0333 01       		.byte	0x1
 849 0334 52       		.byte	0x52
 850 0335 AD000000 		.4byte	0xad
 851 0339 32000000 		.4byte	.LLST2
 852 033d 11       		.uleb128 0x11
 853 033e D0000000 		.4byte	.LASF52
 854 0342 01       		.byte	0x1
 855 0343 53       		.byte	0x53
 856 0344 A2000000 		.4byte	0xa2
 857 0348 51000000 		.4byte	.LLST3
 858 034c 0D       		.uleb128 0xd
 859 034d 06000000 		.4byte	.LVL20
 860 0351 64020000 		.4byte	0x264
 861 0355 0D       		.uleb128 0xd
 862 0356 34000000 		.4byte	.LVL26
 863 035a 7F040000 		.4byte	0x47f
 864 035e 00       		.byte	0
 865 035f 10       		.uleb128 0x10
 866 0360 4B000000 		.4byte	.LASF54
 867 0364 01       		.byte	0x1
 868 0365 7B       		.byte	0x7b
 869 0366 A2000000 		.4byte	0xa2
 870 036a 00000000 		.4byte	.LFB68
 871 036e 54000000 		.4byte	.LFE68-.LFB68
 872 0372 01       		.uleb128 0x1
 873 0373 9C       		.byte	0x9c
 874 0374 BD030000 		.4byte	0x3bd
 875 0378 11       		.uleb128 0x11
 876 0379 8A000000 		.4byte	.LASF49
 877 037d 01       		.byte	0x1
 878 037e 7C       		.byte	0x7c
 879 037f A2000000 		.4byte	0xa2
 880 0383 70000000 		.4byte	.LLST4
 881 0387 0E       		.uleb128 0xe
 882 0388 0E000000 		.4byte	.LVL36
 883 038c C1040000 		.4byte	0x4c1
 884 0390 9A030000 		.4byte	0x39a
 885 0394 0F       		.uleb128 0xf
 886 0395 01       		.uleb128 0x1
 887 0396 50       		.byte	0x50
 888 0397 01       		.uleb128 0x1
 889 0398 31       		.byte	0x31
 890 0399 00       		.byte	0
 891 039a 0E       		.uleb128 0xe
 892 039b 16000000 		.4byte	.LVL37
 893 039f CC040000 		.4byte	0x4cc
 894 03a3 AD030000 		.4byte	0x3ad
 895 03a7 0F       		.uleb128 0xf
 896 03a8 01       		.uleb128 0x1
ARM GAS  C:\Users\ARMAND~1\AppData\Local\Temp\cc9xSBEa.s 			page 20


 897 03a9 50       		.byte	0x50
 898 03aa 01       		.uleb128 0x1
 899 03ab 31       		.byte	0x31
 900 03ac 00       		.byte	0
 901 03ad 12       		.uleb128 0x12
 902 03ae 20000000 		.4byte	.LVL38
 903 03b2 CC040000 		.4byte	0x4cc
 904 03b6 0F       		.uleb128 0xf
 905 03b7 01       		.uleb128 0x1
 906 03b8 50       		.byte	0x50
 907 03b9 01       		.uleb128 0x1
 908 03ba 33       		.byte	0x33
 909 03bb 00       		.byte	0
 910 03bc 00       		.byte	0
 911 03bd 10       		.uleb128 0x10
 912 03be 4A010000 		.4byte	.LASF55
 913 03c2 01       		.byte	0x1
 914 03c3 AD       		.byte	0xad
 915 03c4 89000000 		.4byte	0x89
 916 03c8 00000000 		.4byte	.LFB69
 917 03cc 2C000000 		.4byte	.LFE69-.LFB69
 918 03d0 01       		.uleb128 0x1
 919 03d1 9C       		.byte	0x9c
 920 03d2 15040000 		.4byte	0x415
 921 03d6 14       		.uleb128 0x14
 922 03d7 75703100 		.ascii	"up1\000"
 923 03db 01       		.byte	0x1
 924 03dc AE       		.byte	0xae
 925 03dd C3000000 		.4byte	0xc3
 926 03e1 01       		.uleb128 0x1
 927 03e2 54       		.byte	0x54
 928 03e3 15       		.uleb128 0x15
 929 03e4 75703200 		.ascii	"up2\000"
 930 03e8 01       		.byte	0x1
 931 03e9 AF       		.byte	0xaf
 932 03ea C3000000 		.4byte	0xc3
 933 03ee CA000000 		.4byte	.LLST5
 934 03f2 0E       		.uleb128 0xe
 935 03f3 08000000 		.4byte	.LVL45
 936 03f7 CC040000 		.4byte	0x4cc
 937 03fb 05040000 		.4byte	0x405
 938 03ff 0F       		.uleb128 0xf
 939 0400 01       		.uleb128 0x1
 940 0401 50       		.byte	0x50
 941 0402 01       		.uleb128 0x1
 942 0403 32       		.byte	0x32
 943 0404 00       		.byte	0
 944 0405 12       		.uleb128 0x12
 945 0406 10000000 		.4byte	.LVL47
 946 040a CC040000 		.4byte	0x4cc
 947 040e 0F       		.uleb128 0xf
 948 040f 01       		.uleb128 0x1
 949 0410 50       		.byte	0x50
 950 0411 01       		.uleb128 0x1
 951 0412 35       		.byte	0x35
 952 0413 00       		.byte	0
 953 0414 00       		.byte	0
ARM GAS  C:\Users\ARMAND~1\AppData\Local\Temp\cc9xSBEa.s 			page 21


 954 0415 16       		.uleb128 0x16
 955 0416 28020000 		.4byte	.LASF56
 956 041a 07       		.byte	0x7
 957 041b 1207     		.2byte	0x712
 958 041d 21040000 		.4byte	0x421
 959 0421 17       		.uleb128 0x17
 960 0422 B8000000 		.4byte	0xb8
 961 0426 18       		.uleb128 0x18
 962 0427 8A010000 		.4byte	.LASF57
 963 042b 05       		.byte	0x5
 964 042c 3B       		.byte	0x3b
 965 042d 33010000 		.4byte	0x133
 966 0431 05       		.uleb128 0x5
 967 0432 03       		.byte	0x3
 968 0433 00000000 		.4byte	gLine
 969 0437 18       		.uleb128 0x18
 970 0438 0A040000 		.4byte	.LASF58
 971 043c 06       		.byte	0x6
 972 043d 1D       		.byte	0x1d
 973 043e C8010000 		.4byte	0x1c8
 974 0442 05       		.uleb128 0x5
 975 0443 03       		.byte	0x3
 976 0444 00000000 		.4byte	gSettings
 977 0448 19       		.uleb128 0x19
 978 0449 0D000000 		.4byte	.LASF59
 979 044d 0D000000 		.4byte	.LASF59
 980 0451 08       		.byte	0x8
 981 0452 29       		.byte	0x29
 982 0453 19       		.uleb128 0x19
 983 0454 74000000 		.4byte	.LASF60
 984 0458 74000000 		.4byte	.LASF60
 985 045c 09       		.byte	0x9
 986 045d 2C       		.byte	0x2c
 987 045e 19       		.uleb128 0x19
 988 045f FA030000 		.4byte	.LASF61
 989 0463 FA030000 		.4byte	.LASF61
 990 0467 0A       		.byte	0xa
 991 0468 76       		.byte	0x76
 992 0469 19       		.uleb128 0x19
 993 046a 9D000000 		.4byte	.LASF62
 994 046e 9D000000 		.4byte	.LASF62
 995 0472 0B       		.byte	0xb
 996 0473 15       		.byte	0x15
 997 0474 19       		.uleb128 0x19
 998 0475 62010000 		.4byte	.LASF63
 999 0479 62010000 		.4byte	.LASF63
 1000 047d 0B       		.byte	0xb
 1001 047e 17       		.byte	0x17
 1002 047f 19       		.uleb128 0x19
 1003 0480 E1010000 		.4byte	.LASF64
 1004 0484 E1010000 		.4byte	.LASF64
 1005 0488 0C       		.byte	0xc
 1006 0489 29       		.byte	0x29
 1007 048a 19       		.uleb128 0x19
 1008 048b 55010000 		.4byte	.LASF65
 1009 048f 55010000 		.4byte	.LASF65
 1010 0493 0D       		.byte	0xd
ARM GAS  C:\Users\ARMAND~1\AppData\Local\Temp\cc9xSBEa.s 			page 22


 1011 0494 29       		.byte	0x29
 1012 0495 19       		.uleb128 0x19
 1013 0496 3E010000 		.4byte	.LASF66
 1014 049a 3E010000 		.4byte	.LASF66
 1015 049e 0E       		.byte	0xe
 1016 049f 29       		.byte	0x29
 1017 04a0 19       		.uleb128 0x19
 1018 04a1 00000000 		.4byte	.LASF67
 1019 04a5 00000000 		.4byte	.LASF67
 1020 04a9 0F       		.byte	0xf
 1021 04aa 29       		.byte	0x29
 1022 04ab 19       		.uleb128 0x19
 1023 04ac 16020000 		.4byte	.LASF68
 1024 04b0 16020000 		.4byte	.LASF68
 1025 04b4 10       		.byte	0x10
 1026 04b5 29       		.byte	0x29
 1027 04b6 19       		.uleb128 0x19
 1028 04b7 6F010000 		.4byte	.LASF69
 1029 04bb 6F010000 		.4byte	.LASF69
 1030 04bf 11       		.byte	0x11
 1031 04c0 2F       		.byte	0x2f
 1032 04c1 19       		.uleb128 0x19
 1033 04c2 54030000 		.4byte	.LASF70
 1034 04c6 54030000 		.4byte	.LASF70
 1035 04ca 12       		.byte	0x12
 1036 04cb 34       		.byte	0x34
 1037 04cc 19       		.uleb128 0x19
 1038 04cd 12030000 		.4byte	.LASF71
 1039 04d1 12030000 		.4byte	.LASF71
 1040 04d5 12       		.byte	0x12
 1041 04d6 35       		.byte	0x35
 1042 04d7 00       		.byte	0
 1043              		.section	.debug_abbrev,"",%progbits
 1044              	.Ldebug_abbrev0:
 1045 0000 01       		.uleb128 0x1
 1046 0001 11       		.uleb128 0x11
 1047 0002 01       		.byte	0x1
 1048 0003 25       		.uleb128 0x25
 1049 0004 0E       		.uleb128 0xe
 1050 0005 13       		.uleb128 0x13
 1051 0006 0B       		.uleb128 0xb
 1052 0007 03       		.uleb128 0x3
 1053 0008 0E       		.uleb128 0xe
 1054 0009 1B       		.uleb128 0x1b
 1055 000a 0E       		.uleb128 0xe
 1056 000b 55       		.uleb128 0x55
 1057 000c 17       		.uleb128 0x17
 1058 000d 11       		.uleb128 0x11
 1059 000e 01       		.uleb128 0x1
 1060 000f 10       		.uleb128 0x10
 1061 0010 17       		.uleb128 0x17
 1062 0011 00       		.byte	0
 1063 0012 00       		.byte	0
 1064 0013 02       		.uleb128 0x2
 1065 0014 16       		.uleb128 0x16
 1066 0015 00       		.byte	0
 1067 0016 03       		.uleb128 0x3
ARM GAS  C:\Users\ARMAND~1\AppData\Local\Temp\cc9xSBEa.s 			page 23


 1068 0017 0E       		.uleb128 0xe
 1069 0018 3A       		.uleb128 0x3a
 1070 0019 0B       		.uleb128 0xb
 1071 001a 3B       		.uleb128 0x3b
 1072 001b 0B       		.uleb128 0xb
 1073 001c 49       		.uleb128 0x49
 1074 001d 13       		.uleb128 0x13
 1075 001e 00       		.byte	0
 1076 001f 00       		.byte	0
 1077 0020 03       		.uleb128 0x3
 1078 0021 24       		.uleb128 0x24
 1079 0022 00       		.byte	0
 1080 0023 0B       		.uleb128 0xb
 1081 0024 0B       		.uleb128 0xb
 1082 0025 3E       		.uleb128 0x3e
 1083 0026 0B       		.uleb128 0xb
 1084 0027 03       		.uleb128 0x3
 1085 0028 0E       		.uleb128 0xe
 1086 0029 00       		.byte	0
 1087 002a 00       		.byte	0
 1088 002b 04       		.uleb128 0x4
 1089 002c 24       		.uleb128 0x24
 1090 002d 00       		.byte	0
 1091 002e 0B       		.uleb128 0xb
 1092 002f 0B       		.uleb128 0xb
 1093 0030 3E       		.uleb128 0x3e
 1094 0031 0B       		.uleb128 0xb
 1095 0032 03       		.uleb128 0x3
 1096 0033 08       		.uleb128 0x8
 1097 0034 00       		.byte	0
 1098 0035 00       		.byte	0
 1099 0036 05       		.uleb128 0x5
 1100 0037 16       		.uleb128 0x16
 1101 0038 00       		.byte	0
 1102 0039 03       		.uleb128 0x3
 1103 003a 0E       		.uleb128 0xe
 1104 003b 3A       		.uleb128 0x3a
 1105 003c 0B       		.uleb128 0xb
 1106 003d 3B       		.uleb128 0x3b
 1107 003e 05       		.uleb128 0x5
 1108 003f 49       		.uleb128 0x49
 1109 0040 13       		.uleb128 0x13
 1110 0041 00       		.byte	0
 1111 0042 00       		.byte	0
 1112 0043 06       		.uleb128 0x6
 1113 0044 04       		.uleb128 0x4
 1114 0045 01       		.byte	0x1
 1115 0046 03       		.uleb128 0x3
 1116 0047 0E       		.uleb128 0xe
 1117 0048 0B       		.uleb128 0xb
 1118 0049 0B       		.uleb128 0xb
 1119 004a 49       		.uleb128 0x49
 1120 004b 13       		.uleb128 0x13
 1121 004c 3A       		.uleb128 0x3a
 1122 004d 0B       		.uleb128 0xb
 1123 004e 3B       		.uleb128 0x3b
 1124 004f 0B       		.uleb128 0xb
ARM GAS  C:\Users\ARMAND~1\AppData\Local\Temp\cc9xSBEa.s 			page 24


 1125 0050 01       		.uleb128 0x1
 1126 0051 13       		.uleb128 0x13
 1127 0052 00       		.byte	0
 1128 0053 00       		.byte	0
 1129 0054 07       		.uleb128 0x7
 1130 0055 28       		.uleb128 0x28
 1131 0056 00       		.byte	0
 1132 0057 03       		.uleb128 0x3
 1133 0058 0E       		.uleb128 0xe
 1134 0059 1C       		.uleb128 0x1c
 1135 005a 0B       		.uleb128 0xb
 1136 005b 00       		.byte	0
 1137 005c 00       		.byte	0
 1138 005d 08       		.uleb128 0x8
 1139 005e 13       		.uleb128 0x13
 1140 005f 01       		.byte	0x1
 1141 0060 03       		.uleb128 0x3
 1142 0061 0E       		.uleb128 0xe
 1143 0062 0B       		.uleb128 0xb
 1144 0063 0B       		.uleb128 0xb
 1145 0064 3A       		.uleb128 0x3a
 1146 0065 0B       		.uleb128 0xb
 1147 0066 3B       		.uleb128 0x3b
 1148 0067 0B       		.uleb128 0xb
 1149 0068 01       		.uleb128 0x1
 1150 0069 13       		.uleb128 0x13
 1151 006a 00       		.byte	0
 1152 006b 00       		.byte	0
 1153 006c 09       		.uleb128 0x9
 1154 006d 0D       		.uleb128 0xd
 1155 006e 00       		.byte	0
 1156 006f 03       		.uleb128 0x3
 1157 0070 0E       		.uleb128 0xe
 1158 0071 3A       		.uleb128 0x3a
 1159 0072 0B       		.uleb128 0xb
 1160 0073 3B       		.uleb128 0x3b
 1161 0074 0B       		.uleb128 0xb
 1162 0075 49       		.uleb128 0x49
 1163 0076 13       		.uleb128 0x13
 1164 0077 38       		.uleb128 0x38
 1165 0078 0B       		.uleb128 0xb
 1166 0079 00       		.byte	0
 1167 007a 00       		.byte	0
 1168 007b 0A       		.uleb128 0xa
 1169 007c 01       		.uleb128 0x1
 1170 007d 01       		.byte	0x1
 1171 007e 49       		.uleb128 0x49
 1172 007f 13       		.uleb128 0x13
 1173 0080 01       		.uleb128 0x1
 1174 0081 13       		.uleb128 0x13
 1175 0082 00       		.byte	0
 1176 0083 00       		.byte	0
 1177 0084 0B       		.uleb128 0xb
 1178 0085 21       		.uleb128 0x21
 1179 0086 00       		.byte	0
 1180 0087 49       		.uleb128 0x49
 1181 0088 13       		.uleb128 0x13
ARM GAS  C:\Users\ARMAND~1\AppData\Local\Temp\cc9xSBEa.s 			page 25


 1182 0089 2F       		.uleb128 0x2f
 1183 008a 0B       		.uleb128 0xb
 1184 008b 00       		.byte	0
 1185 008c 00       		.byte	0
 1186 008d 0C       		.uleb128 0xc
 1187 008e 2E       		.uleb128 0x2e
 1188 008f 01       		.byte	0x1
 1189 0090 3F       		.uleb128 0x3f
 1190 0091 19       		.uleb128 0x19
 1191 0092 03       		.uleb128 0x3
 1192 0093 0E       		.uleb128 0xe
 1193 0094 3A       		.uleb128 0x3a
 1194 0095 0B       		.uleb128 0xb
 1195 0096 3B       		.uleb128 0x3b
 1196 0097 0B       		.uleb128 0xb
 1197 0098 27       		.uleb128 0x27
 1198 0099 19       		.uleb128 0x19
 1199 009a 11       		.uleb128 0x11
 1200 009b 01       		.uleb128 0x1
 1201 009c 12       		.uleb128 0x12
 1202 009d 06       		.uleb128 0x6
 1203 009e 40       		.uleb128 0x40
 1204 009f 18       		.uleb128 0x18
 1205 00a0 9742     		.uleb128 0x2117
 1206 00a2 19       		.uleb128 0x19
 1207 00a3 01       		.uleb128 0x1
 1208 00a4 13       		.uleb128 0x13
 1209 00a5 00       		.byte	0
 1210 00a6 00       		.byte	0
 1211 00a7 0D       		.uleb128 0xd
 1212 00a8 898201   		.uleb128 0x4109
 1213 00ab 00       		.byte	0
 1214 00ac 11       		.uleb128 0x11
 1215 00ad 01       		.uleb128 0x1
 1216 00ae 31       		.uleb128 0x31
 1217 00af 13       		.uleb128 0x13
 1218 00b0 00       		.byte	0
 1219 00b1 00       		.byte	0
 1220 00b2 0E       		.uleb128 0xe
 1221 00b3 898201   		.uleb128 0x4109
 1222 00b6 01       		.byte	0x1
 1223 00b7 11       		.uleb128 0x11
 1224 00b8 01       		.uleb128 0x1
 1225 00b9 31       		.uleb128 0x31
 1226 00ba 13       		.uleb128 0x13
 1227 00bb 01       		.uleb128 0x1
 1228 00bc 13       		.uleb128 0x13
 1229 00bd 00       		.byte	0
 1230 00be 00       		.byte	0
 1231 00bf 0F       		.uleb128 0xf
 1232 00c0 8A8201   		.uleb128 0x410a
 1233 00c3 00       		.byte	0
 1234 00c4 02       		.uleb128 0x2
 1235 00c5 18       		.uleb128 0x18
 1236 00c6 9142     		.uleb128 0x2111
 1237 00c8 18       		.uleb128 0x18
 1238 00c9 00       		.byte	0
ARM GAS  C:\Users\ARMAND~1\AppData\Local\Temp\cc9xSBEa.s 			page 26


 1239 00ca 00       		.byte	0
 1240 00cb 10       		.uleb128 0x10
 1241 00cc 2E       		.uleb128 0x2e
 1242 00cd 01       		.byte	0x1
 1243 00ce 3F       		.uleb128 0x3f
 1244 00cf 19       		.uleb128 0x19
 1245 00d0 03       		.uleb128 0x3
 1246 00d1 0E       		.uleb128 0xe
 1247 00d2 3A       		.uleb128 0x3a
 1248 00d3 0B       		.uleb128 0xb
 1249 00d4 3B       		.uleb128 0x3b
 1250 00d5 0B       		.uleb128 0xb
 1251 00d6 27       		.uleb128 0x27
 1252 00d7 19       		.uleb128 0x19
 1253 00d8 49       		.uleb128 0x49
 1254 00d9 13       		.uleb128 0x13
 1255 00da 11       		.uleb128 0x11
 1256 00db 01       		.uleb128 0x1
 1257 00dc 12       		.uleb128 0x12
 1258 00dd 06       		.uleb128 0x6
 1259 00de 40       		.uleb128 0x40
 1260 00df 18       		.uleb128 0x18
 1261 00e0 9742     		.uleb128 0x2117
 1262 00e2 19       		.uleb128 0x19
 1263 00e3 01       		.uleb128 0x1
 1264 00e4 13       		.uleb128 0x13
 1265 00e5 00       		.byte	0
 1266 00e6 00       		.byte	0
 1267 00e7 11       		.uleb128 0x11
 1268 00e8 34       		.uleb128 0x34
 1269 00e9 00       		.byte	0
 1270 00ea 03       		.uleb128 0x3
 1271 00eb 0E       		.uleb128 0xe
 1272 00ec 3A       		.uleb128 0x3a
 1273 00ed 0B       		.uleb128 0xb
 1274 00ee 3B       		.uleb128 0x3b
 1275 00ef 0B       		.uleb128 0xb
 1276 00f0 49       		.uleb128 0x49
 1277 00f1 13       		.uleb128 0x13
 1278 00f2 02       		.uleb128 0x2
 1279 00f3 17       		.uleb128 0x17
 1280 00f4 00       		.byte	0
 1281 00f5 00       		.byte	0
 1282 00f6 12       		.uleb128 0x12
 1283 00f7 898201   		.uleb128 0x4109
 1284 00fa 01       		.byte	0x1
 1285 00fb 11       		.uleb128 0x11
 1286 00fc 01       		.uleb128 0x1
 1287 00fd 31       		.uleb128 0x31
 1288 00fe 13       		.uleb128 0x13
 1289 00ff 00       		.byte	0
 1290 0100 00       		.byte	0
 1291 0101 13       		.uleb128 0x13
 1292 0102 2E       		.uleb128 0x2e
 1293 0103 01       		.byte	0x1
 1294 0104 3F       		.uleb128 0x3f
 1295 0105 19       		.uleb128 0x19
ARM GAS  C:\Users\ARMAND~1\AppData\Local\Temp\cc9xSBEa.s 			page 27


 1296 0106 03       		.uleb128 0x3
 1297 0107 0E       		.uleb128 0xe
 1298 0108 3A       		.uleb128 0x3a
 1299 0109 0B       		.uleb128 0xb
 1300 010a 3B       		.uleb128 0x3b
 1301 010b 0B       		.uleb128 0xb
 1302 010c 49       		.uleb128 0x49
 1303 010d 13       		.uleb128 0x13
 1304 010e 11       		.uleb128 0x11
 1305 010f 01       		.uleb128 0x1
 1306 0110 12       		.uleb128 0x12
 1307 0111 06       		.uleb128 0x6
 1308 0112 40       		.uleb128 0x40
 1309 0113 18       		.uleb128 0x18
 1310 0114 9742     		.uleb128 0x2117
 1311 0116 19       		.uleb128 0x19
 1312 0117 01       		.uleb128 0x1
 1313 0118 13       		.uleb128 0x13
 1314 0119 00       		.byte	0
 1315 011a 00       		.byte	0
 1316 011b 14       		.uleb128 0x14
 1317 011c 34       		.uleb128 0x34
 1318 011d 00       		.byte	0
 1319 011e 03       		.uleb128 0x3
 1320 011f 08       		.uleb128 0x8
 1321 0120 3A       		.uleb128 0x3a
 1322 0121 0B       		.uleb128 0xb
 1323 0122 3B       		.uleb128 0x3b
 1324 0123 0B       		.uleb128 0xb
 1325 0124 49       		.uleb128 0x49
 1326 0125 13       		.uleb128 0x13
 1327 0126 02       		.uleb128 0x2
 1328 0127 18       		.uleb128 0x18
 1329 0128 00       		.byte	0
 1330 0129 00       		.byte	0
 1331 012a 15       		.uleb128 0x15
 1332 012b 34       		.uleb128 0x34
 1333 012c 00       		.byte	0
 1334 012d 03       		.uleb128 0x3
 1335 012e 08       		.uleb128 0x8
 1336 012f 3A       		.uleb128 0x3a
 1337 0130 0B       		.uleb128 0xb
 1338 0131 3B       		.uleb128 0x3b
 1339 0132 0B       		.uleb128 0xb
 1340 0133 49       		.uleb128 0x49
 1341 0134 13       		.uleb128 0x13
 1342 0135 02       		.uleb128 0x2
 1343 0136 17       		.uleb128 0x17
 1344 0137 00       		.byte	0
 1345 0138 00       		.byte	0
 1346 0139 16       		.uleb128 0x16
 1347 013a 34       		.uleb128 0x34
 1348 013b 00       		.byte	0
 1349 013c 03       		.uleb128 0x3
 1350 013d 0E       		.uleb128 0xe
 1351 013e 3A       		.uleb128 0x3a
 1352 013f 0B       		.uleb128 0xb
ARM GAS  C:\Users\ARMAND~1\AppData\Local\Temp\cc9xSBEa.s 			page 28


 1353 0140 3B       		.uleb128 0x3b
 1354 0141 05       		.uleb128 0x5
 1355 0142 49       		.uleb128 0x49
 1356 0143 13       		.uleb128 0x13
 1357 0144 3F       		.uleb128 0x3f
 1358 0145 19       		.uleb128 0x19
 1359 0146 3C       		.uleb128 0x3c
 1360 0147 19       		.uleb128 0x19
 1361 0148 00       		.byte	0
 1362 0149 00       		.byte	0
 1363 014a 17       		.uleb128 0x17
 1364 014b 35       		.uleb128 0x35
 1365 014c 00       		.byte	0
 1366 014d 49       		.uleb128 0x49
 1367 014e 13       		.uleb128 0x13
 1368 014f 00       		.byte	0
 1369 0150 00       		.byte	0
 1370 0151 18       		.uleb128 0x18
 1371 0152 34       		.uleb128 0x34
 1372 0153 00       		.byte	0
 1373 0154 03       		.uleb128 0x3
 1374 0155 0E       		.uleb128 0xe
 1375 0156 3A       		.uleb128 0x3a
 1376 0157 0B       		.uleb128 0xb
 1377 0158 3B       		.uleb128 0x3b
 1378 0159 0B       		.uleb128 0xb
 1379 015a 49       		.uleb128 0x49
 1380 015b 13       		.uleb128 0x13
 1381 015c 3F       		.uleb128 0x3f
 1382 015d 19       		.uleb128 0x19
 1383 015e 02       		.uleb128 0x2
 1384 015f 18       		.uleb128 0x18
 1385 0160 00       		.byte	0
 1386 0161 00       		.byte	0
 1387 0162 19       		.uleb128 0x19
 1388 0163 2E       		.uleb128 0x2e
 1389 0164 00       		.byte	0
 1390 0165 3F       		.uleb128 0x3f
 1391 0166 19       		.uleb128 0x19
 1392 0167 3C       		.uleb128 0x3c
 1393 0168 19       		.uleb128 0x19
 1394 0169 6E       		.uleb128 0x6e
 1395 016a 0E       		.uleb128 0xe
 1396 016b 03       		.uleb128 0x3
 1397 016c 0E       		.uleb128 0xe
 1398 016d 3A       		.uleb128 0x3a
 1399 016e 0B       		.uleb128 0xb
 1400 016f 3B       		.uleb128 0x3b
 1401 0170 0B       		.uleb128 0xb
 1402 0171 00       		.byte	0
 1403 0172 00       		.byte	0
 1404 0173 00       		.byte	0
 1405              		.section	.debug_loc,"",%progbits
 1406              	.Ldebug_loc0:
 1407              	.LLST0:
 1408 0000 02000000 		.4byte	.LVL6
 1409 0004 0E000000 		.4byte	.LVL8
ARM GAS  C:\Users\ARMAND~1\AppData\Local\Temp\cc9xSBEa.s 			page 29


 1410 0008 0200     		.2byte	0x2
 1411 000a 30       		.byte	0x30
 1412 000b 9F       		.byte	0x9f
 1413 000c 0E000000 		.4byte	.LVL8
 1414 0010 3A000000 		.4byte	.LFE65
 1415 0014 0100     		.2byte	0x1
 1416 0016 54       		.byte	0x54
 1417 0017 00000000 		.4byte	0
 1418 001b 00000000 		.4byte	0
 1419              	.LLST1:
 1420 001f 08000000 		.4byte	.LVL21
 1421 0023 24000000 		.4byte	.LVL23
 1422 0027 0100     		.2byte	0x1
 1423 0029 50       		.byte	0x50
 1424 002a 00000000 		.4byte	0
 1425 002e 00000000 		.4byte	0
 1426              	.LLST2:
 1427 0032 08000000 		.4byte	.LVL21
 1428 0036 1A000000 		.4byte	.LVL22
 1429 003a 0200     		.2byte	0x2
 1430 003c 30       		.byte	0x30
 1431 003d 9F       		.byte	0x9f
 1432 003e 1A000000 		.4byte	.LVL22
 1433 0042 76000000 		.4byte	.LFE67
 1434 0046 0100     		.2byte	0x1
 1435 0048 54       		.byte	0x54
 1436 0049 00000000 		.4byte	0
 1437 004d 00000000 		.4byte	0
 1438              	.LLST3:
 1439 0051 08000000 		.4byte	.LVL21
 1440 0055 1A000000 		.4byte	.LVL22
 1441 0059 0200     		.2byte	0x2
 1442 005b 30       		.byte	0x30
 1443 005c 9F       		.byte	0x9f
 1444 005d 1A000000 		.4byte	.LVL22
 1445 0061 76000000 		.4byte	.LFE67
 1446 0065 0100     		.2byte	0x1
 1447 0067 55       		.byte	0x55
 1448 0068 00000000 		.4byte	0
 1449 006c 00000000 		.4byte	0
 1450              	.LLST4:
 1451 0070 02000000 		.4byte	.LVL35
 1452 0074 34000000 		.4byte	.LVL39
 1453 0078 0200     		.2byte	0x2
 1454 007a 30       		.byte	0x30
 1455 007b 9F       		.byte	0x9f
 1456 007c 34000000 		.4byte	.LVL39
 1457 0080 38000000 		.4byte	.LVL40
 1458 0084 0200     		.2byte	0x2
 1459 0086 31       		.byte	0x31
 1460 0087 9F       		.byte	0x9f
 1461 0088 38000000 		.4byte	.LVL40
 1462 008c 3A000000 		.4byte	.LVL41
 1463 0090 0200     		.2byte	0x2
 1464 0092 30       		.byte	0x30
 1465 0093 9F       		.byte	0x9f
 1466 0094 3A000000 		.4byte	.LVL41
ARM GAS  C:\Users\ARMAND~1\AppData\Local\Temp\cc9xSBEa.s 			page 30


 1467 0098 48000000 		.4byte	.LVL42
 1468 009c 0100     		.2byte	0x1
 1469 009e 50       		.byte	0x50
 1470 009f 48000000 		.4byte	.LVL42
 1471 00a3 4C000000 		.4byte	.LVL43
 1472 00a7 0200     		.2byte	0x2
 1473 00a9 31       		.byte	0x31
 1474 00aa 9F       		.byte	0x9f
 1475 00ab 4C000000 		.4byte	.LVL43
 1476 00af 4E000000 		.4byte	.LVL44
 1477 00b3 0200     		.2byte	0x2
 1478 00b5 30       		.byte	0x30
 1479 00b6 9F       		.byte	0x9f
 1480 00b7 4E000000 		.4byte	.LVL44
 1481 00bb 54000000 		.4byte	.LFE68
 1482 00bf 0100     		.2byte	0x1
 1483 00c1 50       		.byte	0x50
 1484 00c2 00000000 		.4byte	0
 1485 00c6 00000000 		.4byte	0
 1486              	.LLST5:
 1487 00ca 10000000 		.4byte	.LVL47
 1488 00ce 22000000 		.4byte	.LVL48
 1489 00d2 0100     		.2byte	0x1
 1490 00d4 50       		.byte	0x50
 1491 00d5 24000000 		.4byte	.LVL49
 1492 00d9 26000000 		.4byte	.LVL50
 1493 00dd 0100     		.2byte	0x1
 1494 00df 50       		.byte	0x50
 1495 00e0 28000000 		.4byte	.LVL51
 1496 00e4 2A000000 		.4byte	.LVL52
 1497 00e8 0100     		.2byte	0x1
 1498 00ea 50       		.byte	0x50
 1499 00eb 00000000 		.4byte	0
 1500 00ef 00000000 		.4byte	0
 1501              		.section	.debug_aranges,"",%progbits
 1502 0000 44000000 		.4byte	0x44
 1503 0004 0200     		.2byte	0x2
 1504 0006 00000000 		.4byte	.Ldebug_info0
 1505 000a 04       		.byte	0x4
 1506 000b 00       		.byte	0
 1507 000c 0000     		.2byte	0
 1508 000e 0000     		.2byte	0
 1509 0010 00000000 		.4byte	.LFB64
 1510 0014 4C000000 		.4byte	.LFE64-.LFB64
 1511 0018 00000000 		.4byte	.LFB65
 1512 001c 3A000000 		.4byte	.LFE65-.LFB65
 1513 0020 00000000 		.4byte	.LFB66
 1514 0024 16000000 		.4byte	.LFE66-.LFB66
 1515 0028 00000000 		.4byte	.LFB67
 1516 002c 76000000 		.4byte	.LFE67-.LFB67
 1517 0030 00000000 		.4byte	.LFB68
 1518 0034 54000000 		.4byte	.LFE68-.LFB68
 1519 0038 00000000 		.4byte	.LFB69
 1520 003c 2C000000 		.4byte	.LFE69-.LFB69
 1521 0040 00000000 		.4byte	0
 1522 0044 00000000 		.4byte	0
 1523              		.section	.debug_ranges,"",%progbits
ARM GAS  C:\Users\ARMAND~1\AppData\Local\Temp\cc9xSBEa.s 			page 31


 1524              	.Ldebug_ranges0:
 1525 0000 00000000 		.4byte	.LFB64
 1526 0004 4C000000 		.4byte	.LFE64
 1527 0008 00000000 		.4byte	.LFB65
 1528 000c 3A000000 		.4byte	.LFE65
 1529 0010 00000000 		.4byte	.LFB66
 1530 0014 16000000 		.4byte	.LFE66
 1531 0018 00000000 		.4byte	.LFB67
 1532 001c 76000000 		.4byte	.LFE67
 1533 0020 00000000 		.4byte	.LFB68
 1534 0024 54000000 		.4byte	.LFE68
 1535 0028 00000000 		.4byte	.LFB69
 1536 002c 2C000000 		.4byte	.LFE69
 1537 0030 00000000 		.4byte	0
 1538 0034 00000000 		.4byte	0
 1539              		.section	.debug_line,"",%progbits
 1540              	.Ldebug_line0:
 1541 0000 C3020000 		.section	.debug_str,"MS",%progbits,1
 1541      0200FC01 
 1541      00000201 
 1541      FB0E0D00 
 1541      01010101 
 1542              	.LASF67:
 1543 0000 49524C5F 		.ascii	"IRL_R30_Read\000"
 1543      5233305F 
 1543      52656164 
 1543      00
 1544              	.LASF59:
 1545 000d 49525F53 		.ascii	"IR_START_Read\000"
 1545      54415254 
 1545      5F526561 
 1545      6400
 1546              	.LASF50:
 1547 001b 64697374 		.ascii	"distSens\000"
 1547      53656E73 
 1547      00
 1548              	.LASF13:
 1549 0024 696E7438 		.ascii	"int8_t\000"
 1549      5F7400
 1550              	.LASF53:
 1551 002b 44697374 		.ascii	"DistSensRead\000"
 1551      53656E73 
 1551      52656164 
 1551      00
 1552              	.LASF5:
 1553 0038 73686F72 		.ascii	"short int\000"
 1553      7420696E 
 1553      7400
 1554              	.LASF22:
 1555 0042 73697A65 		.ascii	"sizetype\000"
 1555      74797065 
 1555      00
 1556              	.LASF54:
 1557 004b 4C696E65 		.ascii	"LineSensRead\000"
 1557      53656E73 
 1557      52656164 
 1557      00
ARM GAS  C:\Users\ARMAND~1\AppData\Local\Temp\cc9xSBEa.s 			page 32


 1558              	.LASF21:
 1559 0058 6C6F6E67 		.ascii	"long double\000"
 1559      20646F75 
 1559      626C6500 
 1560              	.LASF75:
 1561 0064 64697374 		.ascii	"distance_sensor\000"
 1561      616E6365 
 1561      5F73656E 
 1561      736F7200 
 1562              	.LASF60:
 1563 0074 73686F77 		.ascii	"showText\000"
 1563      54657874 
 1563      00
 1564              	.LASF23:
 1565 007d 44495354 		.ascii	"DISTSENS_L90\000"
 1565      53454E53 
 1565      5F4C3930 
 1565      00
 1566              	.LASF49:
 1567 008a 76616C75 		.ascii	"value\000"
 1567      6500
 1568              	.LASF28:
 1569 0090 44495354 		.ascii	"DISTSENS_R30\000"
 1569      53454E53 
 1569      5F523330 
 1569      00
 1570              	.LASF62:
 1571 009d 72696768 		.ascii	"rightFlagDown\000"
 1571      74466C61 
 1571      67446F77 
 1571      6E00
 1572              	.LASF46:
 1573 00ab 57616974 		.ascii	"WaitForIRStart\000"
 1573      466F7249 
 1573      52537461 
 1573      727400
 1574              	.LASF14:
 1575 00ba 75696E74 		.ascii	"uint8_t\000"
 1575      385F7400 
 1576              	.LASF17:
 1577 00c2 696E7431 		.ascii	"int16\000"
 1577      3600
 1578              	.LASF34:
 1579 00c8 4652325F 		.ascii	"FR2_val\000"
 1579      76616C00 
 1580              	.LASF52:
 1581 00d0 7365655F 		.ascii	"see_sensor_cnt\000"
 1581      73656E73 
 1581      6F725F63 
 1581      6E7400
 1582              	.LASF32:
 1583 00df 464C325F 		.ascii	"FL2_val\000"
 1583      76616C00 
 1584              	.LASF18:
 1585 00e7 666C6F61 		.ascii	"float\000"
 1585      7400
 1586              	.LASF42:
ARM GAS  C:\Users\ARMAND~1\AppData\Local\Temp\cc9xSBEa.s 			page 33


 1587 00ed 73657474 		.ascii	"settings\000"
 1587      696E6773 
 1587      00
 1588              	.LASF48:
 1589 00f6 43616C63 		.ascii	"CalcAvrgAngle\000"
 1589      41767267 
 1589      416E676C 
 1589      6500
 1590              	.LASF10:
 1591 0104 6C6F6E67 		.ascii	"long long int\000"
 1591      206C6F6E 
 1591      6720696E 
 1591      7400
 1592              	.LASF44:
 1593 0112 666C6167 		.ascii	"flag\000"
 1593      00
 1594              	.LASF24:
 1595 0117 44495354 		.ascii	"DISTSENS_L60\000"
 1595      53454E53 
 1595      5F4C3630 
 1595      00
 1596              	.LASF8:
 1597 0124 6C6F6E67 		.ascii	"long int\000"
 1597      20696E74 
 1597      00
 1598              	.LASF37:
 1599 012d 465F4C45 		.ascii	"F_LEFT\000"
 1599      465400
 1600              	.LASF1:
 1601 0134 5F5F7569 		.ascii	"__uint8_t\000"
 1601      6E74385F 
 1601      7400
 1602              	.LASF66:
 1603 013e 49524C5F 		.ascii	"IRL_R0_Read\000"
 1603      52305F52 
 1603      65616400 
 1604              	.LASF55:
 1605 014a 6F70706F 		.ascii	"opponentUp\000"
 1605      6E656E74 
 1605      557000
 1606              	.LASF65:
 1607 0155 49524C5F 		.ascii	"IRL_L30_Read\000"
 1607      4C33305F 
 1607      52656164 
 1607      00
 1608              	.LASF63:
 1609 0162 6C656674 		.ascii	"leftFlagDown\000"
 1609      466C6167 
 1609      446F776E 
 1609      00
 1610              	.LASF69:
 1611 016f 53656E73 		.ascii	"Sensor_Reset_Write\000"
 1611      6F725F52 
 1611      65736574 
 1611      5F577269 
 1611      746500
 1612              	.LASF36:
ARM GAS  C:\Users\ARMAND~1\AppData\Local\Temp\cc9xSBEa.s 			page 34


 1613 0182 4654485F 		.ascii	"FTH_val\000"
 1613      76616C00 
 1614              	.LASF57:
 1615 018a 674C696E 		.ascii	"gLine\000"
 1615      6500
 1616              	.LASF35:
 1617 0190 425F7661 		.ascii	"B_val\000"
 1617      6C00
 1618              	.LASF3:
 1619 0196 756E7369 		.ascii	"unsigned char\000"
 1619      676E6564 
 1619      20636861 
 1619      7200
 1620              	.LASF30:
 1621 01a4 44495354 		.ascii	"DISTSENS_R90\000"
 1621      53454E53 
 1621      5F523930 
 1621      00
 1622              	.LASF2:
 1623 01b1 7369676E 		.ascii	"signed char\000"
 1623      65642063 
 1623      68617200 
 1624              	.LASF11:
 1625 01bd 6C6F6E67 		.ascii	"long long unsigned int\000"
 1625      206C6F6E 
 1625      6720756E 
 1625      7369676E 
 1625      65642069 
 1626              	.LASF12:
 1627 01d4 756E7369 		.ascii	"unsigned int\000"
 1627      676E6564 
 1627      20696E74 
 1627      00
 1628              	.LASF64:
 1629 01e1 49524C5F 		.ascii	"IRL_L60_Read\000"
 1629      4C36305F 
 1629      52656164 
 1629      00
 1630              	.LASF25:
 1631 01ee 44495354 		.ascii	"DISTSENS_L30\000"
 1631      53454E53 
 1631      5F4C3330 
 1631      00
 1632              	.LASF39:
 1633 01fb 52454152 		.ascii	"REAR\000"
 1633      00
 1634              	.LASF27:
 1635 0200 44495354 		.ascii	"DISTSENS_R00\000"
 1635      53454E53 
 1635      5F523030 
 1635      00
 1636              	.LASF0:
 1637 020d 5F5F696E 		.ascii	"__int8_t\000"
 1637      74385F74 
 1637      00
 1638              	.LASF68:
 1639 0216 49524C5F 		.ascii	"IRL_R60_Read\000"
ARM GAS  C:\Users\ARMAND~1\AppData\Local\Temp\cc9xSBEa.s 			page 35


 1639      5236305F 
 1639      52656164 
 1639      00
 1640              	.LASF20:
 1641 0223 63686172 		.ascii	"char\000"
 1641      00
 1642              	.LASF56:
 1643 0228 49544D5F 		.ascii	"ITM_RxBuffer\000"
 1643      52784275 
 1643      66666572 
 1643      00
 1644              	.LASF16:
 1645 0235 696E7433 		.ascii	"int32_t\000"
 1645      325F7400 
 1646              	.LASF6:
 1647 023d 73686F72 		.ascii	"short unsigned int\000"
 1647      7420756E 
 1647      7369676E 
 1647      65642069 
 1647      6E7400
 1648              	.LASF15:
 1649 0250 696E7431 		.ascii	"int16_t\000"
 1649      365F7400 
 1650              	.LASF73:
 1651 0258 73656E73 		.ascii	"sensors.c\000"
 1651      6F72732E 
 1651      6300
 1652              	.LASF29:
 1653 0262 44495354 		.ascii	"DISTSENS_R60\000"
 1653      53454E53 
 1653      5F523630 
 1653      00
 1654              	.LASF74:
 1655 026f 433A5C55 		.ascii	"C:\\Users\\Armands-PC\\Google Drive\\new_sumo code\\"
 1655      73657273 
 1655      5C41726D 
 1655      616E6473 
 1655      2D50435C 
 1656 029e 42555F73 		.ascii	"BU_sumo\\BU_sumo.cydsn\000"
 1656      756D6F5C 
 1656      42555F73 
 1656      756D6F2E 
 1656      63796473 
 1657              	.LASF9:
 1658 02b4 6C6F6E67 		.ascii	"long unsigned int\000"
 1658      20756E73 
 1658      69676E65 
 1658      6420696E 
 1658      7400
 1659              	.LASF45:
 1660 02c6 7475726E 		.ascii	"turn_speed\000"
 1660      5F737065 
 1660      656400
 1661              	.LASF19:
 1662 02d1 646F7562 		.ascii	"double\000"
 1662      6C6500
 1663              	.LASF47:
ARM GAS  C:\Users\ARMAND~1\AppData\Local\Temp\cc9xSBEa.s 			page 36


 1664 02d8 52657365 		.ascii	"ResetDistSensors\000"
 1664      74446973 
 1664      7453656E 
 1664      736F7273 
 1664      00
 1665              	.LASF26:
 1666 02e9 44495354 		.ascii	"DISTSENS_L00\000"
 1666      53454E53 
 1666      5F4C3030 
 1666      00
 1667              	.LASF7:
 1668 02f6 5F5F696E 		.ascii	"__int32_t\000"
 1668      7433325F 
 1668      7400
 1669              	.LASF4:
 1670 0300 5F5F696E 		.ascii	"__int16_t\000"
 1670      7431365F 
 1670      7400
 1671              	.LASF38:
 1672 030a 465F5249 		.ascii	"F_RIGHT\000"
 1672      47485400 
 1673              	.LASF71:
 1674 0312 4144435F 		.ascii	"ADC_SAR_GetResult16\000"
 1674      5341525F 
 1674      47657452 
 1674      6573756C 
 1674      74313600 
 1675              	.LASF51:
 1676 0326 616E676C 		.ascii	"angle\000"
 1676      6500
 1677              	.LASF41:
 1678 032c 674C696E 		.ascii	"gLinevars\000"
 1678      65766172 
 1678      7300
 1679              	.LASF40:
 1680 0336 6164635F 		.ascii	"adc_buff\000"
 1680      62756666 
 1680      00
 1681              	.LASF43:
 1682 033f 66697665 		.ascii	"five_seconds\000"
 1682      5F736563 
 1682      6F6E6473 
 1682      00
 1683              	.LASF33:
 1684 034c 4652315F 		.ascii	"FR1_val\000"
 1684      76616C00 
 1685              	.LASF70:
 1686 0354 4144435F 		.ascii	"ADC_SAR_IsEndConversion\000"
 1686      5341525F 
 1686      4973456E 
 1686      64436F6E 
 1686      76657273 
 1687              	.LASF72:
 1688 036c 474E5520 		.ascii	"GNU C11 5.4.1 20160609 (release) [ARM/embedded-5-br"
 1688      43313120 
 1688      352E342E 
 1688      31203230 
ARM GAS  C:\Users\ARMAND~1\AppData\Local\Temp\cc9xSBEa.s 			page 37


 1688      31363036 
 1689 039f 616E6368 		.ascii	"anch revision 237715] -mcpu=cortex-m3 -mthumb -g -O"
 1689      20726576 
 1689      6973696F 
 1689      6E203233 
 1689      37373135 
 1690 03d2 67202D66 		.ascii	"g -ffunction-sections -ffat-lto-objects\000"
 1690      66756E63 
 1690      74696F6E 
 1690      2D736563 
 1690      74696F6E 
 1691              	.LASF61:
 1692 03fa 43794465 		.ascii	"CyDelay\000"
 1692      6C617900 
 1693              	.LASF31:
 1694 0402 464C315F 		.ascii	"FL1_val\000"
 1694      76616C00 
 1695              	.LASF58:
 1696 040a 67536574 		.ascii	"gSettings\000"
 1696      74696E67 
 1696      7300
 1697              		.ident	"GCC: (GNU Tools for ARM Embedded Processors) 5.4.1 20160609 (release) [ARM/embedded-5-bran
