ARM GAS  C:\Users\ARMAND~1\AppData\Local\Temp\ccwqV4ia.s 			page 1


   1              		.syntax unified
   2              		.cpu cortex-m3
   3              		.fpu softvfp
   4              		.eabi_attribute 20, 1
   5              		.eabi_attribute 21, 1
   6              		.eabi_attribute 23, 3
   7              		.eabi_attribute 24, 1
   8              		.eabi_attribute 25, 1
   9              		.eabi_attribute 26, 1
  10              		.eabi_attribute 30, 1
  11              		.eabi_attribute 34, 1
  12              		.eabi_attribute 18, 4
  13              		.thumb
  14              		.syntax unified
  15              		.file	"tactic2_blitz.c"
  16              		.text
  17              	.Ltext0:
  18              		.cfi_sections	.debug_frame
  19              		.section	.text.DoSomething,"ax",%progbits
  20              		.align	2
  21              		.thumb
  22              		.thumb_func
  23              		.type	DoSomething, %function
  24              	DoSomething:
  25              	.LFB66:
  26              		.file 1 "tactic2_blitz.c"
   1:tactic2_blitz.c **** /* ========================================
   2:tactic2_blitz.c ****  *
   3:tactic2_blitz.c ****  * Copyright YOUR COMPANY, THE YEAR
   4:tactic2_blitz.c ****  * All Rights Reserved
   5:tactic2_blitz.c ****  * UNPUBLISHED, LICENSED SOFTWARE.
   6:tactic2_blitz.c ****  *
   7:tactic2_blitz.c ****  * CONFIDENTIAL AND PROPRIETARY INFORMATION
   8:tactic2_blitz.c ****  * WHICH IS THE PROPERTY OF your company.
   9:tactic2_blitz.c ****  *
  10:tactic2_blitz.c ****  * ========================================
  11:tactic2_blitz.c **** */
  12:tactic2_blitz.c **** #include <project.h>
  13:tactic2_blitz.c **** #include "tactic2_blitz.h"
  14:tactic2_blitz.c **** #include "sensors.h"
  15:tactic2_blitz.c **** #include "timer_time.h"
  16:tactic2_blitz.c **** #include "drive.h"
  17:tactic2_blitz.c **** 
  18:tactic2_blitz.c **** //=============================================================================
  19:tactic2_blitz.c **** // Private defines and typedefs
  20:tactic2_blitz.c **** //=============================================================================
  21:tactic2_blitz.c **** #define Rd_bits(value, mask)        ((value)&(mask))
  22:tactic2_blitz.c **** 
  23:tactic2_blitz.c **** #define SEARCH_PWM_L  25
  24:tactic2_blitz.c **** #define SEARCH_PWM_R  25
  25:tactic2_blitz.c **** #define TURN_PWM    40
  26:tactic2_blitz.c **** #define ATTACK_PWM  70
  27:tactic2_blitz.c **** 
  28:tactic2_blitz.c **** //=============================================================================
  29:tactic2_blitz.c **** // Private function declarations
  30:tactic2_blitz.c **** //=============================================================================
  31:tactic2_blitz.c **** static void ActOnEnemySpotted(void);
ARM GAS  C:\Users\ARMAND~1\AppData\Local\Temp\ccwqV4ia.s 			page 2


  32:tactic2_blitz.c **** static void ActOnLineDetected(void);
  33:tactic2_blitz.c **** static void DoSomething(void);
  34:tactic2_blitz.c **** 
  35:tactic2_blitz.c **** //=============================================================================
  36:tactic2_blitz.c **** // Private data definitions
  37:tactic2_blitz.c **** //=============================================================================
  38:tactic2_blitz.c **** static uint8_t lineSens = 0;
  39:tactic2_blitz.c **** static uint8_t distSens = 0;
  40:tactic2_blitz.c **** static uint8_t side = 0;
  41:tactic2_blitz.c **** 
  42:tactic2_blitz.c **** 
  43:tactic2_blitz.c **** //=============================================================================
  44:tactic2_blitz.c **** // Public function definitions
  45:tactic2_blitz.c **** //=============================================================================
  46:tactic2_blitz.c **** 
  47:tactic2_blitz.c **** //-----------------------------------------------------------------------------
  48:tactic2_blitz.c **** //! \brief	Combat tactic #1 in action
  49:tactic2_blitz.c **** //-----------------------------------------------------------------------------
  50:tactic2_blitz.c **** void RunTactic2()
  51:tactic2_blitz.c **** {
  52:tactic2_blitz.c ****     WaitForIRStart();
  53:tactic2_blitz.c ****     
  54:tactic2_blitz.c ****     // ============================ First move ================================
  55:tactic2_blitz.c **** /*
  56:tactic2_blitz.c ****     turn_left(50);
  57:tactic2_blitz.c ****     CyDelay(100);
  58:tactic2_blitz.c ****     drive_motors(50, 50);
  59:tactic2_blitz.c ****     CyDelay(300);
  60:tactic2_blitz.c ****     turn_right(50);
  61:tactic2_blitz.c ****     CyDelay(100);
  62:tactic2_blitz.c **** */
  63:tactic2_blitz.c ****     //CyDelay(5000);
  64:tactic2_blitz.c ****     drive_forward(SEARCH_PWM_L, SEARCH_PWM_R);
  65:tactic2_blitz.c ****     CyDelay(50);
  66:tactic2_blitz.c **** 
  67:tactic2_blitz.c **** 
  68:tactic2_blitz.c ****     // ============================= Main loop ================================
  69:tactic2_blitz.c ****     uint32_t timout_time = millis();
  70:tactic2_blitz.c ****     while (1) {
  71:tactic2_blitz.c **** 		// read all sensors
  72:tactic2_blitz.c **** 		lineSens = LineSensRead();
  73:tactic2_blitz.c **** 	    distSens = DistSensRead(); //Distance_sensor_value_Read();
  74:tactic2_blitz.c ****         //Sensor_Reset_Write(0xFF);  // why???
  75:tactic2_blitz.c ****         
  76:tactic2_blitz.c ****         //Sensor_Reset_Write(0); 
  77:tactic2_blitz.c **** 
  78:tactic2_blitz.c **** 		if( 0 < lineSens ){
  79:tactic2_blitz.c **** 			// line has detected
  80:tactic2_blitz.c **** 		    ActOnLineDetected();
  81:tactic2_blitz.c **** 			timout_time = millis();
  82:tactic2_blitz.c **** 		}
  83:tactic2_blitz.c **** 		else if( 0 < distSens ){
  84:tactic2_blitz.c **** 			// opponent spotted
  85:tactic2_blitz.c **** 			ActOnEnemySpotted();
  86:tactic2_blitz.c **** 			timout_time = millis();
  87:tactic2_blitz.c **** 		}
  88:tactic2_blitz.c ****         else {
ARM GAS  C:\Users\ARMAND~1\AppData\Local\Temp\ccwqV4ia.s 			page 3


  89:tactic2_blitz.c ****             drive_forward(0, 0);
  90:tactic2_blitz.c ****             //CyDelay(50);
  91:tactic2_blitz.c ****         }
  92:tactic2_blitz.c **** 
  93:tactic2_blitz.c **** 		if( 1500 < millis() - timout_time ){
  94:tactic2_blitz.c **** 			timout_time = millis();
  95:tactic2_blitz.c **** 			DoSomething();
  96:tactic2_blitz.c **** 		}
  97:tactic2_blitz.c ****     }
  98:tactic2_blitz.c **** }
  99:tactic2_blitz.c **** 
 100:tactic2_blitz.c **** //=============================================================================
 101:tactic2_blitz.c **** // Private function definitions
 102:tactic2_blitz.c **** //=============================================================================
 103:tactic2_blitz.c **** 
 104:tactic2_blitz.c **** //! \brief	Act on opponent spotted event
 105:tactic2_blitz.c **** void ActOnEnemySpotted(void){
 106:tactic2_blitz.c **** 
 107:tactic2_blitz.c **** 
 108:tactic2_blitz.c **** 	    int distSens = DistSensRead(); //Distance_sensor_value_Read();
 109:tactic2_blitz.c ****         //Sensor_Reset_Write(0xFF);  // why???
 110:tactic2_blitz.c ****         
 111:tactic2_blitz.c ****         //Sensor_Reset_Write(0); 
 112:tactic2_blitz.c **** 
 113:tactic2_blitz.c ****     	if( 0 < distSens ){
 114:tactic2_blitz.c ****             int8_t avrg_angle_grad = CalcAvrgAngle();
 115:tactic2_blitz.c **** 
 116:tactic2_blitz.c ****         	int8_t pwm = 60;
 117:tactic2_blitz.c ****             // Attack spotted opponent
 118:tactic2_blitz.c ****         	if( 0 == avrg_angle_grad ){
 119:tactic2_blitz.c ****         		drive_forward( ATTACK_PWM , ATTACK_PWM );		// drive forward
 120:tactic2_blitz.c ****         		CyDelay(40);
 121:tactic2_blitz.c ****         	}else if( -60 >= avrg_angle_grad ){
 122:tactic2_blitz.c ****         		// [-90; -60] grad
 123:tactic2_blitz.c ****         		turn_left(TURN_PWM,TURN_PWM); //drive_motors( -pwm, pwm );		// turn on spot left
 124:tactic2_blitz.c ****                 CyDelay(40);
 125:tactic2_blitz.c ****         	}else if( -30 >= avrg_angle_grad ){
 126:tactic2_blitz.c ****         		// (-60; -30] grad
 127:tactic2_blitz.c ****         		drive_forward( pwm / 3, pwm );	// drive more left
 128:tactic2_blitz.c ****                 CyDelay(30);
 129:tactic2_blitz.c ****         	}else if( 0 > avrg_angle_grad ){
 130:tactic2_blitz.c ****         		// (-30; 0) grad
 131:tactic2_blitz.c ****         		drive_forward( ATTACK_PWM * 0.7, ATTACK_PWM );	// drive little left
 132:tactic2_blitz.c ****                 CyDelay(40);
 133:tactic2_blitz.c ****         	}else if( 60 <= avrg_angle_grad ){
 134:tactic2_blitz.c ****         		// [60; 90] grad
 135:tactic2_blitz.c ****         		turn_right(TURN_PWM,TURN_PWM); //drive_motors( pwm, -pwm );		// turn on spot right
 136:tactic2_blitz.c ****                 CyDelay(40);
 137:tactic2_blitz.c ****         	}else if( 30 <= avrg_angle_grad ){
 138:tactic2_blitz.c ****         		// [30; 60) grad
 139:tactic2_blitz.c ****         		drive_forward( pwm, pwm / 3 );	// drive more right
 140:tactic2_blitz.c ****                 CyDelay(30);
 141:tactic2_blitz.c ****         	}else if( 0 <= avrg_angle_grad ){
 142:tactic2_blitz.c ****         		// (0; 30) grad
 143:tactic2_blitz.c ****         		drive_forward( ATTACK_PWM, ATTACK_PWM * 0.7 );	// drive little right
 144:tactic2_blitz.c ****                 CyDelay(40);
 145:tactic2_blitz.c ****         	}
ARM GAS  C:\Users\ARMAND~1\AppData\Local\Temp\ccwqV4ia.s 			page 4


 146:tactic2_blitz.c ****             CyDelay(10);
 147:tactic2_blitz.c **** 
 148:tactic2_blitz.c ****     		}
 149:tactic2_blitz.c ****         else {
 150:tactic2_blitz.c ****             drive_forward(0, 0);
 151:tactic2_blitz.c ****             //CyDelay(50);
 152:tactic2_blitz.c ****         }
 153:tactic2_blitz.c ****        
 154:tactic2_blitz.c **** }
 155:tactic2_blitz.c **** 
 156:tactic2_blitz.c **** //! \brief	Act on line detected event
 157:tactic2_blitz.c **** //! \brief	Act on line detected event
 158:tactic2_blitz.c **** void ActOnLineDetected(void){
 159:tactic2_blitz.c **** 	//int lineSens = LineSensRead();
 160:tactic2_blitz.c ****      
 161:tactic2_blitz.c **** 	// Line_FL && Line_FR
 162:tactic2_blitz.c **** 	if(gLine.F_LEFT && gLine.F_RIGHT){
 163:tactic2_blitz.c ****         drive_backward(40,40); //drive_distance_straight_backward(10, 40);
 164:tactic2_blitz.c ****         CyDelay(400);
 165:tactic2_blitz.c ****         //turn_angle_right(170,50);
 166:tactic2_blitz.c ****         turn_left(TURN_PWM,TURN_PWM); //turn_angle_right(180, TURN_PWM );
 167:tactic2_blitz.c ****         CyDelay(300);
 168:tactic2_blitz.c **** 	}
 169:tactic2_blitz.c **** 	// Line_FL
 170:tactic2_blitz.c **** 	else if(gLine.F_LEFT){
 171:tactic2_blitz.c ****         drive_backward(40,40); //drive_distance_straight_backward(10, 40);
 172:tactic2_blitz.c ****         CyDelay(150);
 173:tactic2_blitz.c ****         turn_right(TURN_PWM,TURN_PWM); //turn_angle_right(135, TURN_PWM );
 174:tactic2_blitz.c ****         CyDelay(200);
 175:tactic2_blitz.c **** 	}
 176:tactic2_blitz.c **** 	// Line_FR
 177:tactic2_blitz.c **** 	else if(gLine.F_RIGHT){
 178:tactic2_blitz.c ****         drive_backward(40,40); //drive_distance_straight_backward(10, 40);
 179:tactic2_blitz.c ****         CyDelay(150);
 180:tactic2_blitz.c ****         turn_left(TURN_PWM,TURN_PWM); //turn_angle_left(135, TURN_PWM );
 181:tactic2_blitz.c ****         CyDelay(200);
 182:tactic2_blitz.c **** 	}
 183:tactic2_blitz.c ****     //drive_forward( 0, 0 );
 184:tactic2_blitz.c **** }
 185:tactic2_blitz.c **** 
 186:tactic2_blitz.c **** //! \brief	Do something when opponent is not visible
 187:tactic2_blitz.c **** void DoSomething(void){
  27              		.loc 1 187 0
  28              		.cfi_startproc
  29              		@ args = 0, pretend = 0, frame = 0
  30              		@ frame_needed = 0, uses_anonymous_args = 0
  31 0000 08B5     		push	{r3, lr}
  32              		.cfi_def_cfa_offset 8
  33              		.cfi_offset 3, -8
  34              		.cfi_offset 14, -4
 188:tactic2_blitz.c **** 	// Drive little forward.
 189:tactic2_blitz.c ****     drive_forward(45,50);
  35              		.loc 1 189 0
  36 0002 3221     		movs	r1, #50
  37 0004 2D20     		movs	r0, #45
  38 0006 FFF7FEFF 		bl	drive_forward
  39              	.LVL0:
ARM GAS  C:\Users\ARMAND~1\AppData\Local\Temp\ccwqV4ia.s 			page 5


 190:tactic2_blitz.c ****     CyDelay(50);
  40              		.loc 1 190 0
  41 000a 3220     		movs	r0, #50
  42 000c FFF7FEFF 		bl	CyDelay
  43              	.LVL1:
 191:tactic2_blitz.c ****     drive_forward( 0, 0 ); // BREAK A BIT FOR FUN
  44              		.loc 1 191 0
  45 0010 0021     		movs	r1, #0
  46 0012 0846     		mov	r0, r1
  47 0014 FFF7FEFF 		bl	drive_forward
  48              	.LVL2:
 192:tactic2_blitz.c ****     CyDelay(10);
  49              		.loc 1 192 0
  50 0018 0A20     		movs	r0, #10
  51 001a FFF7FEFF 		bl	CyDelay
  52              	.LVL3:
  53 001e 08BD     		pop	{r3, pc}
  54              		.cfi_endproc
  55              	.LFE66:
  56              		.size	DoSomething, .-DoSomething
  57              		.section	.text.ActOnLineDetected,"ax",%progbits
  58              		.align	2
  59              		.thumb
  60              		.thumb_func
  61              		.type	ActOnLineDetected, %function
  62              	ActOnLineDetected:
  63              	.LFB65:
 158:tactic2_blitz.c **** 	//int lineSens = LineSensRead();
  64              		.loc 1 158 0
  65              		.cfi_startproc
  66              		@ args = 0, pretend = 0, frame = 0
  67              		@ frame_needed = 0, uses_anonymous_args = 0
  68 0000 08B5     		push	{r3, lr}
  69              		.cfi_def_cfa_offset 8
  70              		.cfi_offset 3, -8
  71              		.cfi_offset 14, -4
 162:tactic2_blitz.c ****         drive_backward(40,40); //drive_distance_straight_backward(10, 40);
  72              		.loc 1 162 0
  73 0002 1C4B     		ldr	r3, .L8
  74 0004 9B69     		ldr	r3, [r3, #24]
  75 0006 9BB1     		cbz	r3, .L4
 162:tactic2_blitz.c ****         drive_backward(40,40); //drive_distance_straight_backward(10, 40);
  76              		.loc 1 162 0 is_stmt 0 discriminator 1
  77 0008 1A4A     		ldr	r2, .L8
  78 000a D269     		ldr	r2, [r2, #28]
  79 000c 82B1     		cbz	r2, .L4
 163:tactic2_blitz.c ****         CyDelay(400);
  80              		.loc 1 163 0 is_stmt 1
  81 000e 2821     		movs	r1, #40
  82 0010 0846     		mov	r0, r1
  83 0012 FFF7FEFF 		bl	drive_backward
  84              	.LVL4:
 164:tactic2_blitz.c ****         //turn_angle_right(170,50);
  85              		.loc 1 164 0
  86 0016 4FF4C870 		mov	r0, #400
  87 001a FFF7FEFF 		bl	CyDelay
  88              	.LVL5:
ARM GAS  C:\Users\ARMAND~1\AppData\Local\Temp\ccwqV4ia.s 			page 6


 166:tactic2_blitz.c ****         CyDelay(300);
  89              		.loc 1 166 0
  90 001e 2821     		movs	r1, #40
  91 0020 0846     		mov	r0, r1
  92 0022 FFF7FEFF 		bl	turn_left
  93              	.LVL6:
 167:tactic2_blitz.c **** 	}
  94              		.loc 1 167 0
  95 0026 4FF49670 		mov	r0, #300
  96 002a FFF7FEFF 		bl	CyDelay
  97              	.LVL7:
  98 002e 08BD     		pop	{r3, pc}
  99              	.L4:
 170:tactic2_blitz.c ****         drive_backward(40,40); //drive_distance_straight_backward(10, 40);
 100              		.loc 1 170 0
 101 0030 73B1     		cbz	r3, .L6
 171:tactic2_blitz.c ****         CyDelay(150);
 102              		.loc 1 171 0
 103 0032 2821     		movs	r1, #40
 104 0034 0846     		mov	r0, r1
 105 0036 FFF7FEFF 		bl	drive_backward
 106              	.LVL8:
 172:tactic2_blitz.c ****         turn_right(TURN_PWM,TURN_PWM); //turn_angle_right(135, TURN_PWM );
 107              		.loc 1 172 0
 108 003a 9620     		movs	r0, #150
 109 003c FFF7FEFF 		bl	CyDelay
 110              	.LVL9:
 173:tactic2_blitz.c ****         CyDelay(200);
 111              		.loc 1 173 0
 112 0040 2821     		movs	r1, #40
 113 0042 0846     		mov	r0, r1
 114 0044 FFF7FEFF 		bl	turn_right
 115              	.LVL10:
 174:tactic2_blitz.c **** 	}
 116              		.loc 1 174 0
 117 0048 C820     		movs	r0, #200
 118 004a FFF7FEFF 		bl	CyDelay
 119              	.LVL11:
 120 004e 08BD     		pop	{r3, pc}
 121              	.L6:
 177:tactic2_blitz.c ****         drive_backward(40,40); //drive_distance_straight_backward(10, 40);
 122              		.loc 1 177 0
 123 0050 084B     		ldr	r3, .L8
 124 0052 DB69     		ldr	r3, [r3, #28]
 125 0054 6BB1     		cbz	r3, .L3
 178:tactic2_blitz.c ****         CyDelay(150);
 126              		.loc 1 178 0
 127 0056 2821     		movs	r1, #40
 128 0058 0846     		mov	r0, r1
 129 005a FFF7FEFF 		bl	drive_backward
 130              	.LVL12:
 179:tactic2_blitz.c ****         turn_left(TURN_PWM,TURN_PWM); //turn_angle_left(135, TURN_PWM );
 131              		.loc 1 179 0
 132 005e 9620     		movs	r0, #150
 133 0060 FFF7FEFF 		bl	CyDelay
 134              	.LVL13:
 180:tactic2_blitz.c ****         CyDelay(200);
ARM GAS  C:\Users\ARMAND~1\AppData\Local\Temp\ccwqV4ia.s 			page 7


 135              		.loc 1 180 0
 136 0064 2821     		movs	r1, #40
 137 0066 0846     		mov	r0, r1
 138 0068 FFF7FEFF 		bl	turn_left
 139              	.LVL14:
 181:tactic2_blitz.c **** 	}
 140              		.loc 1 181 0
 141 006c C820     		movs	r0, #200
 142 006e FFF7FEFF 		bl	CyDelay
 143              	.LVL15:
 144              	.L3:
 145 0072 08BD     		pop	{r3, pc}
 146              	.L9:
 147              		.align	2
 148              	.L8:
 149 0074 00000000 		.word	gLine
 150              		.cfi_endproc
 151              	.LFE65:
 152              		.size	ActOnLineDetected, .-ActOnLineDetected
 153              		.section	.text.ActOnEnemySpotted,"ax",%progbits
 154              		.align	2
 155              		.thumb
 156              		.thumb_func
 157              		.type	ActOnEnemySpotted, %function
 158              	ActOnEnemySpotted:
 159              	.LFB64:
 105:tactic2_blitz.c **** 
 160              		.loc 1 105 0
 161              		.cfi_startproc
 162              		@ args = 0, pretend = 0, frame = 0
 163              		@ frame_needed = 0, uses_anonymous_args = 0
 164 0000 08B5     		push	{r3, lr}
 165              		.cfi_def_cfa_offset 8
 166              		.cfi_offset 3, -8
 167              		.cfi_offset 14, -4
 108:tactic2_blitz.c ****         //Sensor_Reset_Write(0xFF);  // why???
 168              		.loc 1 108 0
 169 0002 FFF7FEFF 		bl	DistSensRead
 170              	.LVL16:
 113:tactic2_blitz.c ****             int8_t avrg_angle_grad = CalcAvrgAngle();
 171              		.loc 1 113 0
 172 0006 0028     		cmp	r0, #0
 173 0008 4BDD     		ble	.L11
 174              	.LBB2:
 114:tactic2_blitz.c **** 
 175              		.loc 1 114 0
 176 000a FFF7FEFF 		bl	CalcAvrgAngle
 177              	.LVL17:
 118:tactic2_blitz.c ****         		drive_forward( ATTACK_PWM , ATTACK_PWM );		// drive forward
 178              		.loc 1 118 0
 179 000e 38B9     		cbnz	r0, .L12
 119:tactic2_blitz.c ****         		CyDelay(40);
 180              		.loc 1 119 0
 181 0010 4621     		movs	r1, #70
 182 0012 0846     		mov	r0, r1
 183              	.LVL18:
 184 0014 FFF7FEFF 		bl	drive_forward
ARM GAS  C:\Users\ARMAND~1\AppData\Local\Temp\ccwqV4ia.s 			page 8


 185              	.LVL19:
 120:tactic2_blitz.c ****         	}else if( -60 >= avrg_angle_grad ){
 186              		.loc 1 120 0
 187 0018 2820     		movs	r0, #40
 188 001a FFF7FEFF 		bl	CyDelay
 189              	.LVL20:
 190 001e 3CE0     		b	.L13
 191              	.LVL21:
 192              	.L12:
 121:tactic2_blitz.c ****         		// [-90; -60] grad
 193              		.loc 1 121 0
 194 0020 10F13B0F 		cmn	r0, #59
 195 0024 07DA     		bge	.L14
 123:tactic2_blitz.c ****                 CyDelay(40);
 196              		.loc 1 123 0
 197 0026 2821     		movs	r1, #40
 198 0028 0846     		mov	r0, r1
 199              	.LVL22:
 200 002a FFF7FEFF 		bl	turn_left
 201              	.LVL23:
 124:tactic2_blitz.c ****         	}else if( -30 >= avrg_angle_grad ){
 202              		.loc 1 124 0
 203 002e 2820     		movs	r0, #40
 204 0030 FFF7FEFF 		bl	CyDelay
 205              	.LVL24:
 206 0034 31E0     		b	.L13
 207              	.LVL25:
 208              	.L14:
 125:tactic2_blitz.c ****         		// (-60; -30] grad
 209              		.loc 1 125 0
 210 0036 10F11D0F 		cmn	r0, #29
 211 003a 07DA     		bge	.L15
 127:tactic2_blitz.c ****                 CyDelay(30);
 212              		.loc 1 127 0
 213 003c 3C21     		movs	r1, #60
 214 003e 1420     		movs	r0, #20
 215              	.LVL26:
 216 0040 FFF7FEFF 		bl	drive_forward
 217              	.LVL27:
 128:tactic2_blitz.c ****         	}else if( 0 > avrg_angle_grad ){
 218              		.loc 1 128 0
 219 0044 1E20     		movs	r0, #30
 220 0046 FFF7FEFF 		bl	CyDelay
 221              	.LVL28:
 222 004a 26E0     		b	.L13
 223              	.LVL29:
 224              	.L15:
 129:tactic2_blitz.c ****         		// (-30; 0) grad
 225              		.loc 1 129 0
 226 004c 0028     		cmp	r0, #0
 227 004e 07DA     		bge	.L16
 131:tactic2_blitz.c ****                 CyDelay(40);
 228              		.loc 1 131 0
 229 0050 4621     		movs	r1, #70
 230 0052 3120     		movs	r0, #49
 231              	.LVL30:
 232 0054 FFF7FEFF 		bl	drive_forward
ARM GAS  C:\Users\ARMAND~1\AppData\Local\Temp\ccwqV4ia.s 			page 9


 233              	.LVL31:
 132:tactic2_blitz.c ****         	}else if( 60 <= avrg_angle_grad ){
 234              		.loc 1 132 0
 235 0058 2820     		movs	r0, #40
 236 005a FFF7FEFF 		bl	CyDelay
 237              	.LVL32:
 238 005e 1CE0     		b	.L13
 239              	.LVL33:
 240              	.L16:
 133:tactic2_blitz.c ****         		// [60; 90] grad
 241              		.loc 1 133 0
 242 0060 3B28     		cmp	r0, #59
 243 0062 07DD     		ble	.L17
 135:tactic2_blitz.c ****                 CyDelay(40);
 244              		.loc 1 135 0
 245 0064 2821     		movs	r1, #40
 246 0066 0846     		mov	r0, r1
 247              	.LVL34:
 248 0068 FFF7FEFF 		bl	turn_right
 249              	.LVL35:
 136:tactic2_blitz.c ****         	}else if( 30 <= avrg_angle_grad ){
 250              		.loc 1 136 0
 251 006c 2820     		movs	r0, #40
 252 006e FFF7FEFF 		bl	CyDelay
 253              	.LVL36:
 254 0072 12E0     		b	.L13
 255              	.LVL37:
 256              	.L17:
 137:tactic2_blitz.c ****         		// [30; 60) grad
 257              		.loc 1 137 0
 258 0074 1D28     		cmp	r0, #29
 259 0076 07DD     		ble	.L18
 139:tactic2_blitz.c ****                 CyDelay(30);
 260              		.loc 1 139 0
 261 0078 1421     		movs	r1, #20
 262 007a 3C20     		movs	r0, #60
 263              	.LVL38:
 264 007c FFF7FEFF 		bl	drive_forward
 265              	.LVL39:
 140:tactic2_blitz.c ****         	}else if( 0 <= avrg_angle_grad ){
 266              		.loc 1 140 0
 267 0080 1E20     		movs	r0, #30
 268 0082 FFF7FEFF 		bl	CyDelay
 269              	.LVL40:
 270 0086 08E0     		b	.L13
 271              	.LVL41:
 272              	.L18:
 141:tactic2_blitz.c ****         		// (0; 30) grad
 273              		.loc 1 141 0
 274 0088 0028     		cmp	r0, #0
 275 008a 06DB     		blt	.L13
 143:tactic2_blitz.c ****                 CyDelay(40);
 276              		.loc 1 143 0
 277 008c 3121     		movs	r1, #49
 278 008e 4620     		movs	r0, #70
 279              	.LVL42:
 280 0090 FFF7FEFF 		bl	drive_forward
ARM GAS  C:\Users\ARMAND~1\AppData\Local\Temp\ccwqV4ia.s 			page 10


 281              	.LVL43:
 144:tactic2_blitz.c ****         	}
 282              		.loc 1 144 0
 283 0094 2820     		movs	r0, #40
 284 0096 FFF7FEFF 		bl	CyDelay
 285              	.LVL44:
 286              	.L13:
 146:tactic2_blitz.c **** 
 287              		.loc 1 146 0
 288 009a 0A20     		movs	r0, #10
 289 009c FFF7FEFF 		bl	CyDelay
 290              	.LVL45:
 291              	.LBE2:
 292 00a0 08BD     		pop	{r3, pc}
 293              	.LVL46:
 294              	.L11:
 150:tactic2_blitz.c ****             //CyDelay(50);
 295              		.loc 1 150 0
 296 00a2 0021     		movs	r1, #0
 297 00a4 0846     		mov	r0, r1
 298              	.LVL47:
 299 00a6 FFF7FEFF 		bl	drive_forward
 300              	.LVL48:
 301 00aa 08BD     		pop	{r3, pc}
 302              		.cfi_endproc
 303              	.LFE64:
 304              		.size	ActOnEnemySpotted, .-ActOnEnemySpotted
 305              		.section	.text.RunTactic2,"ax",%progbits
 306              		.align	2
 307              		.global	RunTactic2
 308              		.thumb
 309              		.thumb_func
 310              		.type	RunTactic2, %function
 311              	RunTactic2:
 312              	.LFB63:
  51:tactic2_blitz.c ****     WaitForIRStart();
 313              		.loc 1 51 0
 314              		.cfi_startproc
 315              		@ args = 0, pretend = 0, frame = 0
 316              		@ frame_needed = 0, uses_anonymous_args = 0
 317 0000 38B5     		push	{r3, r4, r5, lr}
 318              		.cfi_def_cfa_offset 16
 319              		.cfi_offset 3, -16
 320              		.cfi_offset 4, -12
 321              		.cfi_offset 5, -8
 322              		.cfi_offset 14, -4
  52:tactic2_blitz.c ****     
 323              		.loc 1 52 0
 324 0002 FFF7FEFF 		bl	WaitForIRStart
 325              	.LVL49:
  64:tactic2_blitz.c ****     CyDelay(50);
 326              		.loc 1 64 0
 327 0006 1921     		movs	r1, #25
 328 0008 0846     		mov	r0, r1
 329 000a FFF7FEFF 		bl	drive_forward
 330              	.LVL50:
  65:tactic2_blitz.c **** 
ARM GAS  C:\Users\ARMAND~1\AppData\Local\Temp\ccwqV4ia.s 			page 11


 331              		.loc 1 65 0
 332 000e 3220     		movs	r0, #50
 333 0010 FFF7FEFF 		bl	CyDelay
 334              	.LVL51:
  69:tactic2_blitz.c ****     while (1) {
 335              		.loc 1 69 0
 336 0014 FFF7FEFF 		bl	millis
 337              	.LVL52:
 338 0018 0546     		mov	r5, r0
 339              	.LVL53:
 340              	.L25:
  72:tactic2_blitz.c **** 	    distSens = DistSensRead(); //Distance_sensor_value_Read();
 341              		.loc 1 72 0
 342 001a FFF7FEFF 		bl	LineSensRead
 343              	.LVL54:
 344 001e 124C     		ldr	r4, .L28
 345 0020 2070     		strb	r0, [r4]
  73:tactic2_blitz.c ****         //Sensor_Reset_Write(0xFF);  // why???
 346              		.loc 1 73 0
 347 0022 FFF7FEFF 		bl	DistSensRead
 348              	.LVL55:
  78:tactic2_blitz.c **** 			// line has detected
 349              		.loc 1 78 0
 350 0026 2378     		ldrb	r3, [r4]	@ zero_extendqisi2
 351 0028 2BB1     		cbz	r3, .L22
  80:tactic2_blitz.c **** 			timout_time = millis();
 352              		.loc 1 80 0
 353 002a FFF7FEFF 		bl	ActOnLineDetected
 354              	.LVL56:
  81:tactic2_blitz.c **** 		}
 355              		.loc 1 81 0
 356 002e FFF7FEFF 		bl	millis
 357              	.LVL57:
 358 0032 0546     		mov	r5, r0
 359              	.LVL58:
 360 0034 0AE0     		b	.L23
 361              	.LVL59:
 362              	.L22:
  83:tactic2_blitz.c **** 			// opponent spotted
 363              		.loc 1 83 0
 364 0036 28B1     		cbz	r0, .L24
  85:tactic2_blitz.c **** 			timout_time = millis();
 365              		.loc 1 85 0
 366 0038 FFF7FEFF 		bl	ActOnEnemySpotted
 367              	.LVL60:
  86:tactic2_blitz.c **** 		}
 368              		.loc 1 86 0
 369 003c FFF7FEFF 		bl	millis
 370              	.LVL61:
 371 0040 0546     		mov	r5, r0
 372              	.LVL62:
 373 0042 03E0     		b	.L23
 374              	.LVL63:
 375              	.L24:
  89:tactic2_blitz.c ****             //CyDelay(50);
 376              		.loc 1 89 0
 377 0044 0021     		movs	r1, #0
ARM GAS  C:\Users\ARMAND~1\AppData\Local\Temp\ccwqV4ia.s 			page 12


 378 0046 0846     		mov	r0, r1
 379 0048 FFF7FEFF 		bl	drive_forward
 380              	.LVL64:
 381              	.L23:
  93:tactic2_blitz.c **** 			timout_time = millis();
 382              		.loc 1 93 0
 383 004c FFF7FEFF 		bl	millis
 384              	.LVL65:
 385 0050 401B     		subs	r0, r0, r5
 386 0052 40F2DC53 		movw	r3, #1500
 387 0056 9842     		cmp	r0, r3
 388 0058 DFD9     		bls	.L25
  94:tactic2_blitz.c **** 			DoSomething();
 389              		.loc 1 94 0
 390 005a FFF7FEFF 		bl	millis
 391              	.LVL66:
 392 005e 0546     		mov	r5, r0
 393              	.LVL67:
  95:tactic2_blitz.c **** 		}
 394              		.loc 1 95 0
 395 0060 FFF7FEFF 		bl	DoSomething
 396              	.LVL68:
 397 0064 D9E7     		b	.L25
 398              	.L29:
 399 0066 00BF     		.align	2
 400              	.L28:
 401 0068 00000000 		.word	.LANCHOR0
 402              		.cfi_endproc
 403              	.LFE63:
 404              		.size	RunTactic2, .-RunTactic2
 405              		.comm	gMotor,16,4
 406              		.comm	gLine,96,4
 407              		.bss
 408              		.set	.LANCHOR0,. + 0
 409              		.type	lineSens, %object
 410              		.size	lineSens, 1
 411              	lineSens:
 412 0000 00       		.space	1
 413              		.text
 414              	.Letext0:
 415              		.file 2 "c:\\program files (x86)\\cypress\\psoc creator\\4.1\\psoc creator\\import\\gnu\\arm\\5.4.
 416              		.file 3 "c:\\program files (x86)\\cypress\\psoc creator\\4.1\\psoc creator\\import\\gnu\\arm\\5.4.
 417              		.file 4 "sensors.h"
 418              		.file 5 "drive.h"
 419              		.file 6 "Generated_Source\\PSoC5/core_cm3.h"
 420              		.file 7 "Generated_Source\\PSoC5/CyLib.h"
 421              		.file 8 "timer_time.h"
 422              		.section	.debug_info,"",%progbits
 423              	.Ldebug_info0:
 424 0000 A1060000 		.4byte	0x6a1
 425 0004 0400     		.2byte	0x4
 426 0006 00000000 		.4byte	.Ldebug_abbrev0
 427 000a 04       		.byte	0x4
 428 000b 01       		.uleb128 0x1
 429 000c BB020000 		.4byte	.LASF59
 430 0010 0C       		.byte	0xc
 431 0011 83010000 		.4byte	.LASF60
ARM GAS  C:\Users\ARMAND~1\AppData\Local\Temp\ccwqV4ia.s 			page 13


 432 0015 59000000 		.4byte	.LASF61
 433 0019 00000000 		.4byte	.Ldebug_ranges0+0
 434 001d 00000000 		.4byte	0
 435 0021 00000000 		.4byte	.Ldebug_line0
 436 0025 02       		.uleb128 0x2
 437 0026 C9010000 		.4byte	.LASF0
 438 002a 02       		.byte	0x2
 439 002b 1B       		.byte	0x1b
 440 002c 30000000 		.4byte	0x30
 441 0030 03       		.uleb128 0x3
 442 0031 01       		.byte	0x1
 443 0032 06       		.byte	0x6
 444 0033 57010000 		.4byte	.LASF2
 445 0037 02       		.uleb128 0x2
 446 0038 1B010000 		.4byte	.LASF1
 447 003c 02       		.byte	0x2
 448 003d 1D       		.byte	0x1d
 449 003e 42000000 		.4byte	0x42
 450 0042 03       		.uleb128 0x3
 451 0043 01       		.byte	0x1
 452 0044 08       		.byte	0x8
 453 0045 49010000 		.4byte	.LASF3
 454 0049 03       		.uleb128 0x3
 455 004a 02       		.byte	0x2
 456 004b 05       		.byte	0x5
 457 004c 2F000000 		.4byte	.LASF4
 458 0050 03       		.uleb128 0x3
 459 0051 02       		.byte	0x2
 460 0052 07       		.byte	0x7
 461 0053 E9010000 		.4byte	.LASF5
 462 0057 02       		.uleb128 0x2
 463 0058 DF010000 		.4byte	.LASF6
 464 005c 02       		.byte	0x2
 465 005d 3F       		.byte	0x3f
 466 005e 62000000 		.4byte	0x62
 467 0062 03       		.uleb128 0x3
 468 0063 04       		.byte	0x4
 469 0064 05       		.byte	0x5
 470 0065 04010000 		.4byte	.LASF7
 471 0069 02       		.uleb128 0x2
 472 006a 4E000000 		.4byte	.LASF8
 473 006e 02       		.byte	0x2
 474 006f 41       		.byte	0x41
 475 0070 74000000 		.4byte	0x74
 476 0074 03       		.uleb128 0x3
 477 0075 04       		.byte	0x4
 478 0076 07       		.byte	0x7
 479 0077 3D020000 		.4byte	.LASF9
 480 007b 03       		.uleb128 0x3
 481 007c 08       		.byte	0x8
 482 007d 05       		.byte	0x5
 483 007e EB000000 		.4byte	.LASF10
 484 0082 03       		.uleb128 0x3
 485 0083 08       		.byte	0x8
 486 0084 07       		.byte	0x7
 487 0085 63010000 		.4byte	.LASF11
 488 0089 04       		.uleb128 0x4
ARM GAS  C:\Users\ARMAND~1\AppData\Local\Temp\ccwqV4ia.s 			page 14


 489 008a 04       		.byte	0x4
 490 008b 05       		.byte	0x5
 491 008c 696E7400 		.ascii	"int\000"
 492 0090 03       		.uleb128 0x3
 493 0091 04       		.byte	0x4
 494 0092 07       		.byte	0x7
 495 0093 93010000 		.4byte	.LASF12
 496 0097 02       		.uleb128 0x2
 497 0098 1B000000 		.4byte	.LASF13
 498 009c 03       		.byte	0x3
 499 009d 14       		.byte	0x14
 500 009e 25000000 		.4byte	0x25
 501 00a2 02       		.uleb128 0x2
 502 00a3 A9000000 		.4byte	.LASF14
 503 00a7 03       		.byte	0x3
 504 00a8 18       		.byte	0x18
 505 00a9 37000000 		.4byte	0x37
 506 00ad 02       		.uleb128 0x2
 507 00ae D7010000 		.4byte	.LASF15
 508 00b2 03       		.byte	0x3
 509 00b3 2C       		.byte	0x2c
 510 00b4 57000000 		.4byte	0x57
 511 00b8 02       		.uleb128 0x2
 512 00b9 7A010000 		.4byte	.LASF16
 513 00bd 03       		.byte	0x3
 514 00be 30       		.byte	0x30
 515 00bf 69000000 		.4byte	0x69
 516 00c3 03       		.uleb128 0x3
 517 00c4 04       		.byte	0x4
 518 00c5 04       		.byte	0x4
 519 00c6 CA000000 		.4byte	.LASF17
 520 00ca 03       		.uleb128 0x3
 521 00cb 08       		.byte	0x8
 522 00cc 04       		.byte	0x4
 523 00cd 5A020000 		.4byte	.LASF18
 524 00d1 03       		.uleb128 0x3
 525 00d2 01       		.byte	0x1
 526 00d3 08       		.byte	0x8
 527 00d4 D2010000 		.4byte	.LASF19
 528 00d8 03       		.uleb128 0x3
 529 00d9 08       		.byte	0x8
 530 00da 04       		.byte	0x4
 531 00db 42000000 		.4byte	.LASF20
 532 00df 03       		.uleb128 0x3
 533 00e0 04       		.byte	0x4
 534 00e1 07       		.byte	0x7
 535 00e2 39000000 		.4byte	.LASF21
 536 00e6 05       		.uleb128 0x5
 537 00e7 7B020000 		.4byte	.LASF32
 538 00eb 60       		.byte	0x60
 539 00ec 04       		.byte	0x4
 540 00ed 2C       		.byte	0x2c
 541 00ee 6B010000 		.4byte	0x16b
 542 00f2 06       		.uleb128 0x6
 543 00f3 5D030000 		.4byte	.LASF22
 544 00f7 04       		.byte	0x4
 545 00f8 2D       		.byte	0x2d
ARM GAS  C:\Users\ARMAND~1\AppData\Local\Temp\ccwqV4ia.s 			page 15


 546 00f9 89000000 		.4byte	0x89
 547 00fd 00       		.byte	0
 548 00fe 06       		.uleb128 0x6
 549 00ff C2000000 		.4byte	.LASF23
 550 0103 04       		.byte	0x4
 551 0104 2E       		.byte	0x2e
 552 0105 89000000 		.4byte	0x89
 553 0109 04       		.byte	0x4
 554 010a 06       		.uleb128 0x6
 555 010b A1020000 		.4byte	.LASF24
 556 010f 04       		.byte	0x4
 557 0110 2F       		.byte	0x2f
 558 0111 89000000 		.4byte	0x89
 559 0115 08       		.byte	0x8
 560 0116 06       		.uleb128 0x6
 561 0117 BA000000 		.4byte	.LASF25
 562 011b 04       		.byte	0x4
 563 011c 30       		.byte	0x30
 564 011d 89000000 		.4byte	0x89
 565 0121 0C       		.byte	0xc
 566 0122 06       		.uleb128 0x6
 567 0123 43010000 		.4byte	.LASF26
 568 0127 04       		.byte	0x4
 569 0128 32       		.byte	0x32
 570 0129 89000000 		.4byte	0x89
 571 012d 10       		.byte	0x10
 572 012e 06       		.uleb128 0x6
 573 012f 35010000 		.4byte	.LASF27
 574 0133 04       		.byte	0x4
 575 0134 33       		.byte	0x33
 576 0135 89000000 		.4byte	0x89
 577 0139 14       		.byte	0x14
 578 013a 06       		.uleb128 0x6
 579 013b 14010000 		.4byte	.LASF28
 580 013f 04       		.byte	0x4
 581 0140 35       		.byte	0x35
 582 0141 89000000 		.4byte	0x89
 583 0145 18       		.byte	0x18
 584 0146 06       		.uleb128 0x6
 585 0147 73020000 		.4byte	.LASF29
 586 014b 04       		.byte	0x4
 587 014c 36       		.byte	0x36
 588 014d 89000000 		.4byte	0x89
 589 0151 1C       		.byte	0x1c
 590 0152 06       		.uleb128 0x6
 591 0153 C4010000 		.4byte	.LASF30
 592 0157 04       		.byte	0x4
 593 0158 37       		.byte	0x37
 594 0159 89000000 		.4byte	0x89
 595 015d 20       		.byte	0x20
 596 015e 06       		.uleb128 0x6
 597 015f B1000000 		.4byte	.LASF31
 598 0163 04       		.byte	0x4
 599 0164 39       		.byte	0x39
 600 0165 6B010000 		.4byte	0x16b
 601 0169 24       		.byte	0x24
 602 016a 00       		.byte	0
ARM GAS  C:\Users\ARMAND~1\AppData\Local\Temp\ccwqV4ia.s 			page 16


 603 016b 07       		.uleb128 0x7
 604 016c 89000000 		.4byte	0x89
 605 0170 7B010000 		.4byte	0x17b
 606 0174 08       		.uleb128 0x8
 607 0175 DF000000 		.4byte	0xdf
 608 0179 0E       		.byte	0xe
 609 017a 00       		.byte	0
 610 017b 05       		.uleb128 0x5
 611 017c 10000000 		.4byte	.LASF33
 612 0180 10       		.byte	0x10
 613 0181 05       		.byte	0x5
 614 0182 11       		.byte	0x11
 615 0183 B8010000 		.4byte	0x1b8
 616 0187 06       		.uleb128 0x6
 617 0188 51030000 		.4byte	.LASF34
 618 018c 05       		.byte	0x5
 619 018d 12       		.byte	0x12
 620 018e 89000000 		.4byte	0x89
 621 0192 00       		.byte	0
 622 0193 06       		.uleb128 0x6
 623 0194 4F020000 		.4byte	.LASF35
 624 0198 05       		.byte	0x5
 625 0199 13       		.byte	0x13
 626 019a 89000000 		.4byte	0x89
 627 019e 04       		.byte	0x4
 628 019f 06       		.uleb128 0x6
 629 01a0 FC010000 		.4byte	.LASF36
 630 01a4 05       		.byte	0x5
 631 01a5 14       		.byte	0x14
 632 01a6 89000000 		.4byte	0x89
 633 01aa 08       		.byte	0x8
 634 01ab 06       		.uleb128 0x6
 635 01ac 0E020000 		.4byte	.LASF37
 636 01b0 05       		.byte	0x5
 637 01b1 15       		.byte	0x15
 638 01b2 89000000 		.4byte	0x89
 639 01b6 0C       		.byte	0xc
 640 01b7 00       		.byte	0
 641 01b8 09       		.uleb128 0x9
 642 01b9 65030000 		.4byte	.LASF38
 643 01bd 01       		.byte	0x1
 644 01be BB       		.byte	0xbb
 645 01bf 00000000 		.4byte	.LFB66
 646 01c3 20000000 		.4byte	.LFE66-.LFB66
 647 01c7 01       		.uleb128 0x1
 648 01c8 9C       		.byte	0x9c
 649 01c9 23020000 		.4byte	0x223
 650 01cd 0A       		.uleb128 0xa
 651 01ce 0A000000 		.4byte	.LVL0
 652 01d2 36060000 		.4byte	0x636
 653 01d6 E7010000 		.4byte	0x1e7
 654 01da 0B       		.uleb128 0xb
 655 01db 01       		.uleb128 0x1
 656 01dc 50       		.byte	0x50
 657 01dd 02       		.uleb128 0x2
 658 01de 08       		.byte	0x8
 659 01df 2D       		.byte	0x2d
ARM GAS  C:\Users\ARMAND~1\AppData\Local\Temp\ccwqV4ia.s 			page 17


 660 01e0 0B       		.uleb128 0xb
 661 01e1 01       		.uleb128 0x1
 662 01e2 51       		.byte	0x51
 663 01e3 02       		.uleb128 0x2
 664 01e4 08       		.byte	0x8
 665 01e5 32       		.byte	0x32
 666 01e6 00       		.byte	0
 667 01e7 0A       		.uleb128 0xa
 668 01e8 10000000 		.4byte	.LVL1
 669 01ec 41060000 		.4byte	0x641
 670 01f0 FB010000 		.4byte	0x1fb
 671 01f4 0B       		.uleb128 0xb
 672 01f5 01       		.uleb128 0x1
 673 01f6 50       		.byte	0x50
 674 01f7 02       		.uleb128 0x2
 675 01f8 08       		.byte	0x8
 676 01f9 32       		.byte	0x32
 677 01fa 00       		.byte	0
 678 01fb 0A       		.uleb128 0xa
 679 01fc 18000000 		.4byte	.LVL2
 680 0200 36060000 		.4byte	0x636
 681 0204 13020000 		.4byte	0x213
 682 0208 0B       		.uleb128 0xb
 683 0209 01       		.uleb128 0x1
 684 020a 50       		.byte	0x50
 685 020b 01       		.uleb128 0x1
 686 020c 30       		.byte	0x30
 687 020d 0B       		.uleb128 0xb
 688 020e 01       		.uleb128 0x1
 689 020f 51       		.byte	0x51
 690 0210 01       		.uleb128 0x1
 691 0211 30       		.byte	0x30
 692 0212 00       		.byte	0
 693 0213 0C       		.uleb128 0xc
 694 0214 1E000000 		.4byte	.LVL3
 695 0218 41060000 		.4byte	0x641
 696 021c 0B       		.uleb128 0xb
 697 021d 01       		.uleb128 0x1
 698 021e 50       		.byte	0x50
 699 021f 01       		.uleb128 0x1
 700 0220 3A       		.byte	0x3a
 701 0221 00       		.byte	0
 702 0222 00       		.byte	0
 703 0223 09       		.uleb128 0x9
 704 0224 8F020000 		.4byte	.LASF39
 705 0228 01       		.byte	0x1
 706 0229 9E       		.byte	0x9e
 707 022a 00000000 		.4byte	.LFB65
 708 022e 78000000 		.4byte	.LFE65-.LFB65
 709 0232 01       		.uleb128 0x1
 710 0233 9C       		.byte	0x9c
 711 0234 4B030000 		.4byte	0x34b
 712 0238 0A       		.uleb128 0xa
 713 0239 16000000 		.4byte	.LVL4
 714 023d 4C060000 		.4byte	0x64c
 715 0241 52020000 		.4byte	0x252
 716 0245 0B       		.uleb128 0xb
ARM GAS  C:\Users\ARMAND~1\AppData\Local\Temp\ccwqV4ia.s 			page 18


 717 0246 01       		.uleb128 0x1
 718 0247 50       		.byte	0x50
 719 0248 02       		.uleb128 0x2
 720 0249 08       		.byte	0x8
 721 024a 28       		.byte	0x28
 722 024b 0B       		.uleb128 0xb
 723 024c 01       		.uleb128 0x1
 724 024d 51       		.byte	0x51
 725 024e 02       		.uleb128 0x2
 726 024f 08       		.byte	0x8
 727 0250 28       		.byte	0x28
 728 0251 00       		.byte	0
 729 0252 0A       		.uleb128 0xa
 730 0253 1E000000 		.4byte	.LVL5
 731 0257 41060000 		.4byte	0x641
 732 025b 67020000 		.4byte	0x267
 733 025f 0B       		.uleb128 0xb
 734 0260 01       		.uleb128 0x1
 735 0261 50       		.byte	0x50
 736 0262 03       		.uleb128 0x3
 737 0263 0A       		.byte	0xa
 738 0264 9001     		.2byte	0x190
 739 0266 00       		.byte	0
 740 0267 0A       		.uleb128 0xa
 741 0268 26000000 		.4byte	.LVL6
 742 026c 57060000 		.4byte	0x657
 743 0270 81020000 		.4byte	0x281
 744 0274 0B       		.uleb128 0xb
 745 0275 01       		.uleb128 0x1
 746 0276 50       		.byte	0x50
 747 0277 02       		.uleb128 0x2
 748 0278 08       		.byte	0x8
 749 0279 28       		.byte	0x28
 750 027a 0B       		.uleb128 0xb
 751 027b 01       		.uleb128 0x1
 752 027c 51       		.byte	0x51
 753 027d 02       		.uleb128 0x2
 754 027e 08       		.byte	0x8
 755 027f 28       		.byte	0x28
 756 0280 00       		.byte	0
 757 0281 0A       		.uleb128 0xa
 758 0282 2E000000 		.4byte	.LVL7
 759 0286 41060000 		.4byte	0x641
 760 028a 96020000 		.4byte	0x296
 761 028e 0B       		.uleb128 0xb
 762 028f 01       		.uleb128 0x1
 763 0290 50       		.byte	0x50
 764 0291 03       		.uleb128 0x3
 765 0292 0A       		.byte	0xa
 766 0293 2C01     		.2byte	0x12c
 767 0295 00       		.byte	0
 768 0296 0A       		.uleb128 0xa
 769 0297 3A000000 		.4byte	.LVL8
 770 029b 4C060000 		.4byte	0x64c
 771 029f B0020000 		.4byte	0x2b0
 772 02a3 0B       		.uleb128 0xb
 773 02a4 01       		.uleb128 0x1
ARM GAS  C:\Users\ARMAND~1\AppData\Local\Temp\ccwqV4ia.s 			page 19


 774 02a5 50       		.byte	0x50
 775 02a6 02       		.uleb128 0x2
 776 02a7 08       		.byte	0x8
 777 02a8 28       		.byte	0x28
 778 02a9 0B       		.uleb128 0xb
 779 02aa 01       		.uleb128 0x1
 780 02ab 51       		.byte	0x51
 781 02ac 02       		.uleb128 0x2
 782 02ad 08       		.byte	0x8
 783 02ae 28       		.byte	0x28
 784 02af 00       		.byte	0
 785 02b0 0A       		.uleb128 0xa
 786 02b1 40000000 		.4byte	.LVL9
 787 02b5 41060000 		.4byte	0x641
 788 02b9 C4020000 		.4byte	0x2c4
 789 02bd 0B       		.uleb128 0xb
 790 02be 01       		.uleb128 0x1
 791 02bf 50       		.byte	0x50
 792 02c0 02       		.uleb128 0x2
 793 02c1 08       		.byte	0x8
 794 02c2 96       		.byte	0x96
 795 02c3 00       		.byte	0
 796 02c4 0A       		.uleb128 0xa
 797 02c5 48000000 		.4byte	.LVL10
 798 02c9 62060000 		.4byte	0x662
 799 02cd DE020000 		.4byte	0x2de
 800 02d1 0B       		.uleb128 0xb
 801 02d2 01       		.uleb128 0x1
 802 02d3 50       		.byte	0x50
 803 02d4 02       		.uleb128 0x2
 804 02d5 08       		.byte	0x8
 805 02d6 28       		.byte	0x28
 806 02d7 0B       		.uleb128 0xb
 807 02d8 01       		.uleb128 0x1
 808 02d9 51       		.byte	0x51
 809 02da 02       		.uleb128 0x2
 810 02db 08       		.byte	0x8
 811 02dc 28       		.byte	0x28
 812 02dd 00       		.byte	0
 813 02de 0A       		.uleb128 0xa
 814 02df 4E000000 		.4byte	.LVL11
 815 02e3 41060000 		.4byte	0x641
 816 02e7 F2020000 		.4byte	0x2f2
 817 02eb 0B       		.uleb128 0xb
 818 02ec 01       		.uleb128 0x1
 819 02ed 50       		.byte	0x50
 820 02ee 02       		.uleb128 0x2
 821 02ef 08       		.byte	0x8
 822 02f0 C8       		.byte	0xc8
 823 02f1 00       		.byte	0
 824 02f2 0A       		.uleb128 0xa
 825 02f3 5E000000 		.4byte	.LVL12
 826 02f7 4C060000 		.4byte	0x64c
 827 02fb 0C030000 		.4byte	0x30c
 828 02ff 0B       		.uleb128 0xb
 829 0300 01       		.uleb128 0x1
 830 0301 50       		.byte	0x50
ARM GAS  C:\Users\ARMAND~1\AppData\Local\Temp\ccwqV4ia.s 			page 20


 831 0302 02       		.uleb128 0x2
 832 0303 08       		.byte	0x8
 833 0304 28       		.byte	0x28
 834 0305 0B       		.uleb128 0xb
 835 0306 01       		.uleb128 0x1
 836 0307 51       		.byte	0x51
 837 0308 02       		.uleb128 0x2
 838 0309 08       		.byte	0x8
 839 030a 28       		.byte	0x28
 840 030b 00       		.byte	0
 841 030c 0A       		.uleb128 0xa
 842 030d 64000000 		.4byte	.LVL13
 843 0311 41060000 		.4byte	0x641
 844 0315 20030000 		.4byte	0x320
 845 0319 0B       		.uleb128 0xb
 846 031a 01       		.uleb128 0x1
 847 031b 50       		.byte	0x50
 848 031c 02       		.uleb128 0x2
 849 031d 08       		.byte	0x8
 850 031e 96       		.byte	0x96
 851 031f 00       		.byte	0
 852 0320 0A       		.uleb128 0xa
 853 0321 6C000000 		.4byte	.LVL14
 854 0325 57060000 		.4byte	0x657
 855 0329 3A030000 		.4byte	0x33a
 856 032d 0B       		.uleb128 0xb
 857 032e 01       		.uleb128 0x1
 858 032f 50       		.byte	0x50
 859 0330 02       		.uleb128 0x2
 860 0331 08       		.byte	0x8
 861 0332 28       		.byte	0x28
 862 0333 0B       		.uleb128 0xb
 863 0334 01       		.uleb128 0x1
 864 0335 51       		.byte	0x51
 865 0336 02       		.uleb128 0x2
 866 0337 08       		.byte	0x8
 867 0338 28       		.byte	0x28
 868 0339 00       		.byte	0
 869 033a 0C       		.uleb128 0xc
 870 033b 72000000 		.4byte	.LVL15
 871 033f 41060000 		.4byte	0x641
 872 0343 0B       		.uleb128 0xb
 873 0344 01       		.uleb128 0x1
 874 0345 50       		.byte	0x50
 875 0346 02       		.uleb128 0x2
 876 0347 08       		.byte	0x8
 877 0348 C8       		.byte	0xc8
 878 0349 00       		.byte	0
 879 034a 00       		.byte	0
 880 034b 09       		.uleb128 0x9
 881 034c 61020000 		.4byte	.LASF40
 882 0350 01       		.byte	0x1
 883 0351 69       		.byte	0x69
 884 0352 00000000 		.4byte	.LFB64
 885 0356 AC000000 		.4byte	.LFE64-.LFB64
 886 035a 01       		.uleb128 0x1
 887 035b 9C       		.byte	0x9c
ARM GAS  C:\Users\ARMAND~1\AppData\Local\Temp\ccwqV4ia.s 			page 21


 888 035c 0F050000 		.4byte	0x50f
 889 0360 0D       		.uleb128 0xd
 890 0361 07000000 		.4byte	.LASF41
 891 0365 01       		.byte	0x1
 892 0366 6C       		.byte	0x6c
 893 0367 89000000 		.4byte	0x89
 894 036b 00000000 		.4byte	.LLST0
 895 036f 0E       		.uleb128 0xe
 896 0370 0A000000 		.4byte	.LBB2
 897 0374 96000000 		.4byte	.LBE2-.LBB2
 898 0378 F1040000 		.4byte	0x4f1
 899 037c 0D       		.uleb128 0xd
 900 037d 25010000 		.4byte	.LASF42
 901 0381 01       		.byte	0x1
 902 0382 72       		.byte	0x72
 903 0383 97000000 		.4byte	0x97
 904 0387 1E000000 		.4byte	.LLST1
 905 038b 0F       		.uleb128 0xf
 906 038c 70776D00 		.ascii	"pwm\000"
 907 0390 01       		.byte	0x1
 908 0391 74       		.byte	0x74
 909 0392 97000000 		.4byte	0x97
 910 0396 73000000 		.4byte	.LLST2
 911 039a 10       		.uleb128 0x10
 912 039b 0E000000 		.4byte	.LVL17
 913 039f 6D060000 		.4byte	0x66d
 914 03a3 0A       		.uleb128 0xa
 915 03a4 18000000 		.4byte	.LVL19
 916 03a8 36060000 		.4byte	0x636
 917 03ac BD030000 		.4byte	0x3bd
 918 03b0 0B       		.uleb128 0xb
 919 03b1 01       		.uleb128 0x1
 920 03b2 50       		.byte	0x50
 921 03b3 02       		.uleb128 0x2
 922 03b4 08       		.byte	0x8
 923 03b5 46       		.byte	0x46
 924 03b6 0B       		.uleb128 0xb
 925 03b7 01       		.uleb128 0x1
 926 03b8 51       		.byte	0x51
 927 03b9 02       		.uleb128 0x2
 928 03ba 08       		.byte	0x8
 929 03bb 46       		.byte	0x46
 930 03bc 00       		.byte	0
 931 03bd 0A       		.uleb128 0xa
 932 03be 1E000000 		.4byte	.LVL20
 933 03c2 41060000 		.4byte	0x641
 934 03c6 D1030000 		.4byte	0x3d1
 935 03ca 0B       		.uleb128 0xb
 936 03cb 01       		.uleb128 0x1
 937 03cc 50       		.byte	0x50
 938 03cd 02       		.uleb128 0x2
 939 03ce 08       		.byte	0x8
 940 03cf 28       		.byte	0x28
 941 03d0 00       		.byte	0
 942 03d1 0A       		.uleb128 0xa
 943 03d2 2E000000 		.4byte	.LVL23
 944 03d6 57060000 		.4byte	0x657
ARM GAS  C:\Users\ARMAND~1\AppData\Local\Temp\ccwqV4ia.s 			page 22


 945 03da EB030000 		.4byte	0x3eb
 946 03de 0B       		.uleb128 0xb
 947 03df 01       		.uleb128 0x1
 948 03e0 50       		.byte	0x50
 949 03e1 02       		.uleb128 0x2
 950 03e2 08       		.byte	0x8
 951 03e3 28       		.byte	0x28
 952 03e4 0B       		.uleb128 0xb
 953 03e5 01       		.uleb128 0x1
 954 03e6 51       		.byte	0x51
 955 03e7 02       		.uleb128 0x2
 956 03e8 08       		.byte	0x8
 957 03e9 28       		.byte	0x28
 958 03ea 00       		.byte	0
 959 03eb 0A       		.uleb128 0xa
 960 03ec 34000000 		.4byte	.LVL24
 961 03f0 41060000 		.4byte	0x641
 962 03f4 FF030000 		.4byte	0x3ff
 963 03f8 0B       		.uleb128 0xb
 964 03f9 01       		.uleb128 0x1
 965 03fa 50       		.byte	0x50
 966 03fb 02       		.uleb128 0x2
 967 03fc 08       		.byte	0x8
 968 03fd 28       		.byte	0x28
 969 03fe 00       		.byte	0
 970 03ff 0A       		.uleb128 0xa
 971 0400 44000000 		.4byte	.LVL27
 972 0404 36060000 		.4byte	0x636
 973 0408 18040000 		.4byte	0x418
 974 040c 0B       		.uleb128 0xb
 975 040d 01       		.uleb128 0x1
 976 040e 50       		.byte	0x50
 977 040f 01       		.uleb128 0x1
 978 0410 44       		.byte	0x44
 979 0411 0B       		.uleb128 0xb
 980 0412 01       		.uleb128 0x1
 981 0413 51       		.byte	0x51
 982 0414 02       		.uleb128 0x2
 983 0415 08       		.byte	0x8
 984 0416 3C       		.byte	0x3c
 985 0417 00       		.byte	0
 986 0418 0A       		.uleb128 0xa
 987 0419 4A000000 		.4byte	.LVL28
 988 041d 41060000 		.4byte	0x641
 989 0421 2B040000 		.4byte	0x42b
 990 0425 0B       		.uleb128 0xb
 991 0426 01       		.uleb128 0x1
 992 0427 50       		.byte	0x50
 993 0428 01       		.uleb128 0x1
 994 0429 4E       		.byte	0x4e
 995 042a 00       		.byte	0
 996 042b 0A       		.uleb128 0xa
 997 042c 58000000 		.4byte	.LVL31
 998 0430 36060000 		.4byte	0x636
 999 0434 45040000 		.4byte	0x445
 1000 0438 0B       		.uleb128 0xb
 1001 0439 01       		.uleb128 0x1
ARM GAS  C:\Users\ARMAND~1\AppData\Local\Temp\ccwqV4ia.s 			page 23


 1002 043a 50       		.byte	0x50
 1003 043b 02       		.uleb128 0x2
 1004 043c 08       		.byte	0x8
 1005 043d 31       		.byte	0x31
 1006 043e 0B       		.uleb128 0xb
 1007 043f 01       		.uleb128 0x1
 1008 0440 51       		.byte	0x51
 1009 0441 02       		.uleb128 0x2
 1010 0442 08       		.byte	0x8
 1011 0443 46       		.byte	0x46
 1012 0444 00       		.byte	0
 1013 0445 0A       		.uleb128 0xa
 1014 0446 5E000000 		.4byte	.LVL32
 1015 044a 41060000 		.4byte	0x641
 1016 044e 59040000 		.4byte	0x459
 1017 0452 0B       		.uleb128 0xb
 1018 0453 01       		.uleb128 0x1
 1019 0454 50       		.byte	0x50
 1020 0455 02       		.uleb128 0x2
 1021 0456 08       		.byte	0x8
 1022 0457 28       		.byte	0x28
 1023 0458 00       		.byte	0
 1024 0459 0A       		.uleb128 0xa
 1025 045a 6C000000 		.4byte	.LVL35
 1026 045e 62060000 		.4byte	0x662
 1027 0462 73040000 		.4byte	0x473
 1028 0466 0B       		.uleb128 0xb
 1029 0467 01       		.uleb128 0x1
 1030 0468 50       		.byte	0x50
 1031 0469 02       		.uleb128 0x2
 1032 046a 08       		.byte	0x8
 1033 046b 28       		.byte	0x28
 1034 046c 0B       		.uleb128 0xb
 1035 046d 01       		.uleb128 0x1
 1036 046e 51       		.byte	0x51
 1037 046f 02       		.uleb128 0x2
 1038 0470 08       		.byte	0x8
 1039 0471 28       		.byte	0x28
 1040 0472 00       		.byte	0
 1041 0473 0A       		.uleb128 0xa
 1042 0474 72000000 		.4byte	.LVL36
 1043 0478 41060000 		.4byte	0x641
 1044 047c 87040000 		.4byte	0x487
 1045 0480 0B       		.uleb128 0xb
 1046 0481 01       		.uleb128 0x1
 1047 0482 50       		.byte	0x50
 1048 0483 02       		.uleb128 0x2
 1049 0484 08       		.byte	0x8
 1050 0485 28       		.byte	0x28
 1051 0486 00       		.byte	0
 1052 0487 0A       		.uleb128 0xa
 1053 0488 80000000 		.4byte	.LVL39
 1054 048c 36060000 		.4byte	0x636
 1055 0490 A0040000 		.4byte	0x4a0
 1056 0494 0B       		.uleb128 0xb
 1057 0495 01       		.uleb128 0x1
 1058 0496 50       		.byte	0x50
ARM GAS  C:\Users\ARMAND~1\AppData\Local\Temp\ccwqV4ia.s 			page 24


 1059 0497 02       		.uleb128 0x2
 1060 0498 08       		.byte	0x8
 1061 0499 3C       		.byte	0x3c
 1062 049a 0B       		.uleb128 0xb
 1063 049b 01       		.uleb128 0x1
 1064 049c 51       		.byte	0x51
 1065 049d 01       		.uleb128 0x1
 1066 049e 44       		.byte	0x44
 1067 049f 00       		.byte	0
 1068 04a0 0A       		.uleb128 0xa
 1069 04a1 86000000 		.4byte	.LVL40
 1070 04a5 41060000 		.4byte	0x641
 1071 04a9 B3040000 		.4byte	0x4b3
 1072 04ad 0B       		.uleb128 0xb
 1073 04ae 01       		.uleb128 0x1
 1074 04af 50       		.byte	0x50
 1075 04b0 01       		.uleb128 0x1
 1076 04b1 4E       		.byte	0x4e
 1077 04b2 00       		.byte	0
 1078 04b3 0A       		.uleb128 0xa
 1079 04b4 94000000 		.4byte	.LVL43
 1080 04b8 36060000 		.4byte	0x636
 1081 04bc CD040000 		.4byte	0x4cd
 1082 04c0 0B       		.uleb128 0xb
 1083 04c1 01       		.uleb128 0x1
 1084 04c2 50       		.byte	0x50
 1085 04c3 02       		.uleb128 0x2
 1086 04c4 08       		.byte	0x8
 1087 04c5 46       		.byte	0x46
 1088 04c6 0B       		.uleb128 0xb
 1089 04c7 01       		.uleb128 0x1
 1090 04c8 51       		.byte	0x51
 1091 04c9 02       		.uleb128 0x2
 1092 04ca 08       		.byte	0x8
 1093 04cb 31       		.byte	0x31
 1094 04cc 00       		.byte	0
 1095 04cd 0A       		.uleb128 0xa
 1096 04ce 9A000000 		.4byte	.LVL44
 1097 04d2 41060000 		.4byte	0x641
 1098 04d6 E1040000 		.4byte	0x4e1
 1099 04da 0B       		.uleb128 0xb
 1100 04db 01       		.uleb128 0x1
 1101 04dc 50       		.byte	0x50
 1102 04dd 02       		.uleb128 0x2
 1103 04de 08       		.byte	0x8
 1104 04df 28       		.byte	0x28
 1105 04e0 00       		.byte	0
 1106 04e1 0C       		.uleb128 0xc
 1107 04e2 A0000000 		.4byte	.LVL45
 1108 04e6 41060000 		.4byte	0x641
 1109 04ea 0B       		.uleb128 0xb
 1110 04eb 01       		.uleb128 0x1
 1111 04ec 50       		.byte	0x50
 1112 04ed 01       		.uleb128 0x1
 1113 04ee 3A       		.byte	0x3a
 1114 04ef 00       		.byte	0
 1115 04f0 00       		.byte	0
ARM GAS  C:\Users\ARMAND~1\AppData\Local\Temp\ccwqV4ia.s 			page 25


 1116 04f1 10       		.uleb128 0x10
 1117 04f2 06000000 		.4byte	.LVL16
 1118 04f6 78060000 		.4byte	0x678
 1119 04fa 0C       		.uleb128 0xc
 1120 04fb AA000000 		.4byte	.LVL48
 1121 04ff 36060000 		.4byte	0x636
 1122 0503 0B       		.uleb128 0xb
 1123 0504 01       		.uleb128 0x1
 1124 0505 50       		.byte	0x50
 1125 0506 01       		.uleb128 0x1
 1126 0507 30       		.byte	0x30
 1127 0508 0B       		.uleb128 0xb
 1128 0509 01       		.uleb128 0x1
 1129 050a 51       		.byte	0x51
 1130 050b 01       		.uleb128 0x1
 1131 050c 30       		.byte	0x30
 1132 050d 00       		.byte	0
 1133 050e 00       		.byte	0
 1134 050f 11       		.uleb128 0x11
 1135 0510 F9000000 		.4byte	.LASF62
 1136 0514 01       		.byte	0x1
 1137 0515 32       		.byte	0x32
 1138 0516 00000000 		.4byte	.LFB63
 1139 051a 6C000000 		.4byte	.LFE63-.LFB63
 1140 051e 01       		.uleb128 0x1
 1141 051f 9C       		.byte	0x9c
 1142 0520 DB050000 		.4byte	0x5db
 1143 0524 0D       		.uleb128 0xd
 1144 0525 A9010000 		.4byte	.LASF43
 1145 0529 01       		.byte	0x1
 1146 052a 45       		.byte	0x45
 1147 052b B8000000 		.4byte	0xb8
 1148 052f 88000000 		.4byte	.LLST3
 1149 0533 10       		.uleb128 0x10
 1150 0534 06000000 		.4byte	.LVL49
 1151 0538 83060000 		.4byte	0x683
 1152 053c 0A       		.uleb128 0xa
 1153 053d 0E000000 		.4byte	.LVL50
 1154 0541 36060000 		.4byte	0x636
 1155 0545 54050000 		.4byte	0x554
 1156 0549 0B       		.uleb128 0xb
 1157 054a 01       		.uleb128 0x1
 1158 054b 50       		.byte	0x50
 1159 054c 01       		.uleb128 0x1
 1160 054d 49       		.byte	0x49
 1161 054e 0B       		.uleb128 0xb
 1162 054f 01       		.uleb128 0x1
 1163 0550 51       		.byte	0x51
 1164 0551 01       		.uleb128 0x1
 1165 0552 49       		.byte	0x49
 1166 0553 00       		.byte	0
 1167 0554 0A       		.uleb128 0xa
 1168 0555 14000000 		.4byte	.LVL51
 1169 0559 41060000 		.4byte	0x641
 1170 055d 68050000 		.4byte	0x568
 1171 0561 0B       		.uleb128 0xb
 1172 0562 01       		.uleb128 0x1
ARM GAS  C:\Users\ARMAND~1\AppData\Local\Temp\ccwqV4ia.s 			page 26


 1173 0563 50       		.byte	0x50
 1174 0564 02       		.uleb128 0x2
 1175 0565 08       		.byte	0x8
 1176 0566 32       		.byte	0x32
 1177 0567 00       		.byte	0
 1178 0568 10       		.uleb128 0x10
 1179 0569 18000000 		.4byte	.LVL52
 1180 056d 8E060000 		.4byte	0x68e
 1181 0571 10       		.uleb128 0x10
 1182 0572 1E000000 		.4byte	.LVL54
 1183 0576 99060000 		.4byte	0x699
 1184 057a 10       		.uleb128 0x10
 1185 057b 26000000 		.4byte	.LVL55
 1186 057f 78060000 		.4byte	0x678
 1187 0583 10       		.uleb128 0x10
 1188 0584 2E000000 		.4byte	.LVL56
 1189 0588 23020000 		.4byte	0x223
 1190 058c 10       		.uleb128 0x10
 1191 058d 32000000 		.4byte	.LVL57
 1192 0591 8E060000 		.4byte	0x68e
 1193 0595 10       		.uleb128 0x10
 1194 0596 3C000000 		.4byte	.LVL60
 1195 059a 4B030000 		.4byte	0x34b
 1196 059e 10       		.uleb128 0x10
 1197 059f 40000000 		.4byte	.LVL61
 1198 05a3 8E060000 		.4byte	0x68e
 1199 05a7 0A       		.uleb128 0xa
 1200 05a8 4C000000 		.4byte	.LVL64
 1201 05ac 36060000 		.4byte	0x636
 1202 05b0 BF050000 		.4byte	0x5bf
 1203 05b4 0B       		.uleb128 0xb
 1204 05b5 01       		.uleb128 0x1
 1205 05b6 50       		.byte	0x50
 1206 05b7 01       		.uleb128 0x1
 1207 05b8 30       		.byte	0x30
 1208 05b9 0B       		.uleb128 0xb
 1209 05ba 01       		.uleb128 0x1
 1210 05bb 51       		.byte	0x51
 1211 05bc 01       		.uleb128 0x1
 1212 05bd 30       		.byte	0x30
 1213 05be 00       		.byte	0
 1214 05bf 10       		.uleb128 0x10
 1215 05c0 50000000 		.4byte	.LVL65
 1216 05c4 8E060000 		.4byte	0x68e
 1217 05c8 10       		.uleb128 0x10
 1218 05c9 5E000000 		.4byte	.LVL66
 1219 05cd 8E060000 		.4byte	0x68e
 1220 05d1 10       		.uleb128 0x10
 1221 05d2 64000000 		.4byte	.LVL68
 1222 05d6 B8010000 		.4byte	0x1b8
 1223 05da 00       		.byte	0
 1224 05db 12       		.uleb128 0x12
 1225 05dc A0010000 		.4byte	.LASF44
 1226 05e0 01       		.byte	0x1
 1227 05e1 26       		.byte	0x26
 1228 05e2 A2000000 		.4byte	0xa2
 1229 05e6 05       		.uleb128 0x5
ARM GAS  C:\Users\ARMAND~1\AppData\Local\Temp\ccwqV4ia.s 			page 27


 1230 05e7 03       		.byte	0x3
 1231 05e8 00000000 		.4byte	lineSens
 1232 05ec 13       		.uleb128 0x13
 1233 05ed 07000000 		.4byte	.LASF41
 1234 05f1 01       		.byte	0x1
 1235 05f2 27       		.byte	0x27
 1236 05f3 A2000000 		.4byte	0xa2
 1237 05f7 14       		.uleb128 0x14
 1238 05f8 A9020000 		.4byte	.LASF45
 1239 05fc 01       		.byte	0x1
 1240 05fd 28       		.byte	0x28
 1241 05fe A2000000 		.4byte	0xa2
 1242 0602 00       		.byte	0
 1243 0603 15       		.uleb128 0x15
 1244 0604 AE020000 		.4byte	.LASF46
 1245 0608 06       		.byte	0x6
 1246 0609 1207     		.2byte	0x712
 1247 060b 0F060000 		.4byte	0x60f
 1248 060f 16       		.uleb128 0x16
 1249 0610 AD000000 		.4byte	0xad
 1250 0614 17       		.uleb128 0x17
 1251 0615 3D010000 		.4byte	.LASF47
 1252 0619 04       		.byte	0x4
 1253 061a 3B       		.byte	0x3b
 1254 061b E6000000 		.4byte	0xe6
 1255 061f 05       		.uleb128 0x5
 1256 0620 03       		.byte	0x3
 1257 0621 00000000 		.4byte	gLine
 1258 0625 17       		.uleb128 0x17
 1259 0626 00000000 		.4byte	.LASF48
 1260 062a 05       		.byte	0x5
 1261 062b 17       		.byte	0x17
 1262 062c 7B010000 		.4byte	0x17b
 1263 0630 05       		.uleb128 0x5
 1264 0631 03       		.byte	0x3
 1265 0632 00000000 		.4byte	gMotor
 1266 0636 18       		.uleb128 0x18
 1267 0637 2F020000 		.4byte	.LASF49
 1268 063b 2F020000 		.4byte	.LASF49
 1269 063f 05       		.byte	0x5
 1270 0640 1A       		.byte	0x1a
 1271 0641 18       		.uleb128 0x18
 1272 0642 49030000 		.4byte	.LASF50
 1273 0646 49030000 		.4byte	.LASF50
 1274 064a 07       		.byte	0x7
 1275 064b 76       		.byte	0x76
 1276 064c 18       		.uleb128 0x18
 1277 064d 20020000 		.4byte	.LASF51
 1278 0651 20020000 		.4byte	.LASF51
 1279 0655 05       		.byte	0x5
 1280 0656 1B       		.byte	0x1b
 1281 0657 18       		.uleb128 0x18
 1282 0658 85020000 		.4byte	.LASF52
 1283 065c 85020000 		.4byte	.LASF52
 1284 0660 05       		.byte	0x5
 1285 0661 1D       		.byte	0x1d
 1286 0662 18       		.uleb128 0x18
ARM GAS  C:\Users\ARMAND~1\AppData\Local\Temp\ccwqV4ia.s 			page 28


 1287 0663 9E000000 		.4byte	.LASF53
 1288 0667 9E000000 		.4byte	.LASF53
 1289 066b 05       		.byte	0x5
 1290 066c 1C       		.byte	0x1c
 1291 066d 18       		.uleb128 0x18
 1292 066e DD000000 		.4byte	.LASF54
 1293 0672 DD000000 		.4byte	.LASF54
 1294 0676 04       		.byte	0x4
 1295 0677 3F       		.byte	0x3f
 1296 0678 18       		.uleb128 0x18
 1297 0679 22000000 		.4byte	.LASF55
 1298 067d 22000000 		.4byte	.LASF55
 1299 0681 04       		.byte	0x4
 1300 0682 3D       		.byte	0x3d
 1301 0683 18       		.uleb128 0x18
 1302 0684 B5010000 		.4byte	.LASF56
 1303 0688 B5010000 		.4byte	.LASF56
 1304 068c 04       		.byte	0x4
 1305 068d 41       		.byte	0x41
 1306 068e 18       		.uleb128 0x18
 1307 068f 0D010000 		.4byte	.LASF57
 1308 0693 0D010000 		.4byte	.LASF57
 1309 0697 08       		.byte	0x8
 1310 0698 15       		.byte	0x15
 1311 0699 18       		.uleb128 0x18
 1312 069a D0000000 		.4byte	.LASF58
 1313 069e D0000000 		.4byte	.LASF58
 1314 06a2 04       		.byte	0x4
 1315 06a3 42       		.byte	0x42
 1316 06a4 00       		.byte	0
 1317              		.section	.debug_abbrev,"",%progbits
 1318              	.Ldebug_abbrev0:
 1319 0000 01       		.uleb128 0x1
 1320 0001 11       		.uleb128 0x11
 1321 0002 01       		.byte	0x1
 1322 0003 25       		.uleb128 0x25
 1323 0004 0E       		.uleb128 0xe
 1324 0005 13       		.uleb128 0x13
 1325 0006 0B       		.uleb128 0xb
 1326 0007 03       		.uleb128 0x3
 1327 0008 0E       		.uleb128 0xe
 1328 0009 1B       		.uleb128 0x1b
 1329 000a 0E       		.uleb128 0xe
 1330 000b 55       		.uleb128 0x55
 1331 000c 17       		.uleb128 0x17
 1332 000d 11       		.uleb128 0x11
 1333 000e 01       		.uleb128 0x1
 1334 000f 10       		.uleb128 0x10
 1335 0010 17       		.uleb128 0x17
 1336 0011 00       		.byte	0
 1337 0012 00       		.byte	0
 1338 0013 02       		.uleb128 0x2
 1339 0014 16       		.uleb128 0x16
 1340 0015 00       		.byte	0
 1341 0016 03       		.uleb128 0x3
 1342 0017 0E       		.uleb128 0xe
 1343 0018 3A       		.uleb128 0x3a
ARM GAS  C:\Users\ARMAND~1\AppData\Local\Temp\ccwqV4ia.s 			page 29


 1344 0019 0B       		.uleb128 0xb
 1345 001a 3B       		.uleb128 0x3b
 1346 001b 0B       		.uleb128 0xb
 1347 001c 49       		.uleb128 0x49
 1348 001d 13       		.uleb128 0x13
 1349 001e 00       		.byte	0
 1350 001f 00       		.byte	0
 1351 0020 03       		.uleb128 0x3
 1352 0021 24       		.uleb128 0x24
 1353 0022 00       		.byte	0
 1354 0023 0B       		.uleb128 0xb
 1355 0024 0B       		.uleb128 0xb
 1356 0025 3E       		.uleb128 0x3e
 1357 0026 0B       		.uleb128 0xb
 1358 0027 03       		.uleb128 0x3
 1359 0028 0E       		.uleb128 0xe
 1360 0029 00       		.byte	0
 1361 002a 00       		.byte	0
 1362 002b 04       		.uleb128 0x4
 1363 002c 24       		.uleb128 0x24
 1364 002d 00       		.byte	0
 1365 002e 0B       		.uleb128 0xb
 1366 002f 0B       		.uleb128 0xb
 1367 0030 3E       		.uleb128 0x3e
 1368 0031 0B       		.uleb128 0xb
 1369 0032 03       		.uleb128 0x3
 1370 0033 08       		.uleb128 0x8
 1371 0034 00       		.byte	0
 1372 0035 00       		.byte	0
 1373 0036 05       		.uleb128 0x5
 1374 0037 13       		.uleb128 0x13
 1375 0038 01       		.byte	0x1
 1376 0039 03       		.uleb128 0x3
 1377 003a 0E       		.uleb128 0xe
 1378 003b 0B       		.uleb128 0xb
 1379 003c 0B       		.uleb128 0xb
 1380 003d 3A       		.uleb128 0x3a
 1381 003e 0B       		.uleb128 0xb
 1382 003f 3B       		.uleb128 0x3b
 1383 0040 0B       		.uleb128 0xb
 1384 0041 01       		.uleb128 0x1
 1385 0042 13       		.uleb128 0x13
 1386 0043 00       		.byte	0
 1387 0044 00       		.byte	0
 1388 0045 06       		.uleb128 0x6
 1389 0046 0D       		.uleb128 0xd
 1390 0047 00       		.byte	0
 1391 0048 03       		.uleb128 0x3
 1392 0049 0E       		.uleb128 0xe
 1393 004a 3A       		.uleb128 0x3a
 1394 004b 0B       		.uleb128 0xb
 1395 004c 3B       		.uleb128 0x3b
 1396 004d 0B       		.uleb128 0xb
 1397 004e 49       		.uleb128 0x49
 1398 004f 13       		.uleb128 0x13
 1399 0050 38       		.uleb128 0x38
 1400 0051 0B       		.uleb128 0xb
ARM GAS  C:\Users\ARMAND~1\AppData\Local\Temp\ccwqV4ia.s 			page 30


 1401 0052 00       		.byte	0
 1402 0053 00       		.byte	0
 1403 0054 07       		.uleb128 0x7
 1404 0055 01       		.uleb128 0x1
 1405 0056 01       		.byte	0x1
 1406 0057 49       		.uleb128 0x49
 1407 0058 13       		.uleb128 0x13
 1408 0059 01       		.uleb128 0x1
 1409 005a 13       		.uleb128 0x13
 1410 005b 00       		.byte	0
 1411 005c 00       		.byte	0
 1412 005d 08       		.uleb128 0x8
 1413 005e 21       		.uleb128 0x21
 1414 005f 00       		.byte	0
 1415 0060 49       		.uleb128 0x49
 1416 0061 13       		.uleb128 0x13
 1417 0062 2F       		.uleb128 0x2f
 1418 0063 0B       		.uleb128 0xb
 1419 0064 00       		.byte	0
 1420 0065 00       		.byte	0
 1421 0066 09       		.uleb128 0x9
 1422 0067 2E       		.uleb128 0x2e
 1423 0068 01       		.byte	0x1
 1424 0069 03       		.uleb128 0x3
 1425 006a 0E       		.uleb128 0xe
 1426 006b 3A       		.uleb128 0x3a
 1427 006c 0B       		.uleb128 0xb
 1428 006d 3B       		.uleb128 0x3b
 1429 006e 0B       		.uleb128 0xb
 1430 006f 27       		.uleb128 0x27
 1431 0070 19       		.uleb128 0x19
 1432 0071 11       		.uleb128 0x11
 1433 0072 01       		.uleb128 0x1
 1434 0073 12       		.uleb128 0x12
 1435 0074 06       		.uleb128 0x6
 1436 0075 40       		.uleb128 0x40
 1437 0076 18       		.uleb128 0x18
 1438 0077 9742     		.uleb128 0x2117
 1439 0079 19       		.uleb128 0x19
 1440 007a 01       		.uleb128 0x1
 1441 007b 13       		.uleb128 0x13
 1442 007c 00       		.byte	0
 1443 007d 00       		.byte	0
 1444 007e 0A       		.uleb128 0xa
 1445 007f 898201   		.uleb128 0x4109
 1446 0082 01       		.byte	0x1
 1447 0083 11       		.uleb128 0x11
 1448 0084 01       		.uleb128 0x1
 1449 0085 31       		.uleb128 0x31
 1450 0086 13       		.uleb128 0x13
 1451 0087 01       		.uleb128 0x1
 1452 0088 13       		.uleb128 0x13
 1453 0089 00       		.byte	0
 1454 008a 00       		.byte	0
 1455 008b 0B       		.uleb128 0xb
 1456 008c 8A8201   		.uleb128 0x410a
 1457 008f 00       		.byte	0
ARM GAS  C:\Users\ARMAND~1\AppData\Local\Temp\ccwqV4ia.s 			page 31


 1458 0090 02       		.uleb128 0x2
 1459 0091 18       		.uleb128 0x18
 1460 0092 9142     		.uleb128 0x2111
 1461 0094 18       		.uleb128 0x18
 1462 0095 00       		.byte	0
 1463 0096 00       		.byte	0
 1464 0097 0C       		.uleb128 0xc
 1465 0098 898201   		.uleb128 0x4109
 1466 009b 01       		.byte	0x1
 1467 009c 11       		.uleb128 0x11
 1468 009d 01       		.uleb128 0x1
 1469 009e 31       		.uleb128 0x31
 1470 009f 13       		.uleb128 0x13
 1471 00a0 00       		.byte	0
 1472 00a1 00       		.byte	0
 1473 00a2 0D       		.uleb128 0xd
 1474 00a3 34       		.uleb128 0x34
 1475 00a4 00       		.byte	0
 1476 00a5 03       		.uleb128 0x3
 1477 00a6 0E       		.uleb128 0xe
 1478 00a7 3A       		.uleb128 0x3a
 1479 00a8 0B       		.uleb128 0xb
 1480 00a9 3B       		.uleb128 0x3b
 1481 00aa 0B       		.uleb128 0xb
 1482 00ab 49       		.uleb128 0x49
 1483 00ac 13       		.uleb128 0x13
 1484 00ad 02       		.uleb128 0x2
 1485 00ae 17       		.uleb128 0x17
 1486 00af 00       		.byte	0
 1487 00b0 00       		.byte	0
 1488 00b1 0E       		.uleb128 0xe
 1489 00b2 0B       		.uleb128 0xb
 1490 00b3 01       		.byte	0x1
 1491 00b4 11       		.uleb128 0x11
 1492 00b5 01       		.uleb128 0x1
 1493 00b6 12       		.uleb128 0x12
 1494 00b7 06       		.uleb128 0x6
 1495 00b8 01       		.uleb128 0x1
 1496 00b9 13       		.uleb128 0x13
 1497 00ba 00       		.byte	0
 1498 00bb 00       		.byte	0
 1499 00bc 0F       		.uleb128 0xf
 1500 00bd 34       		.uleb128 0x34
 1501 00be 00       		.byte	0
 1502 00bf 03       		.uleb128 0x3
 1503 00c0 08       		.uleb128 0x8
 1504 00c1 3A       		.uleb128 0x3a
 1505 00c2 0B       		.uleb128 0xb
 1506 00c3 3B       		.uleb128 0x3b
 1507 00c4 0B       		.uleb128 0xb
 1508 00c5 49       		.uleb128 0x49
 1509 00c6 13       		.uleb128 0x13
 1510 00c7 02       		.uleb128 0x2
 1511 00c8 17       		.uleb128 0x17
 1512 00c9 00       		.byte	0
 1513 00ca 00       		.byte	0
 1514 00cb 10       		.uleb128 0x10
ARM GAS  C:\Users\ARMAND~1\AppData\Local\Temp\ccwqV4ia.s 			page 32


 1515 00cc 898201   		.uleb128 0x4109
 1516 00cf 00       		.byte	0
 1517 00d0 11       		.uleb128 0x11
 1518 00d1 01       		.uleb128 0x1
 1519 00d2 31       		.uleb128 0x31
 1520 00d3 13       		.uleb128 0x13
 1521 00d4 00       		.byte	0
 1522 00d5 00       		.byte	0
 1523 00d6 11       		.uleb128 0x11
 1524 00d7 2E       		.uleb128 0x2e
 1525 00d8 01       		.byte	0x1
 1526 00d9 3F       		.uleb128 0x3f
 1527 00da 19       		.uleb128 0x19
 1528 00db 03       		.uleb128 0x3
 1529 00dc 0E       		.uleb128 0xe
 1530 00dd 3A       		.uleb128 0x3a
 1531 00de 0B       		.uleb128 0xb
 1532 00df 3B       		.uleb128 0x3b
 1533 00e0 0B       		.uleb128 0xb
 1534 00e1 27       		.uleb128 0x27
 1535 00e2 19       		.uleb128 0x19
 1536 00e3 8701     		.uleb128 0x87
 1537 00e5 19       		.uleb128 0x19
 1538 00e6 11       		.uleb128 0x11
 1539 00e7 01       		.uleb128 0x1
 1540 00e8 12       		.uleb128 0x12
 1541 00e9 06       		.uleb128 0x6
 1542 00ea 40       		.uleb128 0x40
 1543 00eb 18       		.uleb128 0x18
 1544 00ec 9742     		.uleb128 0x2117
 1545 00ee 19       		.uleb128 0x19
 1546 00ef 01       		.uleb128 0x1
 1547 00f0 13       		.uleb128 0x13
 1548 00f1 00       		.byte	0
 1549 00f2 00       		.byte	0
 1550 00f3 12       		.uleb128 0x12
 1551 00f4 34       		.uleb128 0x34
 1552 00f5 00       		.byte	0
 1553 00f6 03       		.uleb128 0x3
 1554 00f7 0E       		.uleb128 0xe
 1555 00f8 3A       		.uleb128 0x3a
 1556 00f9 0B       		.uleb128 0xb
 1557 00fa 3B       		.uleb128 0x3b
 1558 00fb 0B       		.uleb128 0xb
 1559 00fc 49       		.uleb128 0x49
 1560 00fd 13       		.uleb128 0x13
 1561 00fe 02       		.uleb128 0x2
 1562 00ff 18       		.uleb128 0x18
 1563 0100 00       		.byte	0
 1564 0101 00       		.byte	0
 1565 0102 13       		.uleb128 0x13
 1566 0103 34       		.uleb128 0x34
 1567 0104 00       		.byte	0
 1568 0105 03       		.uleb128 0x3
 1569 0106 0E       		.uleb128 0xe
 1570 0107 3A       		.uleb128 0x3a
 1571 0108 0B       		.uleb128 0xb
ARM GAS  C:\Users\ARMAND~1\AppData\Local\Temp\ccwqV4ia.s 			page 33


 1572 0109 3B       		.uleb128 0x3b
 1573 010a 0B       		.uleb128 0xb
 1574 010b 49       		.uleb128 0x49
 1575 010c 13       		.uleb128 0x13
 1576 010d 00       		.byte	0
 1577 010e 00       		.byte	0
 1578 010f 14       		.uleb128 0x14
 1579 0110 34       		.uleb128 0x34
 1580 0111 00       		.byte	0
 1581 0112 03       		.uleb128 0x3
 1582 0113 0E       		.uleb128 0xe
 1583 0114 3A       		.uleb128 0x3a
 1584 0115 0B       		.uleb128 0xb
 1585 0116 3B       		.uleb128 0x3b
 1586 0117 0B       		.uleb128 0xb
 1587 0118 49       		.uleb128 0x49
 1588 0119 13       		.uleb128 0x13
 1589 011a 1C       		.uleb128 0x1c
 1590 011b 0B       		.uleb128 0xb
 1591 011c 00       		.byte	0
 1592 011d 00       		.byte	0
 1593 011e 15       		.uleb128 0x15
 1594 011f 34       		.uleb128 0x34
 1595 0120 00       		.byte	0
 1596 0121 03       		.uleb128 0x3
 1597 0122 0E       		.uleb128 0xe
 1598 0123 3A       		.uleb128 0x3a
 1599 0124 0B       		.uleb128 0xb
 1600 0125 3B       		.uleb128 0x3b
 1601 0126 05       		.uleb128 0x5
 1602 0127 49       		.uleb128 0x49
 1603 0128 13       		.uleb128 0x13
 1604 0129 3F       		.uleb128 0x3f
 1605 012a 19       		.uleb128 0x19
 1606 012b 3C       		.uleb128 0x3c
 1607 012c 19       		.uleb128 0x19
 1608 012d 00       		.byte	0
 1609 012e 00       		.byte	0
 1610 012f 16       		.uleb128 0x16
 1611 0130 35       		.uleb128 0x35
 1612 0131 00       		.byte	0
 1613 0132 49       		.uleb128 0x49
 1614 0133 13       		.uleb128 0x13
 1615 0134 00       		.byte	0
 1616 0135 00       		.byte	0
 1617 0136 17       		.uleb128 0x17
 1618 0137 34       		.uleb128 0x34
 1619 0138 00       		.byte	0
 1620 0139 03       		.uleb128 0x3
 1621 013a 0E       		.uleb128 0xe
 1622 013b 3A       		.uleb128 0x3a
 1623 013c 0B       		.uleb128 0xb
 1624 013d 3B       		.uleb128 0x3b
 1625 013e 0B       		.uleb128 0xb
 1626 013f 49       		.uleb128 0x49
 1627 0140 13       		.uleb128 0x13
 1628 0141 3F       		.uleb128 0x3f
ARM GAS  C:\Users\ARMAND~1\AppData\Local\Temp\ccwqV4ia.s 			page 34


 1629 0142 19       		.uleb128 0x19
 1630 0143 02       		.uleb128 0x2
 1631 0144 18       		.uleb128 0x18
 1632 0145 00       		.byte	0
 1633 0146 00       		.byte	0
 1634 0147 18       		.uleb128 0x18
 1635 0148 2E       		.uleb128 0x2e
 1636 0149 00       		.byte	0
 1637 014a 3F       		.uleb128 0x3f
 1638 014b 19       		.uleb128 0x19
 1639 014c 3C       		.uleb128 0x3c
 1640 014d 19       		.uleb128 0x19
 1641 014e 6E       		.uleb128 0x6e
 1642 014f 0E       		.uleb128 0xe
 1643 0150 03       		.uleb128 0x3
 1644 0151 0E       		.uleb128 0xe
 1645 0152 3A       		.uleb128 0x3a
 1646 0153 0B       		.uleb128 0xb
 1647 0154 3B       		.uleb128 0x3b
 1648 0155 0B       		.uleb128 0xb
 1649 0156 00       		.byte	0
 1650 0157 00       		.byte	0
 1651 0158 00       		.byte	0
 1652              		.section	.debug_loc,"",%progbits
 1653              	.Ldebug_loc0:
 1654              	.LLST0:
 1655 0000 06000000 		.4byte	.LVL16
 1656 0004 0D000000 		.4byte	.LVL17-1
 1657 0008 0100     		.2byte	0x1
 1658 000a 50       		.byte	0x50
 1659 000b A2000000 		.4byte	.LVL46
 1660 000f A6000000 		.4byte	.LVL47
 1661 0013 0100     		.2byte	0x1
 1662 0015 50       		.byte	0x50
 1663 0016 00000000 		.4byte	0
 1664 001a 00000000 		.4byte	0
 1665              	.LLST1:
 1666 001e 0E000000 		.4byte	.LVL17
 1667 0022 14000000 		.4byte	.LVL18
 1668 0026 0100     		.2byte	0x1
 1669 0028 50       		.byte	0x50
 1670 0029 20000000 		.4byte	.LVL21
 1671 002d 2A000000 		.4byte	.LVL22
 1672 0031 0100     		.2byte	0x1
 1673 0033 50       		.byte	0x50
 1674 0034 36000000 		.4byte	.LVL25
 1675 0038 40000000 		.4byte	.LVL26
 1676 003c 0100     		.2byte	0x1
 1677 003e 50       		.byte	0x50
 1678 003f 4C000000 		.4byte	.LVL29
 1679 0043 54000000 		.4byte	.LVL30
 1680 0047 0100     		.2byte	0x1
 1681 0049 50       		.byte	0x50
 1682 004a 60000000 		.4byte	.LVL33
 1683 004e 68000000 		.4byte	.LVL34
 1684 0052 0100     		.2byte	0x1
 1685 0054 50       		.byte	0x50
ARM GAS  C:\Users\ARMAND~1\AppData\Local\Temp\ccwqV4ia.s 			page 35


 1686 0055 74000000 		.4byte	.LVL37
 1687 0059 7C000000 		.4byte	.LVL38
 1688 005d 0100     		.2byte	0x1
 1689 005f 50       		.byte	0x50
 1690 0060 88000000 		.4byte	.LVL41
 1691 0064 90000000 		.4byte	.LVL42
 1692 0068 0100     		.2byte	0x1
 1693 006a 50       		.byte	0x50
 1694 006b 00000000 		.4byte	0
 1695 006f 00000000 		.4byte	0
 1696              	.LLST2:
 1697 0073 0E000000 		.4byte	.LVL17
 1698 0077 A2000000 		.4byte	.LVL46
 1699 007b 0300     		.2byte	0x3
 1700 007d 08       		.byte	0x8
 1701 007e 3C       		.byte	0x3c
 1702 007f 9F       		.byte	0x9f
 1703 0080 00000000 		.4byte	0
 1704 0084 00000000 		.4byte	0
 1705              	.LLST3:
 1706 0088 1A000000 		.4byte	.LVL53
 1707 008c 34000000 		.4byte	.LVL58
 1708 0090 0100     		.2byte	0x1
 1709 0092 55       		.byte	0x55
 1710 0093 34000000 		.4byte	.LVL58
 1711 0097 36000000 		.4byte	.LVL59
 1712 009b 0100     		.2byte	0x1
 1713 009d 50       		.byte	0x50
 1714 009e 36000000 		.4byte	.LVL59
 1715 00a2 42000000 		.4byte	.LVL62
 1716 00a6 0100     		.2byte	0x1
 1717 00a8 55       		.byte	0x55
 1718 00a9 42000000 		.4byte	.LVL62
 1719 00ad 44000000 		.4byte	.LVL63
 1720 00b1 0100     		.2byte	0x1
 1721 00b3 50       		.byte	0x50
 1722 00b4 44000000 		.4byte	.LVL63
 1723 00b8 60000000 		.4byte	.LVL67
 1724 00bc 0100     		.2byte	0x1
 1725 00be 55       		.byte	0x55
 1726 00bf 60000000 		.4byte	.LVL67
 1727 00c3 63000000 		.4byte	.LVL68-1
 1728 00c7 0100     		.2byte	0x1
 1729 00c9 50       		.byte	0x50
 1730 00ca 63000000 		.4byte	.LVL68-1
 1731 00ce 6C000000 		.4byte	.LFE63
 1732 00d2 0100     		.2byte	0x1
 1733 00d4 55       		.byte	0x55
 1734 00d5 00000000 		.4byte	0
 1735 00d9 00000000 		.4byte	0
 1736              		.section	.debug_aranges,"",%progbits
 1737 0000 34000000 		.4byte	0x34
 1738 0004 0200     		.2byte	0x2
 1739 0006 00000000 		.4byte	.Ldebug_info0
 1740 000a 04       		.byte	0x4
 1741 000b 00       		.byte	0
 1742 000c 0000     		.2byte	0
ARM GAS  C:\Users\ARMAND~1\AppData\Local\Temp\ccwqV4ia.s 			page 36


 1743 000e 0000     		.2byte	0
 1744 0010 00000000 		.4byte	.LFB66
 1745 0014 20000000 		.4byte	.LFE66-.LFB66
 1746 0018 00000000 		.4byte	.LFB65
 1747 001c 78000000 		.4byte	.LFE65-.LFB65
 1748 0020 00000000 		.4byte	.LFB64
 1749 0024 AC000000 		.4byte	.LFE64-.LFB64
 1750 0028 00000000 		.4byte	.LFB63
 1751 002c 6C000000 		.4byte	.LFE63-.LFB63
 1752 0030 00000000 		.4byte	0
 1753 0034 00000000 		.4byte	0
 1754              		.section	.debug_ranges,"",%progbits
 1755              	.Ldebug_ranges0:
 1756 0000 00000000 		.4byte	.LFB66
 1757 0004 20000000 		.4byte	.LFE66
 1758 0008 00000000 		.4byte	.LFB65
 1759 000c 78000000 		.4byte	.LFE65
 1760 0010 00000000 		.4byte	.LFB64
 1761 0014 AC000000 		.4byte	.LFE64
 1762 0018 00000000 		.4byte	.LFB63
 1763 001c 6C000000 		.4byte	.LFE63
 1764 0020 00000000 		.4byte	0
 1765 0024 00000000 		.4byte	0
 1766              		.section	.debug_line,"",%progbits
 1767              	.Ldebug_line0:
 1768 0000 06020000 		.section	.debug_str,"MS",%progbits,1
 1768      02007B01 
 1768      00000201 
 1768      FB0E0D00 
 1768      01010101 
 1769              	.LASF48:
 1770 0000 674D6F74 		.ascii	"gMotor\000"
 1770      6F7200
 1771              	.LASF41:
 1772 0007 64697374 		.ascii	"distSens\000"
 1772      53656E73 
 1772      00
 1773              	.LASF33:
 1774 0010 67447269 		.ascii	"gDrivevars\000"
 1774      76657661 
 1774      727300
 1775              	.LASF13:
 1776 001b 696E7438 		.ascii	"int8_t\000"
 1776      5F7400
 1777              	.LASF55:
 1778 0022 44697374 		.ascii	"DistSensRead\000"
 1778      53656E73 
 1778      52656164 
 1778      00
 1779              	.LASF4:
 1780 002f 73686F72 		.ascii	"short int\000"
 1780      7420696E 
 1780      7400
 1781              	.LASF21:
 1782 0039 73697A65 		.ascii	"sizetype\000"
 1782      74797065 
 1782      00
ARM GAS  C:\Users\ARMAND~1\AppData\Local\Temp\ccwqV4ia.s 			page 37


 1783              	.LASF20:
 1784 0042 6C6F6E67 		.ascii	"long double\000"
 1784      20646F75 
 1784      626C6500 
 1785              	.LASF8:
 1786 004e 5F5F7569 		.ascii	"__uint32_t\000"
 1786      6E743332 
 1786      5F7400
 1787              	.LASF61:
 1788 0059 433A5C55 		.ascii	"C:\\Users\\Armands-PC\\Google Drive\\new_sumo code\\"
 1788      73657273 
 1788      5C41726D 
 1788      616E6473 
 1788      2D50435C 
 1789 0088 42555F73 		.ascii	"BU_sumo\\BU_sumo.cydsn\000"
 1789      756D6F5C 
 1789      42555F73 
 1789      756D6F2E 
 1789      63796473 
 1790              	.LASF53:
 1791 009e 7475726E 		.ascii	"turn_right\000"
 1791      5F726967 
 1791      687400
 1792              	.LASF14:
 1793 00a9 75696E74 		.ascii	"uint8_t\000"
 1793      385F7400 
 1794              	.LASF31:
 1795 00b1 6164635F 		.ascii	"adc_buff\000"
 1795      62756666 
 1795      00
 1796              	.LASF25:
 1797 00ba 4652325F 		.ascii	"FR2_val\000"
 1797      76616C00 
 1798              	.LASF23:
 1799 00c2 464C325F 		.ascii	"FL2_val\000"
 1799      76616C00 
 1800              	.LASF17:
 1801 00ca 666C6F61 		.ascii	"float\000"
 1801      7400
 1802              	.LASF58:
 1803 00d0 4C696E65 		.ascii	"LineSensRead\000"
 1803      53656E73 
 1803      52656164 
 1803      00
 1804              	.LASF54:
 1805 00dd 43616C63 		.ascii	"CalcAvrgAngle\000"
 1805      41767267 
 1805      416E676C 
 1805      6500
 1806              	.LASF10:
 1807 00eb 6C6F6E67 		.ascii	"long long int\000"
 1807      206C6F6E 
 1807      6720696E 
 1807      7400
 1808              	.LASF62:
 1809 00f9 52756E54 		.ascii	"RunTactic2\000"
 1809      61637469 
ARM GAS  C:\Users\ARMAND~1\AppData\Local\Temp\ccwqV4ia.s 			page 38


 1809      633200
 1810              	.LASF7:
 1811 0104 6C6F6E67 		.ascii	"long int\000"
 1811      20696E74 
 1811      00
 1812              	.LASF57:
 1813 010d 6D696C6C 		.ascii	"millis\000"
 1813      697300
 1814              	.LASF28:
 1815 0114 465F4C45 		.ascii	"F_LEFT\000"
 1815      465400
 1816              	.LASF1:
 1817 011b 5F5F7569 		.ascii	"__uint8_t\000"
 1817      6E74385F 
 1817      7400
 1818              	.LASF42:
 1819 0125 61767267 		.ascii	"avrg_angle_grad\000"
 1819      5F616E67 
 1819      6C655F67 
 1819      72616400 
 1820              	.LASF27:
 1821 0135 4654485F 		.ascii	"FTH_val\000"
 1821      76616C00 
 1822              	.LASF47:
 1823 013d 674C696E 		.ascii	"gLine\000"
 1823      6500
 1824              	.LASF26:
 1825 0143 425F7661 		.ascii	"B_val\000"
 1825      6C00
 1826              	.LASF3:
 1827 0149 756E7369 		.ascii	"unsigned char\000"
 1827      676E6564 
 1827      20636861 
 1827      7200
 1828              	.LASF2:
 1829 0157 7369676E 		.ascii	"signed char\000"
 1829      65642063 
 1829      68617200 
 1830              	.LASF11:
 1831 0163 6C6F6E67 		.ascii	"long long unsigned int\000"
 1831      206C6F6E 
 1831      6720756E 
 1831      7369676E 
 1831      65642069 
 1832              	.LASF16:
 1833 017a 75696E74 		.ascii	"uint32_t\000"
 1833      33325F74 
 1833      00
 1834              	.LASF60:
 1835 0183 74616374 		.ascii	"tactic2_blitz.c\000"
 1835      6963325F 
 1835      626C6974 
 1835      7A2E6300 
 1836              	.LASF12:
 1837 0193 756E7369 		.ascii	"unsigned int\000"
 1837      676E6564 
 1837      20696E74 
ARM GAS  C:\Users\ARMAND~1\AppData\Local\Temp\ccwqV4ia.s 			page 39


 1837      00
 1838              	.LASF44:
 1839 01a0 6C696E65 		.ascii	"lineSens\000"
 1839      53656E73 
 1839      00
 1840              	.LASF43:
 1841 01a9 74696D6F 		.ascii	"timout_time\000"
 1841      75745F74 
 1841      696D6500 
 1842              	.LASF56:
 1843 01b5 57616974 		.ascii	"WaitForIRStart\000"
 1843      466F7249 
 1843      52537461 
 1843      727400
 1844              	.LASF30:
 1845 01c4 52454152 		.ascii	"REAR\000"
 1845      00
 1846              	.LASF0:
 1847 01c9 5F5F696E 		.ascii	"__int8_t\000"
 1847      74385F74 
 1847      00
 1848              	.LASF19:
 1849 01d2 63686172 		.ascii	"char\000"
 1849      00
 1850              	.LASF15:
 1851 01d7 696E7433 		.ascii	"int32_t\000"
 1851      325F7400 
 1852              	.LASF6:
 1853 01df 5F5F696E 		.ascii	"__int32_t\000"
 1853      7433325F 
 1853      7400
 1854              	.LASF5:
 1855 01e9 73686F72 		.ascii	"short unsigned int\000"
 1855      7420756E 
 1855      7369676E 
 1855      65642069 
 1855      6E7400
 1856              	.LASF36:
 1857 01fc 6D61785F 		.ascii	"max_pwm_Limited_L\000"
 1857      70776D5F 
 1857      4C696D69 
 1857      7465645F 
 1857      4C00
 1858              	.LASF37:
 1859 020e 6D61785F 		.ascii	"max_pwm_Limited_R\000"
 1859      70776D5F 
 1859      4C696D69 
 1859      7465645F 
 1859      5200
 1860              	.LASF51:
 1861 0220 64726976 		.ascii	"drive_backward\000"
 1861      655F6261 
 1861      636B7761 
 1861      726400
 1862              	.LASF49:
 1863 022f 64726976 		.ascii	"drive_forward\000"
 1863      655F666F 
ARM GAS  C:\Users\ARMAND~1\AppData\Local\Temp\ccwqV4ia.s 			page 40


 1863      72776172 
 1863      6400
 1864              	.LASF9:
 1865 023d 6C6F6E67 		.ascii	"long unsigned int\000"
 1865      20756E73 
 1865      69676E65 
 1865      6420696E 
 1865      7400
 1866              	.LASF35:
 1867 024f 7475726E 		.ascii	"turn_speed\000"
 1867      5F737065 
 1867      656400
 1868              	.LASF18:
 1869 025a 646F7562 		.ascii	"double\000"
 1869      6C6500
 1870              	.LASF40:
 1871 0261 4163744F 		.ascii	"ActOnEnemySpotted\000"
 1871      6E456E65 
 1871      6D795370 
 1871      6F747465 
 1871      6400
 1872              	.LASF29:
 1873 0273 465F5249 		.ascii	"F_RIGHT\000"
 1873      47485400 
 1874              	.LASF32:
 1875 027b 674C696E 		.ascii	"gLinevars\000"
 1875      65766172 
 1875      7300
 1876              	.LASF52:
 1877 0285 7475726E 		.ascii	"turn_left\000"
 1877      5F6C6566 
 1877      7400
 1878              	.LASF39:
 1879 028f 4163744F 		.ascii	"ActOnLineDetected\000"
 1879      6E4C696E 
 1879      65446574 
 1879      65637465 
 1879      6400
 1880              	.LASF24:
 1881 02a1 4652315F 		.ascii	"FR1_val\000"
 1881      76616C00 
 1882              	.LASF45:
 1883 02a9 73696465 		.ascii	"side\000"
 1883      00
 1884              	.LASF46:
 1885 02ae 49544D5F 		.ascii	"ITM_RxBuffer\000"
 1885      52784275 
 1885      66666572 
 1885      00
 1886              	.LASF59:
 1887 02bb 474E5520 		.ascii	"GNU C11 5.4.1 20160609 (release) [ARM/embedded-5-br"
 1887      43313120 
 1887      352E342E 
 1887      31203230 
 1887      31363036 
 1888 02ee 616E6368 		.ascii	"anch revision 237715] -mcpu=cortex-m3 -mthumb -g -O"
 1888      20726576 
ARM GAS  C:\Users\ARMAND~1\AppData\Local\Temp\ccwqV4ia.s 			page 41


 1888      6973696F 
 1888      6E203233 
 1888      37373135 
 1889 0321 67202D66 		.ascii	"g -ffunction-sections -ffat-lto-objects\000"
 1889      66756E63 
 1889      74696F6E 
 1889      2D736563 
 1889      74696F6E 
 1890              	.LASF50:
 1891 0349 43794465 		.ascii	"CyDelay\000"
 1891      6C617900 
 1892              	.LASF34:
 1893 0351 62617369 		.ascii	"basic_speed\000"
 1893      635F7370 
 1893      65656400 
 1894              	.LASF22:
 1895 035d 464C315F 		.ascii	"FL1_val\000"
 1895      76616C00 
 1896              	.LASF38:
 1897 0365 446F536F 		.ascii	"DoSomething\000"
 1897      6D657468 
 1897      696E6700 
 1898              		.ident	"GCC: (GNU Tools for ARM Embedded Processors) 5.4.1 20160609 (release) [ARM/embedded-5-bran
