ARM GAS  C:\Users\MANSRO~1\AppData\Local\Temp\ccyEzZ57.s 			page 1


   1              		.syntax unified
   2              		.cpu cortex-m3
   3              		.fpu softvfp
   4              		.eabi_attribute 20, 1
   5              		.eabi_attribute 21, 1
   6              		.eabi_attribute 23, 3
   7              		.eabi_attribute 24, 1
   8              		.eabi_attribute 25, 1
   9              		.eabi_attribute 26, 1
  10              		.eabi_attribute 30, 1
  11              		.eabi_attribute 34, 1
  12              		.eabi_attribute 18, 4
  13              		.thumb
  14              		.syntax unified
  15              		.file	"USBUART_descr.c"
  16              		.text
  17              	.Ltext0:
  18              		.cfi_sections	.debug_frame
  19              		.global	USBUART_TABLE
  20              		.global	USBUART_DEVICE0_TABLE
  21              		.global	USBUART_DEVICE0_CONFIGURATION0_TABLE
  22              		.global	USBUART_DEVICE0_CONFIGURATION0_INTERFACE_CLASS
  23              		.global	USBUART_DEVICE0_CONFIGURATION0_EP_SETTINGS_TABLE
  24              		.global	USBUART_STRING_DESCRIPTORS
  25              		.global	USBUART_DEVICE0_CONFIGURATION0_DESCR
  26              		.global	USBUART_DEVICE0_DESCR
  27              		.section	.rodata
  28              		.align	2
  29              		.type	USBUART_TABLE, %object
  30              		.size	USBUART_TABLE, 8
  31              	USBUART_TABLE:
  32 0000 01       		.byte	1
  33 0001 000000   		.space	3
  34 0004 00000000 		.word	USBUART_DEVICE0_TABLE
  35              		.type	USBUART_DEVICE0_TABLE, %object
  36              		.size	USBUART_DEVICE0_TABLE, 24
  37              	USBUART_DEVICE0_TABLE:
  38 0008 01       		.byte	1
  39 0009 000000   		.space	3
  40 000c 00000000 		.word	USBUART_DEVICE0_DESCR
  41 0010 00       		.byte	0
  42 0011 000000   		.space	3
  43 0014 00000000 		.word	0
  44 0018 01       		.byte	1
  45 0019 000000   		.space	3
  46 001c 00000000 		.word	USBUART_DEVICE0_CONFIGURATION0_TABLE
  47              		.type	USBUART_DEVICE0_CONFIGURATION0_TABLE, %object
  48              		.size	USBUART_DEVICE0_CONFIGURATION0_TABLE, 40
  49              	USBUART_DEVICE0_CONFIGURATION0_TABLE:
  50 0020 01       		.byte	1
  51 0021 000000   		.space	3
  52 0024 00000000 		.word	USBUART_DEVICE0_CONFIGURATION0_DESCR
  53 0028 03       		.byte	3
  54 0029 000000   		.space	3
  55 002c 00000000 		.word	USBUART_DEVICE0_CONFIGURATION0_EP_SETTINGS_TABLE
  56 0030 00       		.byte	0
  57 0031 000000   		.space	3
ARM GAS  C:\Users\MANSRO~1\AppData\Local\Temp\ccyEzZ57.s 			page 2


  58 0034 00000000 		.word	0
  59 0038 00       		.byte	0
  60 0039 000000   		.space	3
  61 003c 00000000 		.word	0
  62 0040 00       		.byte	0
  63 0041 000000   		.space	3
  64 0044 00000000 		.word	USBUART_DEVICE0_CONFIGURATION0_INTERFACE_CLASS
  65              		.type	USBUART_DEVICE0_CONFIGURATION0_INTERFACE_CLASS, %object
  66              		.size	USBUART_DEVICE0_CONFIGURATION0_INTERFACE_CLASS, 2
  67              	USBUART_DEVICE0_CONFIGURATION0_INTERFACE_CLASS:
  68 0048 02       		.byte	2
  69 0049 0A       		.byte	10
  70 004a 0000     		.space	2
  71              		.type	USBUART_DEVICE0_CONFIGURATION0_EP_SETTINGS_TABLE, %object
  72              		.size	USBUART_DEVICE0_CONFIGURATION0_EP_SETTINGS_TABLE, 24
  73              	USBUART_DEVICE0_CONFIGURATION0_EP_SETTINGS_TABLE:
  74 004c 00       		.byte	0
  75 004d 00       		.byte	0
  76 004e 81       		.byte	-127
  77 004f 03       		.byte	3
  78 0050 0800     		.short	8
  79 0052 02       		.byte	2
  80 0053 00       		.space	1
  81 0054 01       		.byte	1
  82 0055 00       		.byte	0
  83 0056 82       		.byte	-126
  84 0057 02       		.byte	2
  85 0058 4000     		.short	64
  86 005a 0A       		.byte	10
  87 005b 00       		.space	1
  88 005c 01       		.byte	1
  89 005d 00       		.byte	0
  90 005e 03       		.byte	3
  91 005f 02       		.byte	2
  92 0060 4000     		.short	64
  93 0062 0A       		.byte	10
  94 0063 00       		.space	1
  95              		.type	USBUART_STRING_DESCRIPTORS, %object
  96              		.size	USBUART_STRING_DESCRIPTORS, 159
  97              	USBUART_STRING_DESCRIPTORS:
  98 0064 04       		.byte	4
  99 0065 03       		.byte	3
 100 0066 09       		.byte	9
 101 0067 04       		.byte	4
 102 0068 2C       		.byte	44
 103 0069 03       		.byte	3
 104 006a 43       		.byte	67
 105 006b 00       		.byte	0
 106 006c 79       		.byte	121
 107 006d 00       		.byte	0
 108 006e 70       		.byte	112
 109 006f 00       		.byte	0
 110 0070 72       		.byte	114
 111 0071 00       		.byte	0
 112 0072 65       		.byte	101
 113 0073 00       		.byte	0
 114 0074 73       		.byte	115
ARM GAS  C:\Users\MANSRO~1\AppData\Local\Temp\ccyEzZ57.s 			page 3


 115 0075 00       		.byte	0
 116 0076 73       		.byte	115
 117 0077 00       		.byte	0
 118 0078 20       		.byte	32
 119 0079 00       		.byte	0
 120 007a 53       		.byte	83
 121 007b 00       		.byte	0
 122 007c 65       		.byte	101
 123 007d 00       		.byte	0
 124 007e 6D       		.byte	109
 125 007f 00       		.byte	0
 126 0080 69       		.byte	105
 127 0081 00       		.byte	0
 128 0082 63       		.byte	99
 129 0083 00       		.byte	0
 130 0084 6F       		.byte	111
 131 0085 00       		.byte	0
 132 0086 6E       		.byte	110
 133 0087 00       		.byte	0
 134 0088 64       		.byte	100
 135 0089 00       		.byte	0
 136 008a 75       		.byte	117
 137 008b 00       		.byte	0
 138 008c 63       		.byte	99
 139 008d 00       		.byte	0
 140 008e 74       		.byte	116
 141 008f 00       		.byte	0
 142 0090 6F       		.byte	111
 143 0091 00       		.byte	0
 144 0092 72       		.byte	114
 145 0093 00       		.byte	0
 146 0094 10       		.byte	16
 147 0095 03       		.byte	3
 148 0096 55       		.byte	85
 149 0097 00       		.byte	0
 150 0098 53       		.byte	83
 151 0099 00       		.byte	0
 152 009a 42       		.byte	66
 153 009b 00       		.byte	0
 154 009c 55       		.byte	85
 155 009d 00       		.byte	0
 156 009e 41       		.byte	65
 157 009f 00       		.byte	0
 158 00a0 52       		.byte	82
 159 00a1 00       		.byte	0
 160 00a2 54       		.byte	84
 161 00a3 00       		.byte	0
 162 00a4 38       		.byte	56
 163 00a5 03       		.byte	3
 164 00a6 43       		.byte	67
 165 00a7 00       		.byte	0
 166 00a8 44       		.byte	68
 167 00a9 00       		.byte	0
 168 00aa 43       		.byte	67
 169 00ab 00       		.byte	0
 170 00ac 20       		.byte	32
 171 00ad 00       		.byte	0
ARM GAS  C:\Users\MANSRO~1\AppData\Local\Temp\ccyEzZ57.s 			page 4


 172 00ae 43       		.byte	67
 173 00af 00       		.byte	0
 174 00b0 6F       		.byte	111
 175 00b1 00       		.byte	0
 176 00b2 6D       		.byte	109
 177 00b3 00       		.byte	0
 178 00b4 6D       		.byte	109
 179 00b5 00       		.byte	0
 180 00b6 75       		.byte	117
 181 00b7 00       		.byte	0
 182 00b8 6E       		.byte	110
 183 00b9 00       		.byte	0
 184 00ba 69       		.byte	105
 185 00bb 00       		.byte	0
 186 00bc 63       		.byte	99
 187 00bd 00       		.byte	0
 188 00be 61       		.byte	97
 189 00bf 00       		.byte	0
 190 00c0 74       		.byte	116
 191 00c1 00       		.byte	0
 192 00c2 69       		.byte	105
 193 00c3 00       		.byte	0
 194 00c4 6F       		.byte	111
 195 00c5 00       		.byte	0
 196 00c6 6E       		.byte	110
 197 00c7 00       		.byte	0
 198 00c8 20       		.byte	32
 199 00c9 00       		.byte	0
 200 00ca 49       		.byte	73
 201 00cb 00       		.byte	0
 202 00cc 6E       		.byte	110
 203 00cd 00       		.byte	0
 204 00ce 74       		.byte	116
 205 00cf 00       		.byte	0
 206 00d0 65       		.byte	101
 207 00d1 00       		.byte	0
 208 00d2 72       		.byte	114
 209 00d3 00       		.byte	0
 210 00d4 66       		.byte	102
 211 00d5 00       		.byte	0
 212 00d6 61       		.byte	97
 213 00d7 00       		.byte	0
 214 00d8 63       		.byte	99
 215 00d9 00       		.byte	0
 216 00da 65       		.byte	101
 217 00db 00       		.byte	0
 218 00dc 26       		.byte	38
 219 00dd 03       		.byte	3
 220 00de 43       		.byte	67
 221 00df 00       		.byte	0
 222 00e0 44       		.byte	68
 223 00e1 00       		.byte	0
 224 00e2 43       		.byte	67
 225 00e3 00       		.byte	0
 226 00e4 20       		.byte	32
 227 00e5 00       		.byte	0
 228 00e6 44       		.byte	68
ARM GAS  C:\Users\MANSRO~1\AppData\Local\Temp\ccyEzZ57.s 			page 5


 229 00e7 00       		.byte	0
 230 00e8 61       		.byte	97
 231 00e9 00       		.byte	0
 232 00ea 74       		.byte	116
 233 00eb 00       		.byte	0
 234 00ec 61       		.byte	97
 235 00ed 00       		.byte	0
 236 00ee 20       		.byte	32
 237 00ef 00       		.byte	0
 238 00f0 49       		.byte	73
 239 00f1 00       		.byte	0
 240 00f2 6E       		.byte	110
 241 00f3 00       		.byte	0
 242 00f4 74       		.byte	116
 243 00f5 00       		.byte	0
 244 00f6 65       		.byte	101
 245 00f7 00       		.byte	0
 246 00f8 72       		.byte	114
 247 00f9 00       		.byte	0
 248 00fa 66       		.byte	102
 249 00fb 00       		.byte	0
 250 00fc 61       		.byte	97
 251 00fd 00       		.byte	0
 252 00fe 63       		.byte	99
 253 00ff 00       		.byte	0
 254 0100 65       		.byte	101
 255 0101 00       		.byte	0
 256 0102 00       		.byte	0
 257 0103 00       		.space	1
 258              		.type	USBUART_DEVICE0_CONFIGURATION0_DESCR, %object
 259              		.size	USBUART_DEVICE0_CONFIGURATION0_DESCR, 67
 260              	USBUART_DEVICE0_CONFIGURATION0_DESCR:
 261 0104 09       		.byte	9
 262 0105 02       		.byte	2
 263 0106 43       		.byte	67
 264 0107 00       		.byte	0
 265 0108 02       		.byte	2
 266 0109 01       		.byte	1
 267 010a 01       		.byte	1
 268 010b 80       		.byte	-128
 269 010c 32       		.byte	50
 270 010d 09       		.byte	9
 271 010e 04       		.byte	4
 272 010f 00       		.byte	0
 273 0110 00       		.byte	0
 274 0111 01       		.byte	1
 275 0112 02       		.byte	2
 276 0113 02       		.byte	2
 277 0114 01       		.byte	1
 278 0115 03       		.byte	3
 279 0116 05       		.byte	5
 280 0117 24       		.byte	36
 281 0118 00       		.byte	0
 282 0119 10       		.byte	16
 283 011a 01       		.byte	1
 284 011b 04       		.byte	4
 285 011c 24       		.byte	36
ARM GAS  C:\Users\MANSRO~1\AppData\Local\Temp\ccyEzZ57.s 			page 6


 286 011d 02       		.byte	2
 287 011e 02       		.byte	2
 288 011f 05       		.byte	5
 289 0120 24       		.byte	36
 290 0121 06       		.byte	6
 291 0122 00       		.byte	0
 292 0123 01       		.byte	1
 293 0124 05       		.byte	5
 294 0125 24       		.byte	36
 295 0126 01       		.byte	1
 296 0127 00       		.byte	0
 297 0128 01       		.byte	1
 298 0129 07       		.byte	7
 299 012a 05       		.byte	5
 300 012b 81       		.byte	-127
 301 012c 03       		.byte	3
 302 012d 08       		.byte	8
 303 012e 00       		.byte	0
 304 012f 0A       		.byte	10
 305 0130 09       		.byte	9
 306 0131 04       		.byte	4
 307 0132 01       		.byte	1
 308 0133 00       		.byte	0
 309 0134 02       		.byte	2
 310 0135 0A       		.byte	10
 311 0136 00       		.byte	0
 312 0137 00       		.byte	0
 313 0138 04       		.byte	4
 314 0139 07       		.byte	7
 315 013a 05       		.byte	5
 316 013b 82       		.byte	-126
 317 013c 02       		.byte	2
 318 013d 40       		.byte	64
 319 013e 00       		.byte	0
 320 013f 00       		.byte	0
 321 0140 07       		.byte	7
 322 0141 05       		.byte	5
 323 0142 03       		.byte	3
 324 0143 02       		.byte	2
 325 0144 40       		.byte	64
 326 0145 00       		.byte	0
 327 0146 00       		.byte	0
 328 0147 00       		.space	1
 329              		.type	USBUART_DEVICE0_DESCR, %object
 330              		.size	USBUART_DEVICE0_DESCR, 18
 331              	USBUART_DEVICE0_DESCR:
 332 0148 12       		.byte	18
 333 0149 01       		.byte	1
 334 014a 00       		.byte	0
 335 014b 02       		.byte	2
 336 014c 02       		.byte	2
 337 014d 00       		.byte	0
 338 014e 00       		.byte	0
 339 014f 08       		.byte	8
 340 0150 B4       		.byte	-76
 341 0151 04       		.byte	4
 342 0152 32       		.byte	50
ARM GAS  C:\Users\MANSRO~1\AppData\Local\Temp\ccyEzZ57.s 			page 7


 343 0153 F2       		.byte	-14
 344 0154 01       		.byte	1
 345 0155 00       		.byte	0
 346 0156 01       		.byte	1
 347 0157 02       		.byte	2
 348 0158 00       		.byte	0
 349 0159 01       		.byte	1
 350              		.text
 351              	.Letext0:
 352              		.file 1 "Generated_Source\\PSoC5\\cytypes.h"
 353              		.file 2 "Generated_Source\\PSoC5\\USBUART.h"
 354              		.file 3 "Generated_Source\\PSoC5\\USBUART_descr.c"
 355              		.section	.debug_info,"",%progbits
 356              	.Ldebug_info0:
 357 0000 67020000 		.4byte	0x267
 358 0004 0400     		.2byte	0x4
 359 0006 00000000 		.4byte	.Ldebug_abbrev0
 360 000a 04       		.byte	0x4
 361 000b 01       		.uleb128 0x1
 362 000c D7000000 		.4byte	.LASF33
 363 0010 0C       		.byte	0xc
 364 0011 7B000000 		.4byte	.LASF34
 365 0015 73020000 		.4byte	.LASF35
 366 0019 00000000 		.4byte	.Ldebug_line0
 367 001d 02       		.uleb128 0x2
 368 001e 01       		.byte	0x1
 369 001f 06       		.byte	0x6
 370 0020 E7020000 		.4byte	.LASF0
 371 0024 02       		.uleb128 0x2
 372 0025 01       		.byte	0x1
 373 0026 08       		.byte	0x8
 374 0027 C9000000 		.4byte	.LASF1
 375 002b 02       		.uleb128 0x2
 376 002c 02       		.byte	0x2
 377 002d 05       		.byte	0x5
 378 002e CF010000 		.4byte	.LASF2
 379 0032 02       		.uleb128 0x2
 380 0033 02       		.byte	0x2
 381 0034 07       		.byte	0x7
 382 0035 F3020000 		.4byte	.LASF3
 383 0039 02       		.uleb128 0x2
 384 003a 04       		.byte	0x4
 385 003b 05       		.byte	0x5
 386 003c D2020000 		.4byte	.LASF4
 387 0040 02       		.uleb128 0x2
 388 0041 04       		.byte	0x4
 389 0042 07       		.byte	0x7
 390 0043 8C010000 		.4byte	.LASF5
 391 0047 02       		.uleb128 0x2
 392 0048 08       		.byte	0x8
 393 0049 05       		.byte	0x5
 394 004a 47020000 		.4byte	.LASF6
 395 004e 02       		.uleb128 0x2
 396 004f 08       		.byte	0x8
 397 0050 07       		.byte	0x7
 398 0051 FB010000 		.4byte	.LASF7
 399 0055 03       		.uleb128 0x3
ARM GAS  C:\Users\MANSRO~1\AppData\Local\Temp\ccyEzZ57.s 			page 8


 400 0056 04       		.byte	0x4
 401 0057 05       		.byte	0x5
 402 0058 696E7400 		.ascii	"int\000"
 403 005c 02       		.uleb128 0x2
 404 005d 04       		.byte	0x4
 405 005e 07       		.byte	0x7
 406 005f E0010000 		.4byte	.LASF8
 407 0063 04       		.uleb128 0x4
 408 0064 C2020000 		.4byte	.LASF9
 409 0068 01       		.byte	0x1
 410 0069 9201     		.2byte	0x192
 411 006b 24000000 		.4byte	0x24
 412 006f 04       		.uleb128 0x4
 413 0070 D9010000 		.4byte	.LASF10
 414 0074 01       		.byte	0x1
 415 0075 9301     		.2byte	0x193
 416 0077 32000000 		.4byte	0x32
 417 007b 02       		.uleb128 0x2
 418 007c 04       		.byte	0x4
 419 007d 04       		.byte	0x4
 420 007e B8000000 		.4byte	.LASF11
 421 0082 02       		.uleb128 0x2
 422 0083 08       		.byte	0x8
 423 0084 04       		.byte	0x4
 424 0085 C8010000 		.4byte	.LASF12
 425 0089 02       		.uleb128 0x2
 426 008a 01       		.byte	0x1
 427 008b 08       		.byte	0x8
 428 008c 55020000 		.4byte	.LASF13
 429 0090 02       		.uleb128 0x2
 430 0091 08       		.byte	0x8
 431 0092 04       		.byte	0x4
 432 0093 DB020000 		.4byte	.LASF14
 433 0097 02       		.uleb128 0x2
 434 0098 04       		.byte	0x4
 435 0099 07       		.byte	0x7
 436 009a 3E020000 		.4byte	.LASF15
 437 009e 05       		.uleb128 0x5
 438 009f 08       		.byte	0x8
 439 00a0 02       		.byte	0x2
 440 00a1 98       		.byte	0x98
 441 00a2 EF000000 		.4byte	0xef
 442 00a6 06       		.uleb128 0x6
 443 00a7 C8020000 		.4byte	.LASF16
 444 00ab 02       		.byte	0x2
 445 00ac 9A       		.byte	0x9a
 446 00ad 63000000 		.4byte	0x63
 447 00b1 00       		.byte	0
 448 00b2 06       		.uleb128 0x6
 449 00b3 BE000000 		.4byte	.LASF17
 450 00b7 02       		.byte	0x2
 451 00b8 9B       		.byte	0x9b
 452 00b9 63000000 		.4byte	0x63
 453 00bd 01       		.byte	0x1
 454 00be 06       		.uleb128 0x6
 455 00bf 9E010000 		.4byte	.LASF18
 456 00c3 02       		.byte	0x2
ARM GAS  C:\Users\MANSRO~1\AppData\Local\Temp\ccyEzZ57.s 			page 9


 457 00c4 9C       		.byte	0x9c
 458 00c5 63000000 		.4byte	0x63
 459 00c9 02       		.byte	0x2
 460 00ca 06       		.uleb128 0x6
 461 00cb 65010000 		.4byte	.LASF19
 462 00cf 02       		.byte	0x2
 463 00d0 9D       		.byte	0x9d
 464 00d1 63000000 		.4byte	0x63
 465 00d5 03       		.byte	0x3
 466 00d6 06       		.uleb128 0x6
 467 00d7 5A020000 		.4byte	.LASF20
 468 00db 02       		.byte	0x2
 469 00dc 9E       		.byte	0x9e
 470 00dd 6F000000 		.4byte	0x6f
 471 00e1 04       		.byte	0x4
 472 00e2 06       		.uleb128 0x6
 473 00e3 1C030000 		.4byte	.LASF21
 474 00e7 02       		.byte	0x2
 475 00e8 9F       		.byte	0x9f
 476 00e9 63000000 		.4byte	0x63
 477 00ed 06       		.byte	0x6
 478 00ee 00       		.byte	0
 479 00ef 07       		.uleb128 0x7
 480 00f0 70010000 		.4byte	.LASF22
 481 00f4 02       		.byte	0x2
 482 00f5 A0       		.byte	0xa0
 483 00f6 9E000000 		.4byte	0x9e
 484 00fa 05       		.uleb128 0x5
 485 00fb 08       		.byte	0x8
 486 00fc 02       		.byte	0x2
 487 00fd AF       		.byte	0xaf
 488 00fe 19010000 		.4byte	0x119
 489 0102 08       		.uleb128 0x8
 490 0103 6300     		.ascii	"c\000"
 491 0105 02       		.byte	0x2
 492 0106 B1       		.byte	0xb1
 493 0107 63000000 		.4byte	0x63
 494 010b 00       		.byte	0
 495 010c 06       		.uleb128 0x6
 496 010d 37020000 		.4byte	.LASF23
 497 0111 02       		.byte	0x2
 498 0112 B2       		.byte	0xb2
 499 0113 19010000 		.4byte	0x119
 500 0117 04       		.byte	0x4
 501 0118 00       		.byte	0
 502 0119 09       		.uleb128 0x9
 503 011a 04       		.byte	0x4
 504 011b 1F010000 		.4byte	0x11f
 505 011f 0A       		.uleb128 0xa
 506 0120 07       		.uleb128 0x7
 507 0121 ED010000 		.4byte	.LASF24
 508 0125 02       		.byte	0x2
 509 0126 B3       		.byte	0xb3
 510 0127 FA000000 		.4byte	0xfa
 511 012b 0B       		.uleb128 0xb
 512 012c 3B010000 		.4byte	0x13b
 513 0130 3B010000 		.4byte	0x13b
ARM GAS  C:\Users\MANSRO~1\AppData\Local\Temp\ccyEzZ57.s 			page 10


 514 0134 0C       		.uleb128 0xc
 515 0135 97000000 		.4byte	0x97
 516 0139 11       		.byte	0x11
 517 013a 00       		.byte	0
 518 013b 0D       		.uleb128 0xd
 519 013c 63000000 		.4byte	0x63
 520 0140 0E       		.uleb128 0xe
 521 0141 A2000000 		.4byte	.LASF25
 522 0145 03       		.byte	0x3
 523 0146 24       		.byte	0x24
 524 0147 51010000 		.4byte	0x151
 525 014b 05       		.uleb128 0x5
 526 014c 03       		.byte	0x3
 527 014d 00000000 		.4byte	USBUART_DEVICE0_DESCR
 528 0151 0D       		.uleb128 0xd
 529 0152 2B010000 		.4byte	0x12b
 530 0156 0B       		.uleb128 0xb
 531 0157 3B010000 		.4byte	0x13b
 532 015b 66010000 		.4byte	0x166
 533 015f 0C       		.uleb128 0xc
 534 0160 97000000 		.4byte	0x97
 535 0164 42       		.byte	0x42
 536 0165 00       		.byte	0
 537 0166 0E       		.uleb128 0xe
 538 0167 12020000 		.4byte	.LASF26
 539 016b 03       		.byte	0x3
 540 016c 37       		.byte	0x37
 541 016d 77010000 		.4byte	0x177
 542 0171 05       		.uleb128 0x5
 543 0172 03       		.byte	0x3
 544 0173 00000000 		.4byte	USBUART_DEVICE0_CONFIGURATION0_DESCR
 545 0177 0D       		.uleb128 0xd
 546 0178 56010000 		.4byte	0x156
 547 017c 0B       		.uleb128 0xb
 548 017d 8C010000 		.4byte	0x18c
 549 0181 8C010000 		.4byte	0x18c
 550 0185 0C       		.uleb128 0xc
 551 0186 97000000 		.4byte	0x97
 552 018a 02       		.byte	0x2
 553 018b 00       		.byte	0
 554 018c 0D       		.uleb128 0xd
 555 018d EF000000 		.4byte	0xef
 556 0191 0E       		.uleb128 0xe
 557 0192 4A000000 		.4byte	.LASF27
 558 0196 03       		.byte	0x3
 559 0197 D0       		.byte	0xd0
 560 0198 A2010000 		.4byte	0x1a2
 561 019c 05       		.uleb128 0x5
 562 019d 03       		.byte	0x3
 563 019e 00000000 		.4byte	USBUART_DEVICE0_CONFIGURATION0_EP_SETTINGS_TABLE
 564 01a2 0D       		.uleb128 0xd
 565 01a3 7C010000 		.4byte	0x17c
 566 01a7 0B       		.uleb128 0xb
 567 01a8 3B010000 		.4byte	0x13b
 568 01ac B7010000 		.4byte	0x1b7
 569 01b0 0C       		.uleb128 0xc
 570 01b1 97000000 		.4byte	0x97
ARM GAS  C:\Users\MANSRO~1\AppData\Local\Temp\ccyEzZ57.s 			page 11


 571 01b5 01       		.byte	0x1
 572 01b6 00       		.byte	0
 573 01b7 0E       		.uleb128 0xe
 574 01b8 00000000 		.4byte	.LASF28
 575 01bc 03       		.byte	0x3
 576 01bd D6       		.byte	0xd6
 577 01be C8010000 		.4byte	0x1c8
 578 01c2 05       		.uleb128 0x5
 579 01c3 03       		.byte	0x3
 580 01c4 00000000 		.4byte	USBUART_DEVICE0_CONFIGURATION0_INTERFACE_CLASS
 581 01c8 0D       		.uleb128 0xd
 582 01c9 A7010000 		.4byte	0x1a7
 583 01cd 0B       		.uleb128 0xb
 584 01ce DD010000 		.4byte	0x1dd
 585 01d2 DD010000 		.4byte	0x1dd
 586 01d6 0C       		.uleb128 0xc
 587 01d7 97000000 		.4byte	0x97
 588 01db 04       		.byte	0x4
 589 01dc 00       		.byte	0
 590 01dd 0D       		.uleb128 0xd
 591 01de 20010000 		.4byte	0x120
 592 01e2 0E       		.uleb128 0xe
 593 01e3 A3010000 		.4byte	.LASF29
 594 01e7 03       		.byte	0x3
 595 01e8 DE       		.byte	0xde
 596 01e9 F3010000 		.4byte	0x1f3
 597 01ed 05       		.uleb128 0x5
 598 01ee 03       		.byte	0x3
 599 01ef 00000000 		.4byte	USBUART_DEVICE0_CONFIGURATION0_TABLE
 600 01f3 0D       		.uleb128 0xd
 601 01f4 CD010000 		.4byte	0x1cd
 602 01f8 0B       		.uleb128 0xb
 603 01f9 DD010000 		.4byte	0x1dd
 604 01fd 08020000 		.4byte	0x208
 605 0201 0C       		.uleb128 0xc
 606 0202 97000000 		.4byte	0x97
 607 0206 02       		.byte	0x2
 608 0207 00       		.byte	0
 609 0208 0E       		.uleb128 0xe
 610 0209 06030000 		.4byte	.LASF30
 611 020d 03       		.byte	0x3
 612 020e E9       		.byte	0xe9
 613 020f 19020000 		.4byte	0x219
 614 0213 05       		.uleb128 0x5
 615 0214 03       		.byte	0x3
 616 0215 00000000 		.4byte	USBUART_DEVICE0_TABLE
 617 0219 0D       		.uleb128 0xd
 618 021a F8010000 		.4byte	0x1f8
 619 021e 0B       		.uleb128 0xb
 620 021f DD010000 		.4byte	0x1dd
 621 0223 2E020000 		.4byte	0x22e
 622 0227 0C       		.uleb128 0xc
 623 0228 97000000 		.4byte	0x97
 624 022c 00       		.byte	0
 625 022d 00       		.byte	0
 626 022e 0E       		.uleb128 0xe
 627 022f 65020000 		.4byte	.LASF31
ARM GAS  C:\Users\MANSRO~1\AppData\Local\Temp\ccyEzZ57.s 			page 12


 628 0233 03       		.byte	0x3
 629 0234 F1       		.byte	0xf1
 630 0235 3F020000 		.4byte	0x23f
 631 0239 05       		.uleb128 0x5
 632 023a 03       		.byte	0x3
 633 023b 00000000 		.4byte	USBUART_TABLE
 634 023f 0D       		.uleb128 0xd
 635 0240 1E020000 		.4byte	0x21e
 636 0244 0B       		.uleb128 0xb
 637 0245 3B010000 		.4byte	0x13b
 638 0249 54020000 		.4byte	0x254
 639 024d 0C       		.uleb128 0xc
 640 024e 97000000 		.4byte	0x97
 641 0252 9E       		.byte	0x9e
 642 0253 00       		.byte	0
 643 0254 0E       		.uleb128 0xe
 644 0255 2F000000 		.4byte	.LASF32
 645 0259 03       		.byte	0x3
 646 025a 96       		.byte	0x96
 647 025b 65020000 		.4byte	0x265
 648 025f 05       		.uleb128 0x5
 649 0260 03       		.byte	0x3
 650 0261 00000000 		.4byte	USBUART_STRING_DESCRIPTORS
 651 0265 0D       		.uleb128 0xd
 652 0266 44020000 		.4byte	0x244
 653 026a 00       		.byte	0
 654              		.section	.debug_abbrev,"",%progbits
 655              	.Ldebug_abbrev0:
 656 0000 01       		.uleb128 0x1
 657 0001 11       		.uleb128 0x11
 658 0002 01       		.byte	0x1
 659 0003 25       		.uleb128 0x25
 660 0004 0E       		.uleb128 0xe
 661 0005 13       		.uleb128 0x13
 662 0006 0B       		.uleb128 0xb
 663 0007 03       		.uleb128 0x3
 664 0008 0E       		.uleb128 0xe
 665 0009 1B       		.uleb128 0x1b
 666 000a 0E       		.uleb128 0xe
 667 000b 10       		.uleb128 0x10
 668 000c 17       		.uleb128 0x17
 669 000d 00       		.byte	0
 670 000e 00       		.byte	0
 671 000f 02       		.uleb128 0x2
 672 0010 24       		.uleb128 0x24
 673 0011 00       		.byte	0
 674 0012 0B       		.uleb128 0xb
 675 0013 0B       		.uleb128 0xb
 676 0014 3E       		.uleb128 0x3e
 677 0015 0B       		.uleb128 0xb
 678 0016 03       		.uleb128 0x3
 679 0017 0E       		.uleb128 0xe
 680 0018 00       		.byte	0
 681 0019 00       		.byte	0
 682 001a 03       		.uleb128 0x3
 683 001b 24       		.uleb128 0x24
 684 001c 00       		.byte	0
ARM GAS  C:\Users\MANSRO~1\AppData\Local\Temp\ccyEzZ57.s 			page 13


 685 001d 0B       		.uleb128 0xb
 686 001e 0B       		.uleb128 0xb
 687 001f 3E       		.uleb128 0x3e
 688 0020 0B       		.uleb128 0xb
 689 0021 03       		.uleb128 0x3
 690 0022 08       		.uleb128 0x8
 691 0023 00       		.byte	0
 692 0024 00       		.byte	0
 693 0025 04       		.uleb128 0x4
 694 0026 16       		.uleb128 0x16
 695 0027 00       		.byte	0
 696 0028 03       		.uleb128 0x3
 697 0029 0E       		.uleb128 0xe
 698 002a 3A       		.uleb128 0x3a
 699 002b 0B       		.uleb128 0xb
 700 002c 3B       		.uleb128 0x3b
 701 002d 05       		.uleb128 0x5
 702 002e 49       		.uleb128 0x49
 703 002f 13       		.uleb128 0x13
 704 0030 00       		.byte	0
 705 0031 00       		.byte	0
 706 0032 05       		.uleb128 0x5
 707 0033 13       		.uleb128 0x13
 708 0034 01       		.byte	0x1
 709 0035 0B       		.uleb128 0xb
 710 0036 0B       		.uleb128 0xb
 711 0037 3A       		.uleb128 0x3a
 712 0038 0B       		.uleb128 0xb
 713 0039 3B       		.uleb128 0x3b
 714 003a 0B       		.uleb128 0xb
 715 003b 01       		.uleb128 0x1
 716 003c 13       		.uleb128 0x13
 717 003d 00       		.byte	0
 718 003e 00       		.byte	0
 719 003f 06       		.uleb128 0x6
 720 0040 0D       		.uleb128 0xd
 721 0041 00       		.byte	0
 722 0042 03       		.uleb128 0x3
 723 0043 0E       		.uleb128 0xe
 724 0044 3A       		.uleb128 0x3a
 725 0045 0B       		.uleb128 0xb
 726 0046 3B       		.uleb128 0x3b
 727 0047 0B       		.uleb128 0xb
 728 0048 49       		.uleb128 0x49
 729 0049 13       		.uleb128 0x13
 730 004a 38       		.uleb128 0x38
 731 004b 0B       		.uleb128 0xb
 732 004c 00       		.byte	0
 733 004d 00       		.byte	0
 734 004e 07       		.uleb128 0x7
 735 004f 16       		.uleb128 0x16
 736 0050 00       		.byte	0
 737 0051 03       		.uleb128 0x3
 738 0052 0E       		.uleb128 0xe
 739 0053 3A       		.uleb128 0x3a
 740 0054 0B       		.uleb128 0xb
 741 0055 3B       		.uleb128 0x3b
ARM GAS  C:\Users\MANSRO~1\AppData\Local\Temp\ccyEzZ57.s 			page 14


 742 0056 0B       		.uleb128 0xb
 743 0057 49       		.uleb128 0x49
 744 0058 13       		.uleb128 0x13
 745 0059 00       		.byte	0
 746 005a 00       		.byte	0
 747 005b 08       		.uleb128 0x8
 748 005c 0D       		.uleb128 0xd
 749 005d 00       		.byte	0
 750 005e 03       		.uleb128 0x3
 751 005f 08       		.uleb128 0x8
 752 0060 3A       		.uleb128 0x3a
 753 0061 0B       		.uleb128 0xb
 754 0062 3B       		.uleb128 0x3b
 755 0063 0B       		.uleb128 0xb
 756 0064 49       		.uleb128 0x49
 757 0065 13       		.uleb128 0x13
 758 0066 38       		.uleb128 0x38
 759 0067 0B       		.uleb128 0xb
 760 0068 00       		.byte	0
 761 0069 00       		.byte	0
 762 006a 09       		.uleb128 0x9
 763 006b 0F       		.uleb128 0xf
 764 006c 00       		.byte	0
 765 006d 0B       		.uleb128 0xb
 766 006e 0B       		.uleb128 0xb
 767 006f 49       		.uleb128 0x49
 768 0070 13       		.uleb128 0x13
 769 0071 00       		.byte	0
 770 0072 00       		.byte	0
 771 0073 0A       		.uleb128 0xa
 772 0074 26       		.uleb128 0x26
 773 0075 00       		.byte	0
 774 0076 00       		.byte	0
 775 0077 00       		.byte	0
 776 0078 0B       		.uleb128 0xb
 777 0079 01       		.uleb128 0x1
 778 007a 01       		.byte	0x1
 779 007b 49       		.uleb128 0x49
 780 007c 13       		.uleb128 0x13
 781 007d 01       		.uleb128 0x1
 782 007e 13       		.uleb128 0x13
 783 007f 00       		.byte	0
 784 0080 00       		.byte	0
 785 0081 0C       		.uleb128 0xc
 786 0082 21       		.uleb128 0x21
 787 0083 00       		.byte	0
 788 0084 49       		.uleb128 0x49
 789 0085 13       		.uleb128 0x13
 790 0086 2F       		.uleb128 0x2f
 791 0087 0B       		.uleb128 0xb
 792 0088 00       		.byte	0
 793 0089 00       		.byte	0
 794 008a 0D       		.uleb128 0xd
 795 008b 26       		.uleb128 0x26
 796 008c 00       		.byte	0
 797 008d 49       		.uleb128 0x49
 798 008e 13       		.uleb128 0x13
ARM GAS  C:\Users\MANSRO~1\AppData\Local\Temp\ccyEzZ57.s 			page 15


 799 008f 00       		.byte	0
 800 0090 00       		.byte	0
 801 0091 0E       		.uleb128 0xe
 802 0092 34       		.uleb128 0x34
 803 0093 00       		.byte	0
 804 0094 03       		.uleb128 0x3
 805 0095 0E       		.uleb128 0xe
 806 0096 3A       		.uleb128 0x3a
 807 0097 0B       		.uleb128 0xb
 808 0098 3B       		.uleb128 0x3b
 809 0099 0B       		.uleb128 0xb
 810 009a 49       		.uleb128 0x49
 811 009b 13       		.uleb128 0x13
 812 009c 3F       		.uleb128 0x3f
 813 009d 19       		.uleb128 0x19
 814 009e 02       		.uleb128 0x2
 815 009f 18       		.uleb128 0x18
 816 00a0 00       		.byte	0
 817 00a1 00       		.byte	0
 818 00a2 00       		.byte	0
 819              		.section	.debug_aranges,"",%progbits
 820 0000 14000000 		.4byte	0x14
 821 0004 0200     		.2byte	0x2
 822 0006 00000000 		.4byte	.Ldebug_info0
 823 000a 04       		.byte	0x4
 824 000b 00       		.byte	0
 825 000c 0000     		.2byte	0
 826 000e 0000     		.2byte	0
 827 0010 00000000 		.4byte	0
 828 0014 00000000 		.4byte	0
 829              		.section	.debug_line,"",%progbits
 830              	.Ldebug_line0:
 831 0000 5D000000 		.section	.debug_str,"MS",%progbits,1
 831      02005700 
 831      00000201 
 831      FB0E0D00 
 831      01010101 
 832              	.LASF28:
 833 0000 55534255 		.ascii	"USBUART_DEVICE0_CONFIGURATION0_INTERFACE_CLASS\000"
 833      4152545F 
 833      44455649 
 833      4345305F 
 833      434F4E46 
 834              	.LASF32:
 835 002f 55534255 		.ascii	"USBUART_STRING_DESCRIPTORS\000"
 835      4152545F 
 835      53545249 
 835      4E475F44 
 835      45534352 
 836              	.LASF27:
 837 004a 55534255 		.ascii	"USBUART_DEVICE0_CONFIGURATION0_EP_SETTINGS_TABLE\000"
 837      4152545F 
 837      44455649 
 837      4345305F 
 837      434F4E46 
 838              	.LASF34:
 839 007b 47656E65 		.ascii	"Generated_Source\\PSoC5\\USBUART_descr.c\000"
ARM GAS  C:\Users\MANSRO~1\AppData\Local\Temp\ccyEzZ57.s 			page 16


 839      72617465 
 839      645F536F 
 839      75726365 
 839      5C50536F 
 840              	.LASF25:
 841 00a2 55534255 		.ascii	"USBUART_DEVICE0_DESCR\000"
 841      4152545F 
 841      44455649 
 841      4345305F 
 841      44455343 
 842              	.LASF11:
 843 00b8 666C6F61 		.ascii	"float\000"
 843      7400
 844              	.LASF17:
 845 00be 616C7453 		.ascii	"altSetting\000"
 845      65747469 
 845      6E6700
 846              	.LASF1:
 847 00c9 756E7369 		.ascii	"unsigned char\000"
 847      676E6564 
 847      20636861 
 847      7200
 848              	.LASF33:
 849 00d7 474E5520 		.ascii	"GNU C11 5.4.1 20160609 (release) [ARM/embedded-5-br"
 849      43313120 
 849      352E342E 
 849      31203230 
 849      31363036 
 850 010a 616E6368 		.ascii	"anch revision 237715] -mcpu=cortex-m3 -mthumb -g -O"
 850      20726576 
 850      6973696F 
 850      6E203233 
 850      37373135 
 851 013d 67202D66 		.ascii	"g -ffunction-sections -ffat-lto-objects\000"
 851      66756E63 
 851      74696F6E 
 851      2D736563 
 851      74696F6E 
 852              	.LASF19:
 853 0165 61747472 		.ascii	"attributes\000"
 853      69627574 
 853      657300
 854              	.LASF22:
 855 0170 545F5553 		.ascii	"T_USBUART_EP_SETTINGS_BLOCK\000"
 855      42554152 
 855      545F4550 
 855      5F534554 
 855      54494E47 
 856              	.LASF5:
 857 018c 6C6F6E67 		.ascii	"long unsigned int\000"
 857      20756E73 
 857      69676E65 
 857      6420696E 
 857      7400
 858              	.LASF18:
 859 019e 61646472 		.ascii	"addr\000"
 859      00
ARM GAS  C:\Users\MANSRO~1\AppData\Local\Temp\ccyEzZ57.s 			page 17


 860              	.LASF29:
 861 01a3 55534255 		.ascii	"USBUART_DEVICE0_CONFIGURATION0_TABLE\000"
 861      4152545F 
 861      44455649 
 861      4345305F 
 861      434F4E46 
 862              	.LASF12:
 863 01c8 646F7562 		.ascii	"double\000"
 863      6C6500
 864              	.LASF2:
 865 01cf 73686F72 		.ascii	"short int\000"
 865      7420696E 
 865      7400
 866              	.LASF10:
 867 01d9 75696E74 		.ascii	"uint16\000"
 867      313600
 868              	.LASF8:
 869 01e0 756E7369 		.ascii	"unsigned int\000"
 869      676E6564 
 869      20696E74 
 869      00
 870              	.LASF24:
 871 01ed 545F5553 		.ascii	"T_USBUART_LUT\000"
 871      42554152 
 871      545F4C55 
 871      5400
 872              	.LASF7:
 873 01fb 6C6F6E67 		.ascii	"long long unsigned int\000"
 873      206C6F6E 
 873      6720756E 
 873      7369676E 
 873      65642069 
 874              	.LASF26:
 875 0212 55534255 		.ascii	"USBUART_DEVICE0_CONFIGURATION0_DESCR\000"
 875      4152545F 
 875      44455649 
 875      4345305F 
 875      434F4E46 
 876              	.LASF23:
 877 0237 705F6C69 		.ascii	"p_list\000"
 877      737400
 878              	.LASF15:
 879 023e 73697A65 		.ascii	"sizetype\000"
 879      74797065 
 879      00
 880              	.LASF6:
 881 0247 6C6F6E67 		.ascii	"long long int\000"
 881      206C6F6E 
 881      6720696E 
 881      7400
 882              	.LASF13:
 883 0255 63686172 		.ascii	"char\000"
 883      00
 884              	.LASF20:
 885 025a 62756666 		.ascii	"bufferSize\000"
 885      65725369 
 885      7A6500
ARM GAS  C:\Users\MANSRO~1\AppData\Local\Temp\ccyEzZ57.s 			page 18


 886              	.LASF31:
 887 0265 55534255 		.ascii	"USBUART_TABLE\000"
 887      4152545F 
 887      5441424C 
 887      4500
 888              	.LASF35:
 889 0273 433A5C55 		.ascii	"C:\\Users\\Mans Robots\\Google Drive\\new_sumo code"
 889      73657273 
 889      5C4D616E 
 889      7320526F 
 889      626F7473 
 890 02a2 5C42555F 		.ascii	"\\BU_newboard_sumo\\BU_sumo.cydsn\000"
 890      6E657762 
 890      6F617264 
 890      5F73756D 
 890      6F5C4255 
 891              	.LASF9:
 892 02c2 75696E74 		.ascii	"uint8\000"
 892      3800
 893              	.LASF16:
 894 02c8 696E7465 		.ascii	"interface\000"
 894      72666163 
 894      6500
 895              	.LASF4:
 896 02d2 6C6F6E67 		.ascii	"long int\000"
 896      20696E74 
 896      00
 897              	.LASF14:
 898 02db 6C6F6E67 		.ascii	"long double\000"
 898      20646F75 
 898      626C6500 
 899              	.LASF0:
 900 02e7 7369676E 		.ascii	"signed char\000"
 900      65642063 
 900      68617200 
 901              	.LASF3:
 902 02f3 73686F72 		.ascii	"short unsigned int\000"
 902      7420756E 
 902      7369676E 
 902      65642069 
 902      6E7400
 903              	.LASF30:
 904 0306 55534255 		.ascii	"USBUART_DEVICE0_TABLE\000"
 904      4152545F 
 904      44455649 
 904      4345305F 
 904      5441424C 
 905              	.LASF21:
 906 031c 624D6973 		.ascii	"bMisc\000"
 906      6300
 907              		.ident	"GCC: (GNU Tools for ARM Embedded Processors) 5.4.1 20160609 (release) [ARM/embedded-5-bran
